﻿


EVENT   1
 PAGE   1
  0()



EVENT   2
 PAGE   1
  281(1)
  250(bytes(0x04,0x08,0x6f,0x3a,0x0c,0x52,0x50,0x47,0x3a,0x3a,0x53,0x45,0x08,0x3a,0x0a,0x40,0x6e,0x61,0x6d,0x65,0x49,0x22,0x09,0x4d,0x6f,0x76,0x65,0x06,0x3a,0x06,0x45,0x54,0x3a,0x0b,0x40,0x70,0x69,0x74,0x63,0x68,0x69,0x69,0x3a,0x0c,0x40,0x76,0x6f,0x6c,0x75,0x6d,0x65,0x69,0x55))
  TeleportPlayer(0,35,24,15,0,0)
  0()



EVENT   3
 PAGE   1
  0()



EVENT   4
 PAGE   1
  0()



EVENT   5
 PAGE   1
  281(1)
  250(bytes(0x04,0x08,0x6f,0x3a,0x0c,0x52,0x50,0x47,0x3a,0x3a,0x53,0x45,0x08,0x3a,0x0a,0x40,0x6e,0x61,0x6d,0x65,0x49,0x22,0x09,0x4d,0x6f,0x76,0x65,0x06,0x3a,0x06,0x45,0x54,0x3a,0x0b,0x40,0x70,0x69,0x74,0x63,0x68,0x69,0x69,0x3a,0x0c,0x40,0x76,0x6f,0x6c,0x75,0x6d,0x65,0x69,0x55))
  TeleportPlayer(0,35,37,18,0,0)
  0()



EVENT   6
 PAGE   1
  281(1)
  250(bytes(0x04,0x08,0x6f,0x3a,0x0c,0x52,0x50,0x47,0x3a,0x3a,0x53,0x45,0x08,0x3a,0x0a,0x40,0x6e,0x61,0x6d,0x65,0x49,0x22,0x09,0x4d,0x6f,0x76,0x65,0x06,0x3a,0x06,0x45,0x54,0x3a,0x0b,0x40,0x70,0x69,0x74,0x63,0x68,0x69,0x69,0x3a,0x0c,0x40,0x76,0x6f,0x6c,0x75,0x6d,0x65,0x69,0x55))
  TeleportPlayer(0,35,10,26,0,0)
  0()



EVENT   7
 PAGE   1
  0()



EVENT   8
 PAGE   1
  281(1)
  250(bytes(0x04,0x08,0x6f,0x3a,0x0c,0x52,0x50,0x47,0x3a,0x3a,0x53,0x45,0x08,0x3a,0x0a,0x40,0x6e,0x61,0x6d,0x65,0x49,0x22,0x09,0x4d,0x6f,0x76,0x65,0x06,0x3a,0x06,0x45,0x54,0x3a,0x0b,0x40,0x70,0x69,0x74,0x63,0x68,0x69,0x69,0x3a,0x0c,0x40,0x76,0x6f,0x6c,0x75,0x6d,0x65,0x69,0x55))
  TeleportPlayer(0,35,20,30,0,0)
  0()



EVENT   9
 PAGE   1
  0()



EVENT   10
 PAGE   1
  0()



EVENT   11
 PAGE   1
  281(1)
  250(bytes(0x04,0x08,0x6f,0x3a,0x0c,0x52,0x50,0x47,0x3a,0x3a,0x53,0x45,0x08,0x3a,0x0a,0x40,0x6e,0x61,0x6d,0x65,0x49,0x22,0x09,0x4d,0x6f,0x76,0x65,0x06,0x3a,0x06,0x45,0x54,0x3a,0x0b,0x40,0x70,0x69,0x74,0x63,0x68,0x69,0x69,0x3a,0x0c,0x40,0x76,0x6f,0x6c,0x75,0x6d,0x65,0x69,0x55))
  TeleportPlayer(0,35,30,29,0,0)
  0()



EVENT   12
 PAGE   1
  If(1,1018,0,3,2)
   ShowMessageFace("",0,0,2,1)
   ShowMessage("\\n<Elf>I don't sell to strangers, sorry.")
   EndEventProcessing()
   0()
  EndIf()
  If(1,1018,0,4,0)
   ShowMessageFace("",0,0,2,2)
   ShowMessage("\\n<Elf>So you're Micaela's relative, right? Let's get down to business then!")
   ShowChoices(strings("Buy Items","Synthesize","Never mind"),3)
   IfPlayerPicksChoice(0,null)
    Shop(1,6,0,0,false)
    605(2,5,0,0)
    605(2,182,0,0)
    605(2,1056,0,0)
    605(2,1061,0,0)
    605(2,1100,0,0)
    605(2,1113,0,0)
    605(2,1493,0,0)
    605(2,1497,0,0)
    605(2,1501,0,0)
    605(2,1505,0,0)
    605(2,1509,0,0)
    605(2,1513,0,0)
    605(2,1525,0,0)
    605(2,1529,0,0)
    605(0,1,0,0)
    605(0,15,0,0)
    EndEventProcessing()
    0()
   IfPlayerPicksChoice(1,null)
    355("call_synthesize(6)")
    EndEventProcessing()
    0()
   IfPlayerPicksChoice(2,null)
    EndEventProcessing()
    0()
   404()
   0()
  EndIf()
  0()


EVENT   13
 PAGE   1
  If(1,1018,0,3,2)
   ShowMessageFace("",0,0,2,1)
   ShowMessage("\\n<Angel>......")
   0()
  EndIf()
  If(1,1018,0,4,0)
   If(1,1076,0,3,2)
    ShowMessageFace("",0,0,2,2)
    ShowMessage("\\n<Angel>We happened to be on earth for a mission by pure chance when the Great Disaster struck. Hence, we were not caught up in Heaven's disappearance.")
    ShowMessageFace("",0,0,2,3)
    ShowMessage("\\n<Angel>However, many of our comrades in Heaven... and Goddess Ilias... aahh...")
    355("actor_label_jump")
    EndEventProcessing()
    DefineLabel("26")
    ShowMessageFace("iriasu_fc4",0,0,2,4)
    ShowMessage("\\n<Ilias>Raise your head. The Goddess of Creation, Ilias, is right here...")
    ShowMessageFace("",0,0,2,5)
    ShowMessage("\\n<Angel>Oh my, you sure are alike. So you dressed yourself as such just to comfort me...")
    ShowMessageFace("iriasu_fc4",5,0,2,6)
    ShowMessage("\\n<Ilias>What? No! I'm the real Goddess!")
    EndEventProcessing()
    DefineLabel("41")
    ShowMessageFace("stein_fc2",1,0,2,7)
    ShowMessage("\\n<Promestein>Eden, the Cherubs, and everyone else who always stayed in Heaven... Ahh, it's so heartrending...")
    If(0,5,0)
     ShowMessageFace("iriasu_fc4",2,0,2,8)
     ShowMessage("\\n<Ilias>Promestein, you're smiling. The fact that it shows on your face so plainly means you haven't become so devious yet...")
     0()
    Else()
     ShowMessageFace("sonia_fc4",0,0,2,9)
     ShowMessage("\\n<Sonya>You're smiling...")
     0()
    EndIf()
    EndEventProcessing()
    0()
   EndIf()
   If(1,1076,0,4,1)
    ShowMessageFace("",0,0,2,10)
    ShowMessage("\\n<Angel>We happened to be on earth for a mission by pure chance when the Great Disaster struck. Hence, we were not caught up in Heaven's disappearance.")
    ShowMessageFace("",0,0,2,11)
    ShowMessage("\\n<Angel>However, many of our comrades in Heaven... and Goddess Ilias... aahh...")
    ShowMessageFace("",0,0,2,12)
    ShowMessage("\\n<Angel>...What? There are survivors living in the Snow Continent!?")
    ShowMessage("That's great news. I'll have to tell Micaela when she returns...")
    EndEventProcessing()
    0()
   EndIf()
   0()
  EndIf()
  0()



EVENT   14
 PAGE   1
  If(1,1018,0,3,2)
   ShowMessageFace("",0,0,2,1)
   ShowMessage("\\n<Fallen Angel>W-what is it...?")
   0()
  EndIf()
  If(1,1018,0,4,0)
   ShowMessageFace("",0,0,2,2)
   ShowMessage("\\n<Fallen Angel>I never thought I'd see the day where an angel and a fallen angel could live under the same roof. Although now that all angels have fallen to earth, the distinction might be meaningless.")
   355("actor_label_jump")
   EndEventProcessing()
   DefineLabel("383")
   ShowMessageFace("eden_fc1",1,0,2,3)
   ShowMessage("\\n<Eden>It has been a few decades since I have fallen. My, how times have changed...")
   EndEventProcessing()
   0()
  EndIf()
  0()



EVENT   15
 PAGE   1
  If(1,1018,0,3,2)
   ShowMessageFace("",0,0,2,1)
   ShowMessage("\\n<Dark Elf>......")
   0()
  EndIf()
  If(1,1018,0,4,0)
   ShowMessageFace("",0,0,2,2)
   ShowMessage("\\n<Dark Elf>Dark Elves are elves who accumulated too much dark energy. There are various causes for that... but it's mostly because we drowned in our own greed.")
   ShowMessageFace("",0,0,2,3)
   ShowMessage("\\n<Dark Elf>In my case, I raped so many men that I turned dark... But now I'm trying to reintegrate myself into society as a healthy elf.")
   355("actor_label_jump")
   EndEventProcessing()
   DefineLabel("96")
   ShowMessageFace("delh_b_fc1",0,0,2,4)
   ShowMessage("\\n<Marion>There's no need to do that...\nLet's embrace being the dark elves that we are.")
   EndEventProcessing()
   DefineLabel("136")
   ShowMessageFace("elf_fc1",0,0,2,5)
   ShowMessage("\\n<Claudia>It's too late for regrets...\nThat's what happens when you're unable to control your selfishness.")
   EndEventProcessing()
   0()
  EndIf()
  0()



EVENT   16
 PAGE   1
  If(1,1018,0,3,2)
   ShowMessageFace("",0,0,2,1)
   ShowMessage("\\n<Elf>......")
   0()
  EndIf()
  If(1,1018,0,4,0)
   ShowMessageFace("",0,0,2,2)
   ShowMessage("\\n<Elf>Dark elves have been shunned by elven society. I don't really mind them though...")
   355("actor_label_jump")
   EndEventProcessing()
   DefineLabel("95")
   ShowMessageFace("delh_a_fc1",0,0,2,3)
   ShowMessage("\\n<Lona>Hmm, so there are elves like that, too. But you might be shunned as an outcast in your home village for saying that...")
   EndEventProcessing()
   DefineLabel("316")
   ShowMessageFace("queenelf_fc1",0,0,2,4)
   ShowMessage("\\n<Freya>Dark elves attack humans for fun and disturb the peace... However, we have committed far worse sins.")
   EndEventProcessing()
   0()
  EndIf()
  0()



EVENT   17
 PAGE   1
  If(1,1018,0,2,2)
   ShowMessageFace("",0,0,2,1)
   ShowMessage("\\n<Elf>Welcome to Enrika, the hidden village. Please don't cause any trouble while you're here.")
   EndEventProcessing()
   0()
  EndIf()
  If(1,1018,0,3,0)
   ShowMessageFace("",0,0,2,2)
   ShowMessage("\\n<Elf>Welcome to Enrika, the hidden village. Please don't cause any trouble while you're here.")
   ShowChoices(strings("I came to meet Micaela","This village is mine!","Never mind"),3)
   IfPlayerPicksChoice(0,null)
    JumpToLabel("話")
    0()
   IfPlayerPicksChoice(1,null)
    RunCommonEvent(303)
    If(4,80,0)
     ShowMessageFace("orc_fc1",1,0,2,3)
     ShowMessage("\\n<Hip>Oink! Now you're talkin' my language!")
     0()
    EndIf()
    If(0,4,0)
     ShowMessageFace("alice_fc5",5,0,2,4)
     ShowMessage("\\n<Alice>Cool off, idiot.")
     ShowMessageFace("alice_fc5",0,0,2,5)
     ShowMessage("\\n<Alice>We've come to meet someone named Micaela. It's difficult for us to explain, but she was introduced to us in a letter...")
     JumpToLabel("話")
     0()
    EndIf()
    If(0,5,0)
     ShowMessageFace("iriasu_fc4",2,0,2,6)
     ShowMessage("\\n<Ilias>Well, considering the history of this village, it would be reasonable for ownership to be passed to Luka.")
     ShowMessageFace("iriasu_fc4",2,0,2,7)
     ShowMessage("\\n<Ilias>By the way, I'm a nameless tiny angel, and we have come to meet with Micaela.")
     JumpToLabel("話")
     0()
    EndIf()
    0()
   IfPlayerPicksChoice(2,null)
    EndEventProcessing()
    0()
   404()
   DefineLabel("話")
   ShowMessageFace("",0,0,2,8)
   ShowMessage("\\n<Elf>To meet Micaela...!?")
   ShowMessageFace("",0,0,2,9)
   ShowMessage("\\n<Elf>It can't be, if you're Luka...\nOh, please say you're not...")
   ShowChoices(strings("I'm Luka","I'm not","Don't answer"),0)
   IfPlayerPicksChoice(0,null)
    ShowMessageFace("",0,0,2,10)
    ShowMessage("\\n<Elf>Why Micaela, why...")
    0()
   IfPlayerPicksChoice(1,null)
    ShowMessageFace("",0,0,2,11)
    ShowMessage("\\n<Elf>No, I know you're lying. You really are Luka, aren't you?")
    0()
   IfPlayerPicksChoice(2,null)
    ShowMessageFace("",0,0,2,12)
    ShowMessage("\\n<Elf>As I thought, you are Luka, aren't you?")
    0()
   404()
   ShowMessageFace("",0,0,2,13)
   ShowMessage("Tears appear in the Elf's eyes...")
   If(0,4,0)
    ShowMessageFace("alice_fc5",2,0,2,14)
    ShowMessage("\\n<Alice>Why? What in the world could Luka have done...?")
    0()
   EndIf()
   If(0,5,0)
    ShowMessageFace("iriasu_fc4",2,0,2,15)
    ShowMessage("\\n<Ilias>I fail to understand... What does Luka's coming have to do with anything?")
    0()
   EndIf()
   ShowMessageFace("",0,0,2,16)
   ShowMessage("\\n<Elf>I'm sorry, let me start from the beginning. This is all related to Micaela's last will.")
   If(0,6,0)
    ShowMessageFace("sonia_fc3",7,0,2,17)
    ShowMessage("\\n<Sonya>L-last will...? Then this Micaela person is already...")
    0()
   Else()
    ShowMessageFace("ruka_fc1",0,0,2,18)
    ShowMessage("\\n<Luka>L-last will...? Then this Micaela person is already...")
    0()
   EndIf()
   ShowMessageFace("",0,0,2,19)
   ShowMessage("\\n<Elf>Well, the story dates back to half a month ago. Micaela, who governed over this village, said this to me.")
   ShowMessageFace("",0,0,2,20)
   ShowMessage("\\n<Elf>\"I'll be leaving the village for a while. There are some people out there I need to stop, no matter what.\"")
   ShowMessageFace("",0,0,2,21)
   ShowMessage("\\n<Elf>Then she added \"If a boy named Luka comes looking for me, it means I have lost my life.\"")
   If(0,4,0)
    ShowMessageFace("alice_fc6",0,0,2,22)
    ShowMessage("\\n<Alice>Luka's coming here means Micaela is dead...? How does that make any sense?")
    0()
   EndIf()
   If(0,5,0)
    ShowMessageFace("iriasu_fc4",5,0,2,23)
    ShowMessage("\\n<Ilias>The moment Luka appears here will mean Micaela's dead? But how could Micaela...")
    0()
   EndIf()
   ShowMessageFace("",0,0,2,24)
   ShowMessage("\\n<Elf>And so Micaela left the village. We've heard no news of her for the last two weeks.")
   ShowMessageFace("",0,0,2,25)
   ShowMessage("\\n<Elf>And now today, Luka appears here...\nThis is too much...")
   ShowMessageFace("",0,0,2,26)
   ShowMessage("That's quite the ominous prophecy, but does it really mean that Micaela is dead?")
   ShowMessageFace("",0,0,2,27)
   ShowMessage("\\n<Elf>No... Considering what's at stake, I can't simply accept that Micaela is gone. I have to believe she's still alive.")
   ShowMessageFace("",0,0,2,28)
   ShowMessage("\\n<Elf>She also told me that you're related to her and I should do everything in my power to assist you.")
   If(0,4,0)
    ShowMessageFace("ruka_fc1",0,0,2,29)
    ShowMessage("\\n<Luka>We're related? I have more family members...?")
    ShowMessageFace("alice_fc5",0,0,2,30)
    ShowMessage("\\n<Alice>It appears you had no idea, but it seems like your father knew it.")
    0()
   EndIf()
   If(0,5,0)
    ShowMessageFace("iriasu_fc4",2,0,2,31)
    ShowMessage("\\n<Ilias>Yes, Micaela would be something like Luka's aunt.")
    0()
   EndIf()
   ShowMessageFace("",0,0,2,32)
   ShowMessage("\\n<Elf>We shall aid you as best we can. Please, accept these.")
   250(bytes(0x04,0x08,0x6f,0x3a,0x0c,0x52,0x50,0x47,0x3a,0x3a,0x53,0x45,0x08,0x3a,0x0a,0x40,0x6e,0x61,0x6d,0x65,0x49,0x22,0x0a,0x49,0x74,0x65,0x6d,0x31,0x06,0x3a,0x06,0x45,0x54,0x3a,0x0b,0x40,0x70,0x69,0x74,0x63,0x68,0x69,0x69,0x3a,0x0c,0x40,0x76,0x6f,0x6c,0x75,0x6d,0x65,0x69,0x55))
   ChangeInventoryWeapon(6,0,0,1,false)
   ChangeInventoryArmor(5,0,0,1,false)
   ChangeInventoryArmor(1061,0,0,1,false)
   ShowMessageFace("",0,0,2,33)
   ShowMessage("\\n<Elf>I shall inform the other villagers to help you, although they have to make a living too and won't be able to give you everything for free...")
   ShowMessageFace("ruka_fc1",0,0,2,34)
   ShowMessage("\\n<Luka>No, that's all right. Thank you very much!")
   ShowMessageFace("",0,0,2,35)
   ShowMessage("What do we do now though? Micaela was our best lead and we weren't able to meet with her...")
   If(0,4,0)
    ShowMessageFace("alice_fc5",0,0,2,36)
    ShowMessage("\\n<Alice>We've been to both Tartarus rifts on the Ilias Continent. The remaining ones require us to travel north to Sentora.")
    0()
   EndIf()
   If(0,5,0)
    ShowMessageFace("iriasu_fc4",2,0,2,37)
    ShowMessage("\\n<Ilias>We have been to both Tartarus rifts on the Ilias Continent. The remaining ones require us to travel north to Sentora.")
    0()
   EndIf()
   If(0,6,0)
    ShowMessageFace("sonia_fc1",0,0,2,38)
    ShowMessage("\\n<Sonya>To get to Sentora, we'll need to go to Iliasport. From there, we can take a ship north.")
    0()
   Else()
    ShowMessageFace("ruka_fc1",0,0,2,39)
    ShowMessage("\\n<Luka>To get to Sentora, we'll need to go to Iliasport. From there, we can take a ship north.")
    0()
   EndIf()
   If(4,62,0)
    ShowMessageFace("gob_fc1",3,0,2,40)
    ShowMessage("\\n<Gob>A ship, eh...\nShips and I really don't get along...")
    If(4,68,0)
     ShowMessageFace("dragonp_fc1",0,0,2,41)
     ShowMessage("\\n<Papi>You'll be fine! I'll be with you!")
     0()
    EndIf()
    0()
   EndIf()
   ShowMessageFace("",0,0,2,42)
   ShowMessage("\\n<Elf>You're heading to Sentora? Please be careful. That whole area is on the edge of a huge conflict.")
   If(0,6,0)
    ShowMessageFace("sonia_fc2",2,0,2,43)
    ShowMessage("\\n<Sonya>Yeah, the four major countries there are at war, right? I've heard news of it even at Ilias Temple.")
    0()
   Else()
    ShowMessageFace("ruka_fc1",0,0,2,44)
    ShowMessage("\\n<Luka>Yeah, the four major countries there are at war, right? I've heard news of it even at Ilias Temple.")
    0()
   EndIf()
   ShowMessageFace("",0,0,2,45)
   ShowMessage("\\n<Elf>No, that's not the problem. Humans might not be aware of it, but there's a power struggle among monsters as well.")
   If(0,4,0)
    ShowMessageFace("alice_fc5",2,0,2,46)
    ShowMessage("\\n<Alice>A power struggle!? I need to know what's going on there.")
    0()
   EndIf()
   If(0,5,0)
    ShowMessageFace("iriasu_fc4",2,0,2,47)
    ShowMessage("\\n<Ilias>A monster power struggle? Well, I suppose that's not surprising given the current state of the Monster Lord.")
    0()
   EndIf()
   ShowMessageFace("",0,0,2,48)
   ShowMessage("\\n<Elf>There are three Monster Lords vying for power right now, which has seriously shaken the balance of power between monsters.")
   If(0,4,0)
    ShowMessageFace("alice_fc5",6,0,2,49)
    ShowMessage("\\n<Alice>What!? TWO idiots are making plays for my throne while I'm weakened!?")
    0()
   EndIf()
   If(0,5,0)
    ShowMessageFace("iriasu_fc4",1,0,2,50)
    ShowMessage("\\n<Ilias>So the current Monster Lord lost her power and now two more are claiming the title? Fufufu, yes, fight... Destroy each other...")
    0()
   EndIf()
   ShowMessageFace("",0,0,2,51)
   ShowMessage("\\n<Elf>Actually, there are three new Monster Lords. I wasn't including Alipheese the 16th.")
   If(0,4,0)
    ShowMessageFace("alice_fc5",6,0,2,52)
    ShowMessage("\\n<Alice>What!? They're already assuming I abdicated!?")
    0()
   EndIf()
   If(0,5,0)
    ShowMessageFace("iriasu_fc4",0,0,2,53)
    ShowMessage("\\n<Ilias>They're acting like she abdicated? I can picture her chagrin, hehe.")
    0()
   EndIf()
   241(bytes(0x04,0x08,0x6f,0x3a,0x0d,0x52,0x50,0x47,0x3a,0x3a,0x42,0x47,0x4d,0x08,0x3a,0x0a,0x40,0x6e,0x61,0x6d,0x65,0x49,0x22,0x0a,0x6b,0x69,0x6b,0x69,0x32,0x06,0x3a,0x06,0x45,0x54,0x3a,0x0c,0x40,0x76,0x6f,0x6c,0x75,0x6d,0x65,0x69,0x69,0x3a,0x0b,0x40,0x70,0x69,0x74,0x63,0x68,0x69,0x69))
   PictureDisplay(1,"bg141",0,0,0,0,100,100,0,0)
   PictureDisplay(5,"80_alice15th_st41",0,0,0,0,100,100,0,0)
   PictureMove(1,null,0,0,0,0,100,100,255,0,30,false)
   PictureMove(5,null,0,0,0,0,100,100,255,0,30,true)
   ShowMessageFace("",0,0,2,54)
   ShowMessage("\\n<Elf>Now that Alipheese the 16th has disappeared, the leader of the Monster Lord's army is... the previous Monster Lord, Alipheese the 15th.")
   If(0,4,0)
    ShowMessageFace("alice_fc6",0,0,2,55)
    ShowMessage("\\n<Alice>What? What kind of joke is that? Mother is long since dead.")
    ShowMessageFace("alice_fc6",1,0,2,56)
    ShowMessage("\\n<Alice>This is ridiculous. She must be a fake pretending to be my mother!")
    0()
   EndIf()
   If(0,5,0)
    ShowMessageFace("iriasu_fc4",5,0,2,57)
    ShowMessage("\\n<Ilias>Alipheese the 15th? That's the current Monster Lord's mother... She should already be dead!")
    ShowMessageFace("iriasu_fc4",2,0,2,58)
    ShowMessage("\\n<Ilias>There's no way for the dead to come back from the afterlife... Did someone reanimate her corpse? Or maybe she's a fake?")
    0()
   EndIf()
   ShowMessageFace("",0,0,2,59)
   ShowMessage("\\n<Elf>The Monster Lord's army should have many of the 15th's former subordinates. Do you think they'd really be fooled by an impostor?")
   ShowMessageFace("",0,0,2,60)
   ShowMessage("\\n<Elf>In any case, the forces of the 16th's were taken over by the 15th Monster Lord, who claims to be the rightful successor to the throne.")
   If(0,4,0)
    ShowMessageFace("alice_fc6",0,0,2,61)
    ShowMessage("\\n<Alice>There's no way I'd accept that! No matter what anyone says, she's just a fake pretending to be my mother!")
    PictureClear(1)
    PictureClear(5)
    ShowMessageFace("alice_fc5",2,0,2,62)
    ShowMessage("\\n<Alice>So besides her, who are the other two Monster Lords? I bet they're more no-good pretenders, aren't they?")
    0()
   EndIf()
   If(0,5,0)
    ShowMessageFace("iriasu_fc4",2,0,2,63)
    ShowMessage("\\n<Ilias>What on earth is going on? The 15th should be dead, so why is she once again leading the Monster Lord's army?")
    PictureClear(1)
    PictureClear(5)
    ShowMessageFace("iriasu_fc4",2,0,2,64)
    ShowMessage("\\n<Ilias>Besides her, who are the other two Monster Lords? It would be amusing if they are weaklings but troubling if they are powerful...")
    0()
   EndIf()
   PictureDisplay(1,"bg206",0,0,0,0,100,100,0,0)
   PictureDisplay(5,"80_alice8th_st01",0,0,0,0,100,100,0,0)
   PictureMove(1,null,0,0,0,0,100,100,255,0,30,false)
   PictureMove(5,null,0,0,0,0,100,100,255,0,30,true)
   ShowMessageFace("",0,0,2,65)
   ShowMessage("\\n<Elf>One of the two remaining Monster Lords is a petite yoma who calls herself Black Alice.")
   If(0,4,0)
    ShowMessageFace("alice_fc6",0,0,2,66)
    ShowMessage("\\n<Alice>Black Alice...!? That was Alipheese the 8th's nickname!")
    0()
   EndIf()
   If(0,5,0)
    ShowMessageFace("iriasu_fc4",7,0,2,67)
    ShowMessage("\\n<Ilias>So Black Alice is finally making her move. She must intend to seize this opportunity to further her ambitions...")
    0()
   EndIf()
   ShowMessageFace("",0,0,2,68)
   ShowMessage("\\n<Elf>Supposedly destroyed by the hero Heinrich, even among Monster Lords, her ability was said to be top notch.")
   ShowMessageFace("",0,0,2,69)
   ShowMessage("\\n<Elf>Black Alice attracted yoma who stood in opposition to the Monster Lord's peaceful policies. As a result, many of the aggressive and fiendish yoma have affiliated themselves with her.")
   ShowMessageFace("",0,0,2,70)
   ShowMessage("\\n<Elf>They still haven't entered direct conflict with Alipheese the 15th, but it's only a matter of time.")
   If(0,4,0)
    ShowMessageFace("alice_fc5",3,0,2,71)
    ShowMessage("\\n<Alice>So she's either a fake pretending to be a Monster Lord from the legends, or she's really Black Alice... In either case, no powerful monster would follow her if she were weak.")
    ShowMessageFace("alice_fc5",0,0,2,72)
    ShowMessage("\\n<Alice>The fact that Black Alice gathered such forces is proof of her strength. I don't know who she is, but I doubt she's a fraud.")
    PictureClear(1)
    PictureClear(5)
    ShowMessageFace("alice_fc5",0,0,2,73)
    ShowMessage("\\n<Alice>A villain pretending to be my mother, a legendary Monster Lord, and you said there's a third Monster Lord, right?")
    0()
   EndIf()
   If(0,5,0)
    ShowMessageFace("iriasu_fc4",2,0,2,74)
    ShowMessage("\\n<Ilias>I thought she might act with me not watching her, but all things considered, she didn't wait long to make her move.")
    PictureClear(1)
    PictureClear(5)
    ShowMessageFace("iriasu_fc4",2,0,2,75)
    ShowMessage("\\n<Ilias>So Black Alice is trying to retake her place as Monster Lord, and there's a third monster vying to become Monster Lord too, right?")
    0()
   EndIf()
   ShowMessageFace("",0,0,2,76)
   ShowMessage("\\n<Elf>The third Monster Lord is...\nA girl calling herself Alipheese the 17th.")
   If(0,4,0)
    ShowMessageFace("alice_fc5",6,0,2,77)
    ShowMessage("\\n<Alice>Alipheese the 17th!? Now they're acting like I'm dead, too!?")
    ShowMessageFace("alice_fc5",0,0,2,78)
    ShowMessage("\\n<Alice>So, who is this 17th? What forces does she lead?")
    0()
   EndIf()
   If(0,5,0)
    ShowMessageFace("iriasu_fc4",5,0,2,79)
    ShowMessage("\\n<Ilias>No way, a 17th...?\nThe current Monster Lord doesn't have any heir I know of...")
    ShowMessageFace("iriasu_fc4",2,0,2,80)
    ShowMessage("\\n<Ilias>So, who is this 17th? What forces does she lead?")
    0()
   EndIf()
   ShowMessageFace("",0,0,2,81)
   ShowMessage("\\n<Elf>She has no subordinates and leads no one. She claims to be the Monster Lord all by herself.")
   If(0,4,0)
    ShowMessageFace("alice_fc5",6,0,2,82)
    ShowMessage("\\n<Alice>What's with that? She's just a self-proclaimed Monster Lord then! Do the others not even think it's worth getting rid of her?")
    0()
   EndIf()
   If(0,5,0)
    ShowMessageFace("iriasu_fc4",5,0,2,83)
    ShowMessage("\\n<Ilias>In that case she's just a self-proclaimed Monster Lord! Do the others think she's too weak to bother getting rid of?")
    0()
   EndIf()
   PictureDisplay(1,"sys_black",0,0,0,0,100,100,0,0)
   PictureDisplay(5,"iv_neris1",0,0,0,0,100,100,0,0)
   PictureMove(1,null,0,0,0,0,100,100,255,0,30,false)
   PictureMove(5,null,0,0,0,0,100,100,255,0,30,true)
   ShowMessageFace("",0,0,2,84)
   ShowMessage("\\n<Elf>On the contrary, they're afraid of her the most. Even though she doesn't have any help, her own power is unbelievable.")
   ShowMessageFace("",0,0,2,85)
   ShowMessage("\\n<Elf>In Lady's Village, Alipheese the 17th fought off the Nereneid family's head Cassandra. That got everyone's attention...")
   ShowMessageFace("",0,0,2,86)
   ShowMessage("\\n<Elf>Immediately after that, she appeared in Plansect Village and defeated everyone in there by herself. She forced both the insects and the plants to surrender, then took control of the area.")
   If(0,4,0)
    ShowMessageFace("alice_fc6",0,0,2,87)
    ShowMessage("\\n<Alice>She defeated everyone...? Do you know how many monsters live in that village!? It's more than just a few hundred!")
    ShowMessageFace("alice_fc6",0,0,2,88)
    ShowMessage("\\n<Alice>The Queen Bee and Priestess, elites from both insect and plant factions... She defeated all of them? Alone!?")
    0()
   EndIf()
   If(0,5,0)
    ShowMessageFace("iriasu_fc4",5,0,2,89)
    ShowMessage("\\n<Ilias>She defeated everyone...? Isn't the population of that village measured in the thousands?")
    ShowMessageFace("iriasu_fc4",5,0,2,90)
    ShowMessage("\\n<Ilias>There should also be powerful leaders like the Queen Bee and Priestess there. You're telling me she annihilated them all? Alone?")
    0()
   EndIf()
   ShowMessageFace("",0,0,2,91)
   ShowMessage("\\n<Elf>The next place she appeared was a small village in northern Sentora. It was occupied by Arachne forces but...")
   If(0,4,0)
    ShowMessageFace("alice_fc5",2,0,2,92)
    ShowMessage("\\n<Alice>The Arachne clan led by the Spider Princess, right? So while I'm not there, they're doing whatever they damn please.")
    0()
   EndIf()
   If(0,5,0)
    ShowMessageFace("iriasu_fc4",2,0,2,93)
    ShowMessage("\\n<Ilias>The Arachne clan... Those scum led by the Spider Princess? They're part of the belligerent faction who've always opposed coexistence with humans.")
    0()
   EndIf()
   ShowMessageFace("",0,0,2,94)
   ShowMessage("\\n<Elf>Even they were crushed as soon as Alipheese the 17th showed up. She drove them out of the village and forced them into a remote cave.")
   If(0,4,0)
    ShowMessageFace("alice_fc6",0,0,2,95)
    ShowMessage("\\n<Alice>The Arachne are all battle-crazy veterans. Even I would have had a hard time defeating them alone...")
    0()
   EndIf()
   If(0,5,0)
    ShowMessageFace("iriasu_fc4",2,0,2,96)
    ShowMessage("\\n<Ilias>The Arachne clan is very war-like. Even the current Monster Lord at her full strength would have a hard time crushing them...")
    0()
   EndIf()
   ShowMessageFace("",0,0,2,97)
   ShowMessage("\\n<Elf>After that, the 17th appeared all over, as if going around to defeat strong monsters on a whim...")
   ShowMessageFace("",0,0,2,98)
   ShowMessage("\\n<Elf>What's really strange is that in all of the chaos, there was not a single death. The queens attacked by the 17th were all forced to remain within narrow territories.")
   ShowMessageFace("",0,0,2,99)
   ShowMessage("\\n<Elf>After that, she picked a fight with the Swordswoman Granberia. Five hours later, they were still evenly matched as they repeatedly attacked and defended themselves, neither able to secure the upper hand.")
   If(0,4,0)
    ShowMessageFace("alice_fc5",0,0,2,100)
    ShowMessage("\\n<Alice>Hmm... well of course she couldn't defeat Granberia. Still, she must be strong to force her into a draw.")
    0()
   EndIf()
   If(0,5,0)
    ShowMessageFace("iriasu_fc4",2,0,2,101)
    ShowMessage("\\n<Ilias>Equal to Granberia... a Heavenly Knight-class then. Well, she's quite strong I suppose.")
    0()
   EndIf()
   ShowMessageFace("",0,0,2,102)
   ShowMessage("\\n<Elf>Yes, her fight with Granberia ended in a draw. Not surprising considering how tired she must have been by then...")
   If(0,4,0)
    ShowMessageFace("alice_fc5",0,0,2,103)
    ShowMessage("\\n<Alice>Tired? What do you mean?")
    0()
   EndIf()
   If(0,5,0)
    ShowMessageFace("iriasu_fc4",2,0,2,104)
    ShowMessage("\\n<Ilias>Tired? What do you mean?")
    0()
   EndIf()
   ShowMessageFace("",0,0,2,105)
   ShowMessage("\\n<Elf>All of this happened in a single day, starting with the defeat of Cassandra to the duel with Granberia...")
   If(0,4,0)
    ShowMessageFace("alice_fc6",0,0,2,106)
    ShowMessage("\\n<Alice>O-one day...!? She did all that in just one day!?")
    0()
   EndIf()
   If(0,5,0)
    ShowMessageFace("iriasu_fc4",5,0,2,107)
    ShowMessage("\\n<Ilias>She did everything in just a day!? That's insane for a mere mortal!")
    0()
   EndIf()
   ShowMessageFace("",0,0,2,108)
   ShowMessage("\\n<Elf>Moreover, when she tied with Granberia, the 17th said \"I still can't afford to show my true power.\"")
   ShowMessageFace("",0,0,2,109)
   ShowMessage("\\n<Elf>Do you understand now why the 17th is more feared than the others? Even alone, her fighting abilities are without a doubt beyond that of the 15th or Black Alice.")
   If(4,64,0)
    ShowMessageFace("pramia_fc1",2,0,2,110)
    ShowMessage("\\n<Teeny>A-amazing... I can't believe there's a monster that powerful...")
    0()
   EndIf()
   If(0,4,0)
    ShowMessageFace("alice_fc6",0,0,2,111)
    ShowMessage("\\n<Alice>She's quite the force to be reckoned with...\nJust who in the world is she?")
    PictureClear(1)
    PictureClear(5)
    ShowMessageFace("alice_fc5",3,0,2,112)
    ShowMessage("\\n<Alice>Three Monster Lords fighting against one another, the 8th, the 15th, and a 17th... I feel like I've been forgotten completely.")
    0()
   EndIf()
   If(0,5,0)
    PictureClear(1)
    PictureClear(5)
    ShowMessageFace("iriasu_fc4",2,0,2,113)
    ShowMessage("\\n<Ilias>Three Monster Lords fighting against one another, the 8th, the 15th, and a 17th... I never could have imagined this happening.")
    If(0,6,0)
     ShowMessageFace("sonia_fc2",2,0,2,114)
     ShowMessage("\\n<Sonya>Goddess Ilias, weren't you amused just a moment ago...?")
     ShowMessageFace("iriasu_fc4",2,0,2,115)
     ShowMessage("\\n<Ilias>That was when I thought they were three weaklings fighting over scraps. The actual situation is much more worrisome...")
     0()
    EndIf()
    0()
   EndIf()
   241(bytes(0x04,0x08,0x6f,0x3a,0x0d,0x52,0x50,0x47,0x3a,0x3a,0x42,0x47,0x4d,0x08,0x3a,0x0a,0x40,0x6e,0x61,0x6d,0x65,0x49,0x22,0x0b,0x65,0x6e,0x72,0x69,0x6b,0x61,0x06,0x3a,0x06,0x45,0x54,0x3a,0x0c,0x40,0x76,0x6f,0x6c,0x75,0x6d,0x65,0x69,0x69,0x3a,0x0b,0x40,0x70,0x69,0x74,0x63,0x68,0x69,0x69))
   ShowMessageFace("",0,0,2,116)
   ShowMessage("\\n<Elf>Given all that, take care when you're in Sentora. Conflict between the three Monster Lords is heating up.")
   If(0,4,0)
    ShowMessageFace("alice_fc5",0,0,2,117)
    ShowMessage("\\n<Alice>As the current Monster Lord, I can't ignore this. It seems like we have even more to do in Sentora...")
    0()
   EndIf()
   If(0,5,0)
    ShowMessageFace("iriasu_fc4",2,0,2,118)
    ShowMessage("\\n<Ilias>As the Goddess of mankind, I cannot overlook this. It appears I shall have to deal with them permanently.")
    0()
   EndIf()
   If(0,6,0)
    ShowMessageFace("sonia_fc2",2,0,2,119)
    ShowMessage("\\n<Sonya>It feels like the only thing increasing is the amount of stuff we need to do. We haven't resolved anything yet...")
    0()
   Else()
    ShowMessageFace("ruka_fc1",0,0,2,120)
    ShowMessage("\\n<Luka>It feels like the only thing increasing is the amount of stuff we need to do. We haven't resolved anything yet...")
    0()
   EndIf()
   If(0,4,0)
    ShowMessageFace("alice_fc5",2,0,2,121)
    ShowMessage("\\n<Alice>I get the feeling that all of this is connected by a single thread, though. The Great Disaster, Tartarus, your father, the three Monster Lords... all of them.")
    ShowMessageFace("alice_fc5",0,0,2,122)
    ShowMessage("\\n<Alice>That's why we can't stop here. Let's take a ship across to Sentora!")
    ShowMessageFace("alice_fc5",0,0,2,123)
    ShowMessage("\\n<Alice>To do that, our next destination is Iliasport, the town north of Iliasburg.")
    0()
   EndIf()
   If(0,5,0)
    ShowMessageFace("iriasu_fc4",2,0,2,124)
    ShowMessage("\\n<Ilias>However, it should all be connected by a single thread. The Great Disaster, Tartarus, your father, the three Monster Lords... all of them.")
    ShowMessageFace("iriasu_fc4",0,0,2,125)
    ShowMessage("\\n<Ilias>Therefore, we cannot afford to stop here. Let's take a ship and cross over to Sentora!")
    ShowMessageFace("iriasu_fc4",0,0,2,126)
    ShowMessage("\\n<Ilias>To do that, our next destination is Iliasport, the town north of Iliasburg.")
    0()
   EndIf()
   If(0,6,0)
    ShowMessageFace("sonia_fc1",3,0,2,127)
    ShowMessage("\\n<Sonya>We're in too deep to quit now! I'm in this to the end!")
    0()
   EndIf()
   If(4,62,0)
    ShowMessageFace("gob_fc1",0,0,2,128)
    ShowMessage("\\n<Gob>I'll do my best, too!\n...Aside from when I'm on a ship.")
    0()
   EndIf()
   If(4,68,0)
    ShowMessageFace("dragonp_fc1",0,0,2,129)
    ShowMessage("\\n<Papi>Rawr! I'm burning uuup!")
    0()
   EndIf()
   If(4,79,0)
    ShowMessageFace("nuruko_fc1",0,0,2,130)
    ShowMessage("\\n<Nuruko>Kyu kyu kyuuu!")
    0()
   EndIf()
   ShowMessageFace("ruka_fc1",0,0,2,131)
   ShowMessage("\\n<Luka>Well then, we're heading to Iliasport!")
   ShowMessageFace("",0,0,2,132)
   ShowMessage("\\n<Elf>I wish you good luck in battle. If you learn anything about Micaela, please come tell me.")
   ChangeVariable(1001,1001,0,0,12)
   ChangeVariable(1018,1018,0,0,4)
   ChangeVariable(1019,1019,0,0,1)
   355("gain_medal(16)")
   EndEventProcessing()
   0()
  EndIf()
  If(1,1018,0,4,1)
   ShowMessageFace("",0,0,2,133)
   ShowMessage("\\n<Elf>I refuse to believe that Micaela is truly dead. She'll come back eventually, I just know it.")
   ShowMessageFace("",0,0,2,134)
   ShowMessage("\\n<Elf>If you learn anything about Micaela, please come tell me. I feel like you're bound to cross paths with her eventually.")
   EndEventProcessing()
   0()
  EndIf()
  0()
 PAGE   2
  // condition: variable 1021 >= 2
  If(2,"A",1)
   ChangeSelfSwitch("A",0)
   ShowMessageFace("",0,0,2,1)
   ShowMessage("\\n<Elf>Oh, what happened? You look quite unhappy...")
   ShowMessageFace("",0,0,2,2)
   ShowMessage("Luka told her about Micaela's death...")
   ShowMessageFace("",0,0,2,3)
   ShowMessage("\\n<Elf>I can't believe it. Not Micaela...")
   ShowMessageFace("",0,0,2,4)
   ShowMessage("\\n<Elf>...No, lamenting her won't help. Micaela entrusted me with this village, after all.")
   0()
  EndIf()
  If(1,1001,0,29,2)
   ShowMessageFace("",0,0,2,5)
   ShowMessage("\\n<Elf>Luka, can you keep this a secret from the other villagers? After I investigate it in detail, I shall tell them myself...")
   ShowMessageFace("",0,0,2,6)
   ShowMessage("\\n<Elf>What's going on though...\nFor another seraph to kill Micaela...")
   EndEventProcessing()
   0()
  EndIf()
  If(1,1001,0,30,1)
   ShowMessageFace("",0,0,2,7)
   ShowMessage("\\n<Elf>I haven't told all the villagers about Micaela's death yet, only to those who were in direct contact with her.")
   ShowMessageFace("",0,0,2,8)
   ShowMessage("\\n<Elf>I know that's a senseless thing to do, but...\nShe was the light of hope for this entire village...")
   355("actor_label_jump")
   EndEventProcessing()
   DefineLabel("34")
   ShowMessageFace("micaelac_fc1",0,0,2,9)
   ShowMessage("\\n<Micaela-chan>......")
   ShowMessageFace("",0,0,2,10)
   ShowMessage("\\n<Elf>Micaela...!? You got smaller...!?")
   ShowMessageFace("micaelac_fc1",0,0,2,11)
   ShowMessage("\\n<Micaela-chan>I'm a different Micaela than the one you knew, but I don't mind showing myself like this.")
   ShowMessageFace("",0,0,2,12)
   ShowMessage("\\n<Elf>I see, you have been reborn... Just seeing your face again brings me joy.")
   EndEventProcessing()
   0()
  EndIf()
  0()



EVENT   18
 PAGE   1
  If(1,809,0,2,1)
   If(0,1552,1)
    ShowMessageFace("mob_elf1_fc1",0,0,2,1)
    ShowMessage("\\n<Elissa>Can I come with you...?")
    ShowChoices(strings("Let her join","Decline for now"),0)
    IfPlayerPicksChoice(0,null)
     ShowMessageFace("mob_elf1_fc1",0,0,2,2)
     ShowMessage("\\n<Elissa>Let's do our best together, okay...?")
     PictureClear(5)
     205(0,bytes(0x04,0x08,0x6f,0x3a,0x13,0x52,0x50,0x47,0x3a,0x3a,0x4d,0x6f,0x76,0x65,0x52,0x6f,0x75,0x74,0x65,0x09,0x3a,0x0c,0x40,0x72,0x65,0x70,0x65,0x61,0x74,0x46,0x3a,0x0f,0x40,0x73,0x6b,0x69,0x70,0x70,0x61,0x62,0x6c,0x65,0x46,0x3a,0x0a,0x40,0x77,0x61,0x69,0x74,0x54,0x3a,0x0a,0x40,0x6c,0x69,0x73,0x74,0x5b,0x09,0x6f,0x3a,0x15,0x52,0x50,0x47,0x3a,0x3a,0x4d,0x6f,0x76,0x65,0x43,0x6f,0x6d,0x6d,0x61,0x6e,0x64,0x07,0x3a,0x0a,0x40,0x63,0x6f,0x64,0x65,0x69,0x2a,0x3a,0x10,0x40,0x70,0x61,0x72,0x61,0x6d,0x65,0x74,0x65,0x72,0x73,0x5b,0x00,0x6f,0x3b,0x0a,0x07,0x3b,0x0b,0x69,0x0f,0x3b,0x0c,0x5b,0x00,0x6f,0x3b,0x0a,0x07,0x3b,0x0b,0x69,0x2c,0x3b,0x0c,0x5b,0x00,0x6f,0x3b,0x0a,0x07,0x3b,0x0b,0x69,0x00,0x3b,0x0c,0x5b,0x00))
     355("add_actor_ex(552)")
     249(bytes(0x04,0x08,0x6f,0x3a,0x0c,0x52,0x50,0x47,0x3a,0x3a,0x4d,0x45,0x08,0x3a,0x0a,0x40,0x6e,0x61,0x6d,0x65,0x49,0x22,0x0c,0x66,0x61,0x6e,0x66,0x61,0x6c,0x65,0x06,0x3a,0x06,0x45,0x54,0x3a,0x0b,0x40,0x70,0x69,0x74,0x63,0x68,0x69,0x69,0x3a,0x0c,0x40,0x76,0x6f,0x6c,0x75,0x6d,0x65,0x69,0x69))
     ShowMessageFace("",0,0,2,3)
     ShowMessage("Elissa joined the party!")
     Wait(60)
     EndEventProcessing()
     0()
    IfPlayerPicksChoice(1,null)
     ShowMessageFace("mob_elf1_fc1",0,0,2,4)
     ShowMessage("\\n<Elissa>Then I'll go hunt alone...")
     0()
    404()
    0()
   EndIf()
   0()
  EndIf()
  RunCommonEvent(7081)
  0()
 PAGE   2
  // condition: party contains actor #552
  0()



EVENT   19
 PAGE   1
  If(1,1018,0,3,2)
   ShowMessageFace("",0,0,2,1)
   ShowMessage("\\n<Dark Elf>The elven magic blacksmith embeds elemental power into equipment. Weapons here exert additional power upon enemies weak to that element.")
   ShowMessageFace("",0,0,2,2)
   ShowMessage("\\n<Dark Elf>We don't deal with strangers though. There's no point in asking.")
   0()
  EndIf()
  If(1,1018,0,4,0)
   ShowMessageFace("",0,0,2,3)
   ShowMessage("\\n<Dark Elf>The elven magic blacksmith embeds elemental power into equipment. Weapons here exert additional power upon enemies weak to that element.")
   ShowMessageFace("",0,0,2,4)
   ShowMessage("\\n<Dark Elf>However, you need to procure the materials such as elemental stones on your own. In the past, such magic stones could be found around Rostrum.")
   0()
  EndIf()
  0()



EVENT   20
 PAGE   1
  If(1,1018,0,3,2)
   ShowMessageFace("",0,0,2,1)
   ShowMessage("\\n<Elf>We reserve the right to refuse service to those we don't know. My apologies, but we don't trust you enough to stay here.")
   0()
  EndIf()
  If(1,1018,0,4,0)
   ShowMessageFace("",0,0,2,2)
   ShowMessage("\\n<Elf>I've heard you are Micaela's blood relative. You're more than welcome in that case. It's 3G per night. Will you be staying with us?\\$")
   ShowChoices(strings("Yes","No"),2)
   IfPlayerPicksChoice(0,null)
    If(7,3,0)
     125(1,0,3)
     221()
     249(bytes(0x04,0x08,0x6f,0x3a,0x0c,0x52,0x50,0x47,0x3a,0x3a,0x4d,0x45,0x08,0x3a,0x0a,0x40,0x6e,0x61,0x6d,0x65,0x49,0x22,0x08,0x49,0x6e,0x6e,0x06,0x3a,0x06,0x45,0x54,0x3a,0x0b,0x40,0x70,0x69,0x74,0x63,0x68,0x69,0x69,0x3a,0x0c,0x40,0x76,0x6f,0x6c,0x75,0x6d,0x65,0x69,0x69))
     Wait(150)
     314(0,0)
     222()
     0()
    Else()
     ShowMessageFace("",0,0,2,3)
     ShowMessage("\\n<Elf>You don't have enough money...")
     0()
    EndIf()
    0()
   IfPlayerPicksChoice(1,null)
    0()
   404()
   0()
  EndIf()
  0()



EVENT   21
 PAGE   1
  ShowMessageFace("",0,0,2,1)
  ShowMessage("\\n<Fairy>We've come here to play, too♪\nIt's quiet and there's plenty of flowers and grass♪")
  355("actor_label_jump")
  EndEventProcessing()
  DefineLabel("59")
  ShowMessageFace("mdg_fc1",0,0,2,2)
  ShowMessage("\\n<Ragora>It's a good environment... Can I plant myself here?")
  EndEventProcessing()
  DefineLabel("97")
  ShowMessageFace("fairy_fc1",0,0,2,3)
  ShowMessage("\\n<Fell>I should come here to play from time to time too♪")
  EndEventProcessing()
  DefineLabel("88")
  ShowMessageFace("jack_fc1",1,0,2,4)
  ShowMessage("\\n<Pumpkin>I explore the nearby places quite often too...")
  EndEventProcessing()
  DefineLabel("315")
  ShowMessageFace("queenfairy_fc1",0,0,2,5)
  ShowMessage("\\n<Airy>You've found a very nice location...\nIt seems that there are some places where fairies are well received.")
  EndEventProcessing()
  0()



EVENT   22
 PAGE   1
  If(1,1018,0,3,2)
   ShowMessageFace("",0,0,2,1)
   ShowMessage("\\n<Elf>Oh my... to think a customer would come to this inn, how unusual. How many years has it been since a human came here?")
   ShowMessageFace("",0,0,2,2)
   ShowMessage("\\n<Elf>You won't be able to stay the night, though. Not when we don't know who you are.")
   0()
  EndIf()
  If(1,1018,0,4,0)
   ShowMessageFace("",0,0,2,3)
   ShowMessage("\\n<Elf>Oh my... to think a customer would come to this inn, how unusual. How many years has it been since a human came here?")
   0()
  EndIf()
  0()



EVENT   23
 PAGE   1
  If(1,1018,0,3,2)
   ShowMessageFace("",0,0,2,1)
   ShowMessage("\\n<Angel>......")
   0()
  EndIf()
  If(1,1018,0,4,0)
   ShowMessageFace("",0,0,2,2)
   ShowMessage("\\n<Angel>An angel's body is composed of highly-concentrated holy energy. Thus, we couldn't be touched by those on earth.")
   ShowMessageFace("",0,0,2,3)
   ShowMessage("\\n<Angel>However, after the Great Disaster, the amount of holy energy in the air increased all at once. With that, the substances on earth had become capable of coming in contact with our bodies.")
   ShowMessageFace("",0,0,2,4)
   ShowMessage("\\n<Angel>All angels have fallen on earth and lost their inviolability... That's our present reality.")
   355("actor_label_jump")
   EndEventProcessing()
   DefineLabel("26")
   ShowMessageFace("iriasu_fc4",7,0,2,5)
   ShowMessage("\\n<Ilias>I refuse to accept that. I will correct this strange world!")
   EndEventProcessing()
   DefineLabel("41")
   ShowMessageFace("stein_fc2",1,0,2,6)
   ShowMessage("\\n<Promestein>There are more things I want to study on earth compared to Heaven anyway. This isn't a problem for me at all.")
   EndEventProcessing()
   0()
  EndIf()
  0()



EVENT   24
 PAGE   1
  // condition: variable 1020 >= 1
  If(1,1020,0,1,0)
   ShowMessageFace("",0,0,2,1)
   ShowMessage("\\n<Dark Elf>I'm grateful for your coming all the way here. I'm responsible for preparing medicines in this village, but...")
   ShowMessageFace("",0,0,2,2)
   ShowMessage("\\n<Dark Elf>With Micaela gone missing, many of our residents left to look for information outside the village.")
   ShowMessageFace("",0,0,2,3)
   ShowMessage("\\n<Dark Elf>Because of that, we don't have enough people around to gather the necessary materials. That's where you come in.")
   ShowMessageFace("",0,0,2,4)
   ShowMessage("\\n<Dark Elf>While I know it's wrong to ask this of Micaela's relative, it's difficult for people who aren't used to traveling to get what we need.")
   ShowMessageFace("",0,0,2,5)
   ShowMessage("\\n<Dark Elf>Specifically, we need a \\ii[511] that can be found at Lemuse Beach south of here.")
   ShowMessageFace("",0,0,2,6)
   ShowMessage("\\n<Dark Elf>Would you go there and look for one for us? In return, I'll give you some of the medicines I make.")
   ShowChoices(strings("Yes","No"),2)
   IfPlayerPicksChoice(0,null)
    ChangeVariable(1020,1020,0,0,2)
    ShowMessageFace("",0,0,2,7)
    ShowMessage("\\n<Dark Elf>Thank you very much! Once again, \\ni[511]s can be found at Lemuse Beach.")
    DefineLabel("説明")
    ShowMessageFace("",0,0,2,8)
    ShowMessage("\\n<Dark Elf>Lemuse Beach is south of here. However, you will need to enter the Lost Woods first.")
    ShowMessageFace("",0,0,2,9)
    ShowMessage("\\n<Dark Elf>Once you exit the Lost Woods to the southwest, you'll see Lemuse Beach.")
    EndEventProcessing()
    0()
   IfPlayerPicksChoice(1,null)
    ShowMessageFace("",0,0,2,10)
    ShowMessage("\\n<Dark Elf>That's a shame. I know you must be busy too.")
    EndEventProcessing()
    0()
   404()
   0()
  EndIf()
  If(1,1020,0,2,0)
   If(8,511)
    ChangeVariable(1020,1020,0,0,3)
    ChangeInventory_Item(511,1,0,1)
    ShowMessageFace("",0,0,2,11)
    ShowMessage("\\n<Dark Elf>That's a \\ni[511]! Please give me a minute and I'll make some medicine for your reward...")
    221()
    Wait(60)
    222()
    ShowMessageFace("",0,0,2,12)
    ShowMessage("\\n<Dark Elf>I don't know if it will be of any use during your adventure, but please accept this.")
    250(bytes(0x04,0x08,0x6f,0x3a,0x0c,0x52,0x50,0x47,0x3a,0x3a,0x53,0x45,0x08,0x3a,0x0a,0x40,0x6e,0x61,0x6d,0x65,0x49,0x22,0x0a,0x49,0x74,0x65,0x6d,0x31,0x06,0x3a,0x06,0x45,0x54,0x3a,0x0b,0x40,0x70,0x69,0x74,0x63,0x68,0x69,0x69,0x3a,0x0c,0x40,0x76,0x6f,0x6c,0x75,0x6d,0x65,0x69,0x55))
    ChangeInventory_Item(4,0,0,3)
    ChangeInventory_Item(5,0,0,1)
    ChangeInventory_Item(7,0,0,3)
    ChangeInventory_Item(16,0,0,3)
    ChangeInventory_Item(512,0,0,1)
    ShowMessageFace("",0,0,2,13)
    ShowMessage("\\n<Dark Elf>Thanks to you, we should be good for medicinal materials for a while. I can't thank you enough.")
    EndEventProcessing()
    0()
   Else()
    JumpToLabel("説明")
    0()
   EndIf()
   0()
  EndIf()
  If(1,1020,0,3,1)
   If(1,1005,0,10,0)
    If(0,2065,0)
     If(4,66,0)
      ShowMessageFace("vgirl_fc1",0,0,2,14)
      ShowMessage("\\n<Vanilla>Nice to meet you, I am Vanilla the merchant. I would like to sell Echo Grass and Restoratives in my store...")
      ShowMessageFace("",0,0,2,15)
      ShowMessage("\\n<Dark Elf>Ah, you helped us before so I shall help as much as I can in return.")
      ShowMessageFace("",0,0,2,16)
      ShowMessage("Vanilla negotiates an arrangement with the dark elf. The business experience she's gained so far really shows.")
      ShowMessageFace("",0,0,2,17)
      ShowMessage("\\n<Dark Elf>Very well. Here is the amount we agreed upon.")
      ShowMessageFace("vgirl_fc1",0,0,2,18)
      ShowMessage("\\n<Vanilla>Thank you very much! I look forward to dealing more with you in the future!")
      249(bytes(0x04,0x08,0x6f,0x3a,0x0c,0x52,0x50,0x47,0x3a,0x3a,0x4d,0x45,0x08,0x3a,0x0a,0x40,0x6e,0x61,0x6d,0x65,0x49,0x22,0x0c,0x66,0x61,0x6e,0x66,0x61,0x6c,0x65,0x06,0x3a,0x06,0x45,0x54,0x3a,0x0b,0x40,0x70,0x69,0x74,0x63,0x68,0x69,0x69,0x3a,0x0c,0x40,0x76,0x6f,0x6c,0x75,0x6d,0x65,0x69,0x69))
      ShowMessageFace("",0,0,2,19)
      ShowMessage("Vanilla can now sell Echo Grass and Restoratives at her shop!")
      ChangeVariable(1005,1005,0,0,11)
      ChangeSwitch(2065,2065,1)
      Wait(60)
      EndEventProcessing()
      0()
     EndIf()
     0()
    EndIf()
    0()
   EndIf()
   ShowMessageFace("",0,0,2,20)
   ShowMessage("\\n<Dark Elf>Always pay attention to how you store your medicine, otherwise there can be unexpected effects.")
   EndEventProcessing()
   0()
  EndIf()
  0()




EVENT   25
 PAGE   1
  250(bytes(0x04,0x08,0x6f,0x3a,0x0c,0x52,0x50,0x47,0x3a,0x3a,0x53,0x45,0x08,0x3a,0x0a,0x40,0x6e,0x61,0x6d,0x65,0x49,0x22,0x0a,0x49,0x74,0x65,0x6d,0x31,0x06,0x3a,0x06,0x45,0x54,0x3a,0x0b,0x40,0x70,0x69,0x74,0x63,0x68,0x69,0x69,0x3a,0x0c,0x40,0x76,0x6f,0x6c,0x75,0x6d,0x65,0x69,0x55))
  ChangeSelfSwitch("A",0)
  ChangeInventory_Item(305,0,0,1)
  0()
 PAGE   2
  // condition: self-switch A is ON
  0()



EVENT   26
 PAGE   1
  250(bytes(0x04,0x08,0x6f,0x3a,0x0c,0x52,0x50,0x47,0x3a,0x3a,0x53,0x45,0x08,0x3a,0x0a,0x40,0x6e,0x61,0x6d,0x65,0x49,0x22,0x0a,0x49,0x74,0x65,0x6d,0x31,0x06,0x3a,0x06,0x45,0x54,0x3a,0x0b,0x40,0x70,0x69,0x74,0x63,0x68,0x69,0x69,0x3a,0x0c,0x40,0x76,0x6f,0x6c,0x75,0x6d,0x65,0x69,0x55))
  ChangeSelfSwitch("A",0)
  ChangeInventoryArmor(182,0,0,1,false)
  0()
 PAGE   2
  // condition: self-switch A is ON
  0()




EVENT   27
 PAGE   1
  250(bytes(0x04,0x08,0x6f,0x3a,0x0c,0x52,0x50,0x47,0x3a,0x3a,0x53,0x45,0x08,0x3a,0x0a,0x40,0x6e,0x61,0x6d,0x65,0x49,0x22,0x0a,0x49,0x74,0x65,0x6d,0x31,0x06,0x3a,0x06,0x45,0x54,0x3a,0x0b,0x40,0x70,0x69,0x74,0x63,0x68,0x69,0x69,0x3a,0x0c,0x40,0x76,0x6f,0x6c,0x75,0x6d,0x65,0x69,0x55))
  ChangeSelfSwitch("A",0)
  ChangeInventory_Item(32,0,0,1)
  0()
 PAGE   2
  // condition: self-switch A is ON
  0()



EVENT   28
 PAGE   1
  250(bytes(0x04,0x08,0x6f,0x3a,0x0c,0x52,0x50,0x47,0x3a,0x3a,0x53,0x45,0x08,0x3a,0x0a,0x40,0x6e,0x61,0x6d,0x65,0x49,0x22,0x0a,0x49,0x74,0x65,0x6d,0x31,0x06,0x3a,0x06,0x45,0x54,0x3a,0x0b,0x40,0x70,0x69,0x74,0x63,0x68,0x69,0x69,0x3a,0x0c,0x40,0x76,0x6f,0x6c,0x75,0x6d,0x65,0x69,0x55))
  ChangeSelfSwitch("A",0)
  ChangeInventory_Item(431,0,0,1)
  0()
 PAGE   2
  // condition: self-switch A is ON
  0()




EVENT   29
 PAGE   1
  250(bytes(0x04,0x08,0x6f,0x3a,0x0c,0x52,0x50,0x47,0x3a,0x3a,0x53,0x45,0x08,0x3a,0x0a,0x40,0x6e,0x61,0x6d,0x65,0x49,0x22,0x0a,0x49,0x74,0x65,0x6d,0x31,0x06,0x3a,0x06,0x45,0x54,0x3a,0x0b,0x40,0x70,0x69,0x74,0x63,0x68,0x69,0x69,0x3a,0x0c,0x40,0x76,0x6f,0x6c,0x75,0x6d,0x65,0x69,0x55))
  ChangeSelfSwitch("A",0)
  ChangeInventory_Item(409,0,0,1)
  0()
 PAGE   2
  // condition: self-switch A is ON
  0()



EVENT   30
 PAGE   1
  If(1,1018,0,3,2)
   ShowMessageFace("",0,0,2,1)
   ShowMessage("\\n<Medusa>W-what! I'm not causing trouble to any humans...!")
   0()
  EndIf()
  If(1,1018,0,4,0)
   ShowMessageFace("",0,0,2,2)
   ShowMessage("\\n<Medusa>This village accepts everyone who wishes to live in peace. Due to certain circumstances, I am an outcast too, no longer able to enter my home village...")
   355("actor_label_jump")
   EndEventProcessing()
   DefineLabel("122")
   ShowMessageFace("sisterlamia_fc1",0,0,2,3)
   ShowMessage("\\n<Sofia>Let's pray that the Goddess forgives your sins...")
   EndEventProcessing()
   DefineLabel("151")
   ShowMessageFace("kobura_fc1",1,0,2,4)
   ShowMessage("\\n<Lila>How about you work in the Pyramid? It's a simple job. All you have to do is to wrap up whoever enters.")
   EndEventProcessing()
   0()
  EndIf()
  0()



EVENT   31
 PAGE   1
  If(1,1018,0,3,2)
   ShowMessageFace("",0,0,2,1)
   ShowMessage("\\n<Vampire>Don't cause us any trouble here...")
   0()
  EndIf()
  If(1,1018,0,4,0)
   ShowMessageFace("",0,0,2,2)
   ShowMessage("\\n<Vampire>We vampires can always rely on our bloodsucking skills. They become even more powerful when we're equipped with fangs.")
   ShowMessageFace("",0,0,2,3)
   ShowMessage("\\n<Vampire>Daggers are the best choice if you're looking for diversity in your skill use, but if you mostly use bloodsucking attacks, you should equip fangs.")
   355("actor_label_jump")
   EndEventProcessing()
   DefineLabel("66")
   ShowMessageFace("vgirl_fc1",0,0,2,4)
   ShowMessage("\\n<Vanilla>I see! Still, I'm a merchant, so equipping myself with an abacus is also an option...")
   ShowMessageFace("vgirl_fc1",0,0,2,5)
   ShowMessage("\\n<Vanilla>A dagger, fangs, or an abacus...\nConsider my role in your strategy before you decide on equipment.")
   EndEventProcessing()
   0()
  EndIf()
  0()



EVENT   32
 PAGE   1
  ShowMessageFace("",0,0,2,1)
  ShowMessage("\\n<Cat>Meow! Meow! Meow!")
  355("actor_label_jump")
  EndEventProcessing()
  DefineLabel("60")
  ShowMessageFace("dog_fc1",4,0,2,2)
  ShowMessage("\\n<Pochi>Woof! Woof!")
  ShowMessageFace("",0,0,2,3)
  ShowMessage("\\n<Cat>Mrrrow!")
  EndEventProcessing()
  DefineLabel("70")
  ShowMessageFace("nezumi_fc1",2,0,2,4)
  ShowMessage("\\n<Ratty>Eeek! It's a cat!")
  EndEventProcessing()
  DefineLabel("71")
  ShowMessageFace("okami_fc1",0,0,2,5)
  ShowMessage("\\n<Amara>So you're waiting for your master? How admirable, pal!")
  EndEventProcessing()
  DefineLabel("222")
  ShowMessageFace("nekomata_fc1",2,0,2,6)
  ShowMessage("\\n<Tama>Unyaaa!")
  EndEventProcessing()
  0()
 PAGE   2
  // condition: variable 1021 >= 2
  ShowMessageFace("",0,0,2,1)
  ShowMessage("\\n<Cat>Meeow...")
  355("actor_label_jump")
  EndEventProcessing()
  DefineLabel("79")
  ShowMessageFace("nuruko_fc1",2,0,2,2)
  ShowMessage("\\n<Nuruko>Kyu...")
  EndEventProcessing()
  DefineLabel("71")
  ShowMessageFace("okami_fc1",2,0,2,3)
  ShowMessage("\\n<Amara>Waiting for his master...")
  EndEventProcessing()
  DefineLabel("222")
  ShowMessageFace("nekomata_fc1",0,0,2,4)
  ShowMessage("\\n<Tama>Nyaa...")
  EndEventProcessing()
  0()


