﻿DisplayName "Iliasport"



EVENT   1
 PAGE   1
  250(bytes(0x04,0x08,0x6f,0x3a,0x0c,0x52,0x50,0x47,0x3a,0x3a,0x53,0x45,0x08,0x3a,0x0a,0x40,0x6e,0x61,0x6d,0x65,0x49,0x22,0x0a,0x4f,0x70,0x65,0x6e,0x31,0x06,0x3a,0x06,0x45,0x54,0x3a,0x0b,0x40,0x70,0x69,0x74,0x63,0x68,0x69,0x69,0x3a,0x0c,0x40,0x76,0x6f,0x6c,0x75,0x6d,0x65,0x69,0x55))
  205(0,bytes(0x04,0x08,0x6f,0x3a,0x13,0x52,0x50,0x47,0x3a,0x3a,0x4d,0x6f,0x76,0x65,0x52,0x6f,0x75,0x74,0x65,0x09,0x3a,0x0c,0x40,0x72,0x65,0x70,0x65,0x61,0x74,0x46,0x3a,0x0f,0x40,0x73,0x6b,0x69,0x70,0x70,0x61,0x62,0x6c,0x65,0x46,0x3a,0x0a,0x40,0x77,0x61,0x69,0x74,0x54,0x3a,0x0a,0x40,0x6c,0x69,0x73,0x74,0x5b,0x0c,0x6f,0x3a,0x15,0x52,0x50,0x47,0x3a,0x3a,0x4d,0x6f,0x76,0x65,0x43,0x6f,0x6d,0x6d,0x61,0x6e,0x64,0x07,0x3a,0x0a,0x40,0x63,0x6f,0x64,0x65,0x69,0x16,0x3a,0x10,0x40,0x70,0x61,0x72,0x61,0x6d,0x65,0x74,0x65,0x72,0x73,0x5b,0x00,0x6f,0x3b,0x0a,0x07,0x3b,0x0b,0x69,0x14,0x3b,0x0c,0x5b,0x06,0x69,0x08,0x6f,0x3b,0x0a,0x07,0x3b,0x0b,0x69,0x17,0x3b,0x0c,0x5b,0x00,0x6f,0x3b,0x0a,0x07,0x3b,0x0b,0x69,0x14,0x3b,0x0c,0x5b,0x06,0x69,0x08,0x6f,0x3b,0x0a,0x07,0x3b,0x0b,0x69,0x18,0x3b,0x0c,0x5b,0x00,0x6f,0x3b,0x0a,0x07,0x3b,0x0b,0x69,0x2a,0x3b,0x0c,0x5b,0x00,0x6f,0x3b,0x0a,0x07,0x3b,0x0b,0x69,0x00,0x3b,0x0c,0x5b,0x00))
  205(-1,bytes(0x04,0x08,0x6f,0x3a,0x13,0x52,0x50,0x47,0x3a,0x3a,0x4d,0x6f,0x76,0x65,0x52,0x6f,0x75,0x74,0x65,0x09,0x3a,0x0c,0x40,0x72,0x65,0x70,0x65,0x61,0x74,0x46,0x3a,0x0f,0x40,0x73,0x6b,0x69,0x70,0x70,0x61,0x62,0x6c,0x65,0x54,0x3a,0x0a,0x40,0x77,0x61,0x69,0x74,0x54,0x3a,0x0a,0x40,0x6c,0x69,0x73,0x74,0x5b,0x07,0x6f,0x3a,0x15,0x52,0x50,0x47,0x3a,0x3a,0x4d,0x6f,0x76,0x65,0x43,0x6f,0x6d,0x6d,0x61,0x6e,0x64,0x07,0x3a,0x0a,0x40,0x63,0x6f,0x64,0x65,0x69,0x11,0x3a,0x10,0x40,0x70,0x61,0x72,0x61,0x6d,0x65,0x74,0x65,0x72,0x73,0x5b,0x00,0x6f,0x3b,0x0a,0x07,0x3b,0x0b,0x69,0x00,0x3b,0x0c,0x5b,0x00))
  250(bytes(0x04,0x08,0x6f,0x3a,0x0c,0x52,0x50,0x47,0x3a,0x3a,0x53,0x45,0x08,0x3a,0x0a,0x40,0x6e,0x61,0x6d,0x65,0x49,0x22,0x09,0x4d,0x6f,0x76,0x65,0x06,0x3a,0x06,0x45,0x54,0x3a,0x0b,0x40,0x70,0x69,0x74,0x63,0x68,0x69,0x69,0x3a,0x0c,0x40,0x76,0x6f,0x6c,0x75,0x6d,0x65,0x69,0x55))
  TeleportPlayer(0,140,34,19,0,0)
  0()



EVENT   2
 PAGE   1
  250(bytes(0x04,0x08,0x6f,0x3a,0x0c,0x52,0x50,0x47,0x3a,0x3a,0x53,0x45,0x08,0x3a,0x0a,0x40,0x6e,0x61,0x6d,0x65,0x49,0x22,0x0a,0x4f,0x70,0x65,0x6e,0x31,0x06,0x3a,0x06,0x45,0x54,0x3a,0x0b,0x40,0x70,0x69,0x74,0x63,0x68,0x69,0x69,0x3a,0x0c,0x40,0x76,0x6f,0x6c,0x75,0x6d,0x65,0x69,0x55))
  205(0,bytes(0x04,0x08,0x6f,0x3a,0x13,0x52,0x50,0x47,0x3a,0x3a,0x4d,0x6f,0x76,0x65,0x52,0x6f,0x75,0x74,0x65,0x09,0x3a,0x0c,0x40,0x72,0x65,0x70,0x65,0x61,0x74,0x46,0x3a,0x0f,0x40,0x73,0x6b,0x69,0x70,0x70,0x61,0x62,0x6c,0x65,0x46,0x3a,0x0a,0x40,0x77,0x61,0x69,0x74,0x54,0x3a,0x0a,0x40,0x6c,0x69,0x73,0x74,0x5b,0x0c,0x6f,0x3a,0x15,0x52,0x50,0x47,0x3a,0x3a,0x4d,0x6f,0x76,0x65,0x43,0x6f,0x6d,0x6d,0x61,0x6e,0x64,0x07,0x3a,0x0a,0x40,0x63,0x6f,0x64,0x65,0x69,0x16,0x3a,0x10,0x40,0x70,0x61,0x72,0x61,0x6d,0x65,0x74,0x65,0x72,0x73,0x5b,0x00,0x6f,0x3b,0x0a,0x07,0x3b,0x0b,0x69,0x14,0x3b,0x0c,0x5b,0x06,0x69,0x08,0x6f,0x3b,0x0a,0x07,0x3b,0x0b,0x69,0x17,0x3b,0x0c,0x5b,0x00,0x6f,0x3b,0x0a,0x07,0x3b,0x0b,0x69,0x14,0x3b,0x0c,0x5b,0x06,0x69,0x08,0x6f,0x3b,0x0a,0x07,0x3b,0x0b,0x69,0x18,0x3b,0x0c,0x5b,0x00,0x6f,0x3b,0x0a,0x07,0x3b,0x0b,0x69,0x2a,0x3b,0x0c,0x5b,0x00,0x6f,0x3b,0x0a,0x07,0x3b,0x0b,0x69,0x00,0x3b,0x0c,0x5b,0x00))
  205(-1,bytes(0x04,0x08,0x6f,0x3a,0x13,0x52,0x50,0x47,0x3a,0x3a,0x4d,0x6f,0x76,0x65,0x52,0x6f,0x75,0x74,0x65,0x09,0x3a,0x0c,0x40,0x72,0x65,0x70,0x65,0x61,0x74,0x46,0x3a,0x0f,0x40,0x73,0x6b,0x69,0x70,0x70,0x61,0x62,0x6c,0x65,0x54,0x3a,0x0a,0x40,0x77,0x61,0x69,0x74,0x54,0x3a,0x0a,0x40,0x6c,0x69,0x73,0x74,0x5b,0x07,0x6f,0x3a,0x15,0x52,0x50,0x47,0x3a,0x3a,0x4d,0x6f,0x76,0x65,0x43,0x6f,0x6d,0x6d,0x61,0x6e,0x64,0x07,0x3a,0x0a,0x40,0x63,0x6f,0x64,0x65,0x69,0x11,0x3a,0x10,0x40,0x70,0x61,0x72,0x61,0x6d,0x65,0x74,0x65,0x72,0x73,0x5b,0x00,0x6f,0x3b,0x0a,0x07,0x3b,0x0b,0x69,0x00,0x3b,0x0c,0x5b,0x00))
  250(bytes(0x04,0x08,0x6f,0x3a,0x0c,0x52,0x50,0x47,0x3a,0x3a,0x53,0x45,0x08,0x3a,0x0a,0x40,0x6e,0x61,0x6d,0x65,0x49,0x22,0x09,0x4d,0x6f,0x76,0x65,0x06,0x3a,0x06,0x45,0x54,0x3a,0x0b,0x40,0x70,0x69,0x74,0x63,0x68,0x69,0x69,0x3a,0x0c,0x40,0x76,0x6f,0x6c,0x75,0x6d,0x65,0x69,0x55))
  TeleportPlayer(0,140,32,42,0,0)
  0()



EVENT   3
 PAGE   1
  250(bytes(0x04,0x08,0x6f,0x3a,0x0c,0x52,0x50,0x47,0x3a,0x3a,0x53,0x45,0x08,0x3a,0x0a,0x40,0x6e,0x61,0x6d,0x65,0x49,0x22,0x0a,0x4f,0x70,0x65,0x6e,0x31,0x06,0x3a,0x06,0x45,0x54,0x3a,0x0b,0x40,0x70,0x69,0x74,0x63,0x68,0x69,0x69,0x3a,0x0c,0x40,0x76,0x6f,0x6c,0x75,0x6d,0x65,0x69,0x55))
  205(0,bytes(0x04,0x08,0x6f,0x3a,0x13,0x52,0x50,0x47,0x3a,0x3a,0x4d,0x6f,0x76,0x65,0x52,0x6f,0x75,0x74,0x65,0x09,0x3a,0x0c,0x40,0x72,0x65,0x70,0x65,0x61,0x74,0x46,0x3a,0x0f,0x40,0x73,0x6b,0x69,0x70,0x70,0x61,0x62,0x6c,0x65,0x46,0x3a,0x0a,0x40,0x77,0x61,0x69,0x74,0x54,0x3a,0x0a,0x40,0x6c,0x69,0x73,0x74,0x5b,0x0c,0x6f,0x3a,0x15,0x52,0x50,0x47,0x3a,0x3a,0x4d,0x6f,0x76,0x65,0x43,0x6f,0x6d,0x6d,0x61,0x6e,0x64,0x07,0x3a,0x0a,0x40,0x63,0x6f,0x64,0x65,0x69,0x16,0x3a,0x10,0x40,0x70,0x61,0x72,0x61,0x6d,0x65,0x74,0x65,0x72,0x73,0x5b,0x00,0x6f,0x3b,0x0a,0x07,0x3b,0x0b,0x69,0x14,0x3b,0x0c,0x5b,0x06,0x69,0x08,0x6f,0x3b,0x0a,0x07,0x3b,0x0b,0x69,0x17,0x3b,0x0c,0x5b,0x00,0x6f,0x3b,0x0a,0x07,0x3b,0x0b,0x69,0x14,0x3b,0x0c,0x5b,0x06,0x69,0x08,0x6f,0x3b,0x0a,0x07,0x3b,0x0b,0x69,0x18,0x3b,0x0c,0x5b,0x00,0x6f,0x3b,0x0a,0x07,0x3b,0x0b,0x69,0x2a,0x3b,0x0c,0x5b,0x00,0x6f,0x3b,0x0a,0x07,0x3b,0x0b,0x69,0x00,0x3b,0x0c,0x5b,0x00))
  205(-1,bytes(0x04,0x08,0x6f,0x3a,0x13,0x52,0x50,0x47,0x3a,0x3a,0x4d,0x6f,0x76,0x65,0x52,0x6f,0x75,0x74,0x65,0x09,0x3a,0x0c,0x40,0x72,0x65,0x70,0x65,0x61,0x74,0x46,0x3a,0x0f,0x40,0x73,0x6b,0x69,0x70,0x70,0x61,0x62,0x6c,0x65,0x54,0x3a,0x0a,0x40,0x77,0x61,0x69,0x74,0x54,0x3a,0x0a,0x40,0x6c,0x69,0x73,0x74,0x5b,0x07,0x6f,0x3a,0x15,0x52,0x50,0x47,0x3a,0x3a,0x4d,0x6f,0x76,0x65,0x43,0x6f,0x6d,0x6d,0x61,0x6e,0x64,0x07,0x3a,0x0a,0x40,0x63,0x6f,0x64,0x65,0x69,0x11,0x3a,0x10,0x40,0x70,0x61,0x72,0x61,0x6d,0x65,0x74,0x65,0x72,0x73,0x5b,0x00,0x6f,0x3b,0x0a,0x07,0x3b,0x0b,0x69,0x00,0x3b,0x0c,0x5b,0x00))
  250(bytes(0x04,0x08,0x6f,0x3a,0x0c,0x52,0x50,0x47,0x3a,0x3a,0x53,0x45,0x08,0x3a,0x0a,0x40,0x6e,0x61,0x6d,0x65,0x49,0x22,0x09,0x4d,0x6f,0x76,0x65,0x06,0x3a,0x06,0x45,0x54,0x3a,0x0b,0x40,0x70,0x69,0x74,0x63,0x68,0x69,0x69,0x3a,0x0c,0x40,0x76,0x6f,0x6c,0x75,0x6d,0x65,0x69,0x55))
  TeleportPlayer(0,140,17,39,0,0)
  0()



EVENT   4
 PAGE   1
  250(bytes(0x04,0x08,0x6f,0x3a,0x0c,0x52,0x50,0x47,0x3a,0x3a,0x53,0x45,0x08,0x3a,0x0a,0x40,0x6e,0x61,0x6d,0x65,0x49,0x22,0x0a,0x4f,0x70,0x65,0x6e,0x31,0x06,0x3a,0x06,0x45,0x54,0x3a,0x0b,0x40,0x70,0x69,0x74,0x63,0x68,0x69,0x69,0x3a,0x0c,0x40,0x76,0x6f,0x6c,0x75,0x6d,0x65,0x69,0x55))
  205(0,bytes(0x04,0x08,0x6f,0x3a,0x13,0x52,0x50,0x47,0x3a,0x3a,0x4d,0x6f,0x76,0x65,0x52,0x6f,0x75,0x74,0x65,0x09,0x3a,0x0c,0x40,0x72,0x65,0x70,0x65,0x61,0x74,0x46,0x3a,0x0f,0x40,0x73,0x6b,0x69,0x70,0x70,0x61,0x62,0x6c,0x65,0x46,0x3a,0x0a,0x40,0x77,0x61,0x69,0x74,0x54,0x3a,0x0a,0x40,0x6c,0x69,0x73,0x74,0x5b,0x0c,0x6f,0x3a,0x15,0x52,0x50,0x47,0x3a,0x3a,0x4d,0x6f,0x76,0x65,0x43,0x6f,0x6d,0x6d,0x61,0x6e,0x64,0x07,0x3a,0x0a,0x40,0x63,0x6f,0x64,0x65,0x69,0x16,0x3a,0x10,0x40,0x70,0x61,0x72,0x61,0x6d,0x65,0x74,0x65,0x72,0x73,0x5b,0x00,0x6f,0x3b,0x0a,0x07,0x3b,0x0b,0x69,0x14,0x3b,0x0c,0x5b,0x06,0x69,0x08,0x6f,0x3b,0x0a,0x07,0x3b,0x0b,0x69,0x17,0x3b,0x0c,0x5b,0x00,0x6f,0x3b,0x0a,0x07,0x3b,0x0b,0x69,0x14,0x3b,0x0c,0x5b,0x06,0x69,0x08,0x6f,0x3b,0x0a,0x07,0x3b,0x0b,0x69,0x18,0x3b,0x0c,0x5b,0x00,0x6f,0x3b,0x0a,0x07,0x3b,0x0b,0x69,0x2a,0x3b,0x0c,0x5b,0x00,0x6f,0x3b,0x0a,0x07,0x3b,0x0b,0x69,0x00,0x3b,0x0c,0x5b,0x00))
  205(-1,bytes(0x04,0x08,0x6f,0x3a,0x13,0x52,0x50,0x47,0x3a,0x3a,0x4d,0x6f,0x76,0x65,0x52,0x6f,0x75,0x74,0x65,0x09,0x3a,0x0c,0x40,0x72,0x65,0x70,0x65,0x61,0x74,0x46,0x3a,0x0f,0x40,0x73,0x6b,0x69,0x70,0x70,0x61,0x62,0x6c,0x65,0x54,0x3a,0x0a,0x40,0x77,0x61,0x69,0x74,0x54,0x3a,0x0a,0x40,0x6c,0x69,0x73,0x74,0x5b,0x07,0x6f,0x3a,0x15,0x52,0x50,0x47,0x3a,0x3a,0x4d,0x6f,0x76,0x65,0x43,0x6f,0x6d,0x6d,0x61,0x6e,0x64,0x07,0x3a,0x0a,0x40,0x63,0x6f,0x64,0x65,0x69,0x11,0x3a,0x10,0x40,0x70,0x61,0x72,0x61,0x6d,0x65,0x74,0x65,0x72,0x73,0x5b,0x00,0x6f,0x3b,0x0a,0x07,0x3b,0x0b,0x69,0x00,0x3b,0x0c,0x5b,0x00))
  250(bytes(0x04,0x08,0x6f,0x3a,0x0c,0x52,0x50,0x47,0x3a,0x3a,0x53,0x45,0x08,0x3a,0x0a,0x40,0x6e,0x61,0x6d,0x65,0x49,0x22,0x09,0x4d,0x6f,0x76,0x65,0x06,0x3a,0x06,0x45,0x54,0x3a,0x0b,0x40,0x70,0x69,0x74,0x63,0x68,0x69,0x69,0x3a,0x0c,0x40,0x76,0x6f,0x6c,0x75,0x6d,0x65,0x69,0x55))
  TeleportPlayer(0,140,14,63,0,0)
  0()



EVENT   5
 PAGE   1
  250(bytes(0x04,0x08,0x6f,0x3a,0x0c,0x52,0x50,0x47,0x3a,0x3a,0x53,0x45,0x08,0x3a,0x0a,0x40,0x6e,0x61,0x6d,0x65,0x49,0x22,0x0a,0x4f,0x70,0x65,0x6e,0x33,0x06,0x3a,0x06,0x45,0x54,0x3a,0x0b,0x40,0x70,0x69,0x74,0x63,0x68,0x69,0x69,0x3a,0x0c,0x40,0x76,0x6f,0x6c,0x75,0x6d,0x65,0x69,0x55))
  205(0,bytes(0x04,0x08,0x6f,0x3a,0x13,0x52,0x50,0x47,0x3a,0x3a,0x4d,0x6f,0x76,0x65,0x52,0x6f,0x75,0x74,0x65,0x09,0x3a,0x0c,0x40,0x72,0x65,0x70,0x65,0x61,0x74,0x46,0x3a,0x0f,0x40,0x73,0x6b,0x69,0x70,0x70,0x61,0x62,0x6c,0x65,0x46,0x3a,0x0a,0x40,0x77,0x61,0x69,0x74,0x54,0x3a,0x0a,0x40,0x6c,0x69,0x73,0x74,0x5b,0x0c,0x6f,0x3a,0x15,0x52,0x50,0x47,0x3a,0x3a,0x4d,0x6f,0x76,0x65,0x43,0x6f,0x6d,0x6d,0x61,0x6e,0x64,0x07,0x3a,0x0a,0x40,0x63,0x6f,0x64,0x65,0x69,0x16,0x3a,0x10,0x40,0x70,0x61,0x72,0x61,0x6d,0x65,0x74,0x65,0x72,0x73,0x5b,0x00,0x6f,0x3b,0x0a,0x07,0x3b,0x0b,0x69,0x14,0x3b,0x0c,0x5b,0x06,0x69,0x08,0x6f,0x3b,0x0a,0x07,0x3b,0x0b,0x69,0x17,0x3b,0x0c,0x5b,0x00,0x6f,0x3b,0x0a,0x07,0x3b,0x0b,0x69,0x14,0x3b,0x0c,0x5b,0x06,0x69,0x08,0x6f,0x3b,0x0a,0x07,0x3b,0x0b,0x69,0x18,0x3b,0x0c,0x5b,0x00,0x6f,0x3b,0x0a,0x07,0x3b,0x0b,0x69,0x2a,0x3b,0x0c,0x5b,0x00,0x6f,0x3b,0x0a,0x07,0x3b,0x0b,0x69,0x00,0x3b,0x0c,0x5b,0x00))
  205(-1,bytes(0x04,0x08,0x6f,0x3a,0x13,0x52,0x50,0x47,0x3a,0x3a,0x4d,0x6f,0x76,0x65,0x52,0x6f,0x75,0x74,0x65,0x09,0x3a,0x0c,0x40,0x72,0x65,0x70,0x65,0x61,0x74,0x46,0x3a,0x0f,0x40,0x73,0x6b,0x69,0x70,0x70,0x61,0x62,0x6c,0x65,0x54,0x3a,0x0a,0x40,0x77,0x61,0x69,0x74,0x54,0x3a,0x0a,0x40,0x6c,0x69,0x73,0x74,0x5b,0x07,0x6f,0x3a,0x15,0x52,0x50,0x47,0x3a,0x3a,0x4d,0x6f,0x76,0x65,0x43,0x6f,0x6d,0x6d,0x61,0x6e,0x64,0x07,0x3a,0x0a,0x40,0x63,0x6f,0x64,0x65,0x69,0x11,0x3a,0x10,0x40,0x70,0x61,0x72,0x61,0x6d,0x65,0x74,0x65,0x72,0x73,0x5b,0x00,0x6f,0x3b,0x0a,0x07,0x3b,0x0b,0x69,0x00,0x3b,0x0c,0x5b,0x00))
  250(bytes(0x04,0x08,0x6f,0x3a,0x0c,0x52,0x50,0x47,0x3a,0x3a,0x53,0x45,0x08,0x3a,0x0a,0x40,0x6e,0x61,0x6d,0x65,0x49,0x22,0x09,0x4d,0x6f,0x76,0x65,0x06,0x3a,0x06,0x45,0x54,0x3a,0x0b,0x40,0x70,0x69,0x74,0x63,0x68,0x69,0x69,0x3a,0x0c,0x40,0x76,0x6f,0x6c,0x75,0x6d,0x65,0x69,0x55))
  TeleportPlayer(0,140,72,76,0,0)
  0()



EVENT   6
 PAGE   1
  250(bytes(0x04,0x08,0x6f,0x3a,0x0c,0x52,0x50,0x47,0x3a,0x3a,0x53,0x45,0x08,0x3a,0x0a,0x40,0x6e,0x61,0x6d,0x65,0x49,0x22,0x09,0x4d,0x6f,0x76,0x65,0x06,0x3a,0x06,0x45,0x54,0x3a,0x0b,0x40,0x70,0x69,0x74,0x63,0x68,0x69,0x69,0x3a,0x0c,0x40,0x76,0x6f,0x6c,0x75,0x6d,0x65,0x69,0x55))
  TeleportPlayer(0,2,282,274,2,0)
  0()



EVENT   7
 PAGE   1
  250(bytes(0x04,0x08,0x6f,0x3a,0x0c,0x52,0x50,0x47,0x3a,0x3a,0x53,0x45,0x08,0x3a,0x0a,0x40,0x6e,0x61,0x6d,0x65,0x49,0x22,0x09,0x4d,0x6f,0x76,0x65,0x06,0x3a,0x06,0x45,0x54,0x3a,0x0b,0x40,0x70,0x69,0x74,0x63,0x68,0x69,0x69,0x3a,0x0c,0x40,0x76,0x6f,0x6c,0x75,0x6d,0x65,0x69,0x55))
  TeleportPlayer(0,2,282,274,2,0)
  0()



EVENT   8
 PAGE   1
  250(bytes(0x04,0x08,0x6f,0x3a,0x0c,0x52,0x50,0x47,0x3a,0x3a,0x53,0x45,0x08,0x3a,0x0a,0x40,0x6e,0x61,0x6d,0x65,0x49,0x22,0x09,0x4d,0x6f,0x76,0x65,0x06,0x3a,0x06,0x45,0x54,0x3a,0x0b,0x40,0x70,0x69,0x74,0x63,0x68,0x69,0x69,0x3a,0x0c,0x40,0x76,0x6f,0x6c,0x75,0x6d,0x65,0x69,0x55))
  TeleportPlayer(0,2,282,274,2,0)
  0()



EVENT   9
 PAGE   1
  ChangeSelfSwitch("A",0)
  If(0,6,0)
   ShowMessageFace("sonia_fc1",0,0,2,1)
   ShowMessage("\\n<Sonya>So this is Iliasport, the largest port town in Ilias Continent!")
   ShowMessageFace("sonia_fc2",2,0,2,2)
   ShowMessage("\\n<Sonya>...But isn't it pretty deserted for such a key locale? There are only a few shops here and the streets aren't bustling with people...")
   0()
  Else()
   ShowMessageFace("ruka_fc1",0,0,2,3)
   ShowMessage("\\n<Luka>This is Ilias Continent's largest port town, Iliasport... But it feels so deserted for such an important place.")
   0()
  EndIf()
  0()
 PAGE   2
  // condition: self-switch A is ON
  0()



EVENT   10
 PAGE   1
  250(bytes(0x04,0x08,0x6f,0x3a,0x0c,0x52,0x50,0x47,0x3a,0x3a,0x53,0x45,0x08,0x3a,0x0a,0x40,0x6e,0x61,0x6d,0x65,0x49,0x22,0x09,0x4d,0x6f,0x76,0x65,0x06,0x3a,0x06,0x45,0x54,0x3a,0x0b,0x40,0x70,0x69,0x74,0x63,0x68,0x69,0x69,0x3a,0x0c,0x40,0x76,0x6f,0x6c,0x75,0x6d,0x65,0x69,0x55))
  TeleportPlayer(0,2,282,274,2,0)
  0()



EVENT   11
 PAGE   1
  250(bytes(0x04,0x08,0x6f,0x3a,0x0c,0x52,0x50,0x47,0x3a,0x3a,0x53,0x45,0x08,0x3a,0x0a,0x40,0x6e,0x61,0x6d,0x65,0x49,0x22,0x09,0x4d,0x6f,0x76,0x65,0x06,0x3a,0x06,0x45,0x54,0x3a,0x0b,0x40,0x70,0x69,0x74,0x63,0x68,0x69,0x69,0x3a,0x0c,0x40,0x76,0x6f,0x6c,0x75,0x6d,0x65,0x69,0x55))
  TeleportPlayer(0,2,282,274,2,0)
  0()



EVENT   12
 PAGE   1
  250(bytes(0x04,0x08,0x6f,0x3a,0x0c,0x52,0x50,0x47,0x3a,0x3a,0x53,0x45,0x08,0x3a,0x0a,0x40,0x6e,0x61,0x6d,0x65,0x49,0x22,0x09,0x4d,0x6f,0x76,0x65,0x06,0x3a,0x06,0x45,0x54,0x3a,0x0b,0x40,0x70,0x69,0x74,0x63,0x68,0x69,0x69,0x3a,0x0c,0x40,0x76,0x6f,0x6c,0x75,0x6d,0x65,0x69,0x55))
  TeleportPlayer(0,2,282,274,2,0)
  0()



EVENT   13
 PAGE   1
  250(bytes(0x04,0x08,0x6f,0x3a,0x0c,0x52,0x50,0x47,0x3a,0x3a,0x53,0x45,0x08,0x3a,0x0a,0x40,0x6e,0x61,0x6d,0x65,0x49,0x22,0x09,0x4d,0x6f,0x76,0x65,0x06,0x3a,0x06,0x45,0x54,0x3a,0x0b,0x40,0x70,0x69,0x74,0x63,0x68,0x69,0x69,0x3a,0x0c,0x40,0x76,0x6f,0x6c,0x75,0x6d,0x65,0x69,0x55))
  TeleportPlayer(0,2,282,274,2,0)
  0()



EVENT   14
 PAGE   1
  250(bytes(0x04,0x08,0x6f,0x3a,0x0c,0x52,0x50,0x47,0x3a,0x3a,0x53,0x45,0x08,0x3a,0x0a,0x40,0x6e,0x61,0x6d,0x65,0x49,0x22,0x09,0x4d,0x6f,0x76,0x65,0x06,0x3a,0x06,0x45,0x54,0x3a,0x0b,0x40,0x70,0x69,0x74,0x63,0x68,0x69,0x69,0x3a,0x0c,0x40,0x76,0x6f,0x6c,0x75,0x6d,0x65,0x69,0x55))
  TeleportPlayer(0,2,282,274,2,0)
  0()



EVENT   15
 PAGE   1
  250(bytes(0x04,0x08,0x6f,0x3a,0x0c,0x52,0x50,0x47,0x3a,0x3a,0x53,0x45,0x08,0x3a,0x0a,0x40,0x6e,0x61,0x6d,0x65,0x49,0x22,0x09,0x4d,0x6f,0x76,0x65,0x06,0x3a,0x06,0x45,0x54,0x3a,0x0b,0x40,0x70,0x69,0x74,0x63,0x68,0x69,0x69,0x3a,0x0c,0x40,0x76,0x6f,0x6c,0x75,0x6d,0x65,0x69,0x55))
  TeleportPlayer(0,2,282,274,2,0)
  0()



EVENT   16
 PAGE   1
  250(bytes(0x04,0x08,0x6f,0x3a,0x0c,0x52,0x50,0x47,0x3a,0x3a,0x53,0x45,0x08,0x3a,0x0a,0x40,0x6e,0x61,0x6d,0x65,0x49,0x22,0x09,0x4d,0x6f,0x76,0x65,0x06,0x3a,0x06,0x45,0x54,0x3a,0x0b,0x40,0x70,0x69,0x74,0x63,0x68,0x69,0x69,0x3a,0x0c,0x40,0x76,0x6f,0x6c,0x75,0x6d,0x65,0x69,0x55))
  TeleportPlayer(0,2,282,274,2,0)
  0()



EVENT   17
 PAGE   1
  250(bytes(0x04,0x08,0x6f,0x3a,0x0c,0x52,0x50,0x47,0x3a,0x3a,0x53,0x45,0x08,0x3a,0x0a,0x40,0x6e,0x61,0x6d,0x65,0x49,0x22,0x09,0x4d,0x6f,0x76,0x65,0x06,0x3a,0x06,0x45,0x54,0x3a,0x0b,0x40,0x70,0x69,0x74,0x63,0x68,0x69,0x69,0x3a,0x0c,0x40,0x76,0x6f,0x6c,0x75,0x6d,0x65,0x69,0x55))
  TeleportPlayer(0,2,282,274,2,0)
  0()



EVENT   18
 PAGE   1
  250(bytes(0x04,0x08,0x6f,0x3a,0x0c,0x52,0x50,0x47,0x3a,0x3a,0x53,0x45,0x08,0x3a,0x0a,0x40,0x6e,0x61,0x6d,0x65,0x49,0x22,0x09,0x4d,0x6f,0x76,0x65,0x06,0x3a,0x06,0x45,0x54,0x3a,0x0b,0x40,0x70,0x69,0x74,0x63,0x68,0x69,0x69,0x3a,0x0c,0x40,0x76,0x6f,0x6c,0x75,0x6d,0x65,0x69,0x55))
  TeleportPlayer(0,2,282,274,2,0)
  0()



EVENT   19
 PAGE   1
  250(bytes(0x04,0x08,0x6f,0x3a,0x0c,0x52,0x50,0x47,0x3a,0x3a,0x53,0x45,0x08,0x3a,0x0a,0x40,0x6e,0x61,0x6d,0x65,0x49,0x22,0x09,0x4d,0x6f,0x76,0x65,0x06,0x3a,0x06,0x45,0x54,0x3a,0x0b,0x40,0x70,0x69,0x74,0x63,0x68,0x69,0x69,0x3a,0x0c,0x40,0x76,0x6f,0x6c,0x75,0x6d,0x65,0x69,0x55))
  TeleportPlayer(0,2,282,274,2,0)
  0()



EVENT   20
 PAGE   1
  250(bytes(0x04,0x08,0x6f,0x3a,0x0c,0x52,0x50,0x47,0x3a,0x3a,0x53,0x45,0x08,0x3a,0x0a,0x40,0x6e,0x61,0x6d,0x65,0x49,0x22,0x09,0x4d,0x6f,0x76,0x65,0x06,0x3a,0x06,0x45,0x54,0x3a,0x0b,0x40,0x70,0x69,0x74,0x63,0x68,0x69,0x69,0x3a,0x0c,0x40,0x76,0x6f,0x6c,0x75,0x6d,0x65,0x69,0x55))
  TeleportPlayer(0,2,282,274,2,0)
  0()



EVENT   21
 PAGE   1
  250(bytes(0x04,0x08,0x6f,0x3a,0x0c,0x52,0x50,0x47,0x3a,0x3a,0x53,0x45,0x08,0x3a,0x0a,0x40,0x6e,0x61,0x6d,0x65,0x49,0x22,0x09,0x4d,0x6f,0x76,0x65,0x06,0x3a,0x06,0x45,0x54,0x3a,0x0b,0x40,0x70,0x69,0x74,0x63,0x68,0x69,0x69,0x3a,0x0c,0x40,0x76,0x6f,0x6c,0x75,0x6d,0x65,0x69,0x55))
  TeleportPlayer(0,2,282,274,2,0)
  0()



EVENT   22
 PAGE   1
  250(bytes(0x04,0x08,0x6f,0x3a,0x0c,0x52,0x50,0x47,0x3a,0x3a,0x53,0x45,0x08,0x3a,0x0a,0x40,0x6e,0x61,0x6d,0x65,0x49,0x22,0x09,0x4d,0x6f,0x76,0x65,0x06,0x3a,0x06,0x45,0x54,0x3a,0x0b,0x40,0x70,0x69,0x74,0x63,0x68,0x69,0x69,0x3a,0x0c,0x40,0x76,0x6f,0x6c,0x75,0x6d,0x65,0x69,0x55))
  TeleportPlayer(0,2,282,274,2,0)
  0()



EVENT   23
 PAGE   1
  250(bytes(0x04,0x08,0x6f,0x3a,0x0c,0x52,0x50,0x47,0x3a,0x3a,0x53,0x45,0x08,0x3a,0x0a,0x40,0x6e,0x61,0x6d,0x65,0x49,0x22,0x09,0x4d,0x6f,0x76,0x65,0x06,0x3a,0x06,0x45,0x54,0x3a,0x0b,0x40,0x70,0x69,0x74,0x63,0x68,0x69,0x69,0x3a,0x0c,0x40,0x76,0x6f,0x6c,0x75,0x6d,0x65,0x69,0x55))
  TeleportPlayer(0,2,282,274,2,0)
  0()



EVENT   24
 PAGE   1
  ShowMessageFace("",0,0,2,1)
  ShowMessage("\\n<Old Man>The only academy on this continent, Iliasport University, is in this town. The academy's doors are always open and everyone is welcome to visit.")
  ShowMessageFace("",0,0,2,2)
  ShowMessage("\\n<Old Man>You might hear a lecture useful for your adventure. By all means, feel free to stop by.")
  355("actor_label_jump")
  EndEventProcessing()
  DefineLabel("41")
  ShowMessageFace("stein_fc2",1,0,2,3)
  ShowMessage("\\n<Promestein>That sounds entertaining, so let us go inside!")
  EndEventProcessing()
  DefineLabel("92")
  ShowMessageFace("eater_fc1",0,0,2,4)
  ShowMessage("\\n<Eater>Is there anything tasty inside...?")
  EndEventProcessing()
  DefineLabel("94")
  ShowMessageFace("luksl_fc1",0,0,2,5)
  ShowMessage("\\n<Luxuru>I want to see how far this world's research has come... Well then, let's go inside.")
  EndEventProcessing()
  DefineLabel("119")
  ShowMessageFace("page17_fc1",0,0,2,6)
  ShowMessage("\\n<Annie>I'm interested in their book collection, so let's hurry up and enter...")
  EndEventProcessing()
  DefineLabel("120")
  ShowMessageFace("page257_fc1",0,0,2,7)
  ShowMessage("\\n<Yoko>An academy, huh? Its reading collection will be limited to technical books. How boring...")
  EndEventProcessing()
  DefineLabel("531")
  ShowMessageFace("saniria_fc2",0,0,2,8)
  ShowMessage("\\n<King of San Ilia>So this is the top educational institution of Ilias Continent? It would not be a bad idea to take a tour...")
  EndEventProcessing()
  0()



EVENT   25
 PAGE   1
  250(bytes(0x04,0x08,0x6f,0x3a,0x0c,0x52,0x50,0x47,0x3a,0x3a,0x53,0x45,0x08,0x3a,0x0a,0x40,0x6e,0x61,0x6d,0x65,0x49,0x22,0x09,0x4d,0x6f,0x76,0x65,0x06,0x3a,0x06,0x45,0x54,0x3a,0x0b,0x40,0x70,0x69,0x74,0x63,0x68,0x69,0x69,0x3a,0x0c,0x40,0x76,0x6f,0x6c,0x75,0x6d,0x65,0x69,0x55))
  TeleportPlayer(0,2,282,274,2,0)
  0()



EVENT   26
 PAGE   1
  250(bytes(0x04,0x08,0x6f,0x3a,0x0c,0x52,0x50,0x47,0x3a,0x3a,0x53,0x45,0x08,0x3a,0x0a,0x40,0x6e,0x61,0x6d,0x65,0x49,0x22,0x09,0x4d,0x6f,0x76,0x65,0x06,0x3a,0x06,0x45,0x54,0x3a,0x0b,0x40,0x70,0x69,0x74,0x63,0x68,0x69,0x69,0x3a,0x0c,0x40,0x76,0x6f,0x6c,0x75,0x6d,0x65,0x69,0x55))
  TeleportPlayer(0,2,282,274,2,0)
  0()



EVENT   27
 PAGE   1
  250(bytes(0x04,0x08,0x6f,0x3a,0x0c,0x52,0x50,0x47,0x3a,0x3a,0x53,0x45,0x08,0x3a,0x0a,0x40,0x6e,0x61,0x6d,0x65,0x49,0x22,0x09,0x4d,0x6f,0x76,0x65,0x06,0x3a,0x06,0x45,0x54,0x3a,0x0b,0x40,0x70,0x69,0x74,0x63,0x68,0x69,0x69,0x3a,0x0c,0x40,0x76,0x6f,0x6c,0x75,0x6d,0x65,0x69,0x55))
  TeleportPlayer(0,2,282,274,2,0)
  0()



EVENT   28
 PAGE   1
  250(bytes(0x04,0x08,0x6f,0x3a,0x0c,0x52,0x50,0x47,0x3a,0x3a,0x53,0x45,0x08,0x3a,0x0a,0x40,0x6e,0x61,0x6d,0x65,0x49,0x22,0x09,0x4d,0x6f,0x76,0x65,0x06,0x3a,0x06,0x45,0x54,0x3a,0x0b,0x40,0x70,0x69,0x74,0x63,0x68,0x69,0x69,0x3a,0x0c,0x40,0x76,0x6f,0x6c,0x75,0x6d,0x65,0x69,0x55))
  TeleportPlayer(0,2,282,274,2,0)
  0()



EVENT   29
 PAGE   1
  250(bytes(0x04,0x08,0x6f,0x3a,0x0c,0x52,0x50,0x47,0x3a,0x3a,0x53,0x45,0x08,0x3a,0x0a,0x40,0x6e,0x61,0x6d,0x65,0x49,0x22,0x09,0x4d,0x6f,0x76,0x65,0x06,0x3a,0x06,0x45,0x54,0x3a,0x0b,0x40,0x70,0x69,0x74,0x63,0x68,0x69,0x69,0x3a,0x0c,0x40,0x76,0x6f,0x6c,0x75,0x6d,0x65,0x69,0x55))
  TeleportPlayer(0,2,282,274,2,0)
  0()



EVENT   30
 PAGE   1
  250(bytes(0x04,0x08,0x6f,0x3a,0x0c,0x52,0x50,0x47,0x3a,0x3a,0x53,0x45,0x08,0x3a,0x0a,0x40,0x6e,0x61,0x6d,0x65,0x49,0x22,0x09,0x4d,0x6f,0x76,0x65,0x06,0x3a,0x06,0x45,0x54,0x3a,0x0b,0x40,0x70,0x69,0x74,0x63,0x68,0x69,0x69,0x3a,0x0c,0x40,0x76,0x6f,0x6c,0x75,0x6d,0x65,0x69,0x55))
  TeleportPlayer(0,2,282,274,2,0)
  0()



EVENT   31
 PAGE   1
  250(bytes(0x04,0x08,0x6f,0x3a,0x0c,0x52,0x50,0x47,0x3a,0x3a,0x53,0x45,0x08,0x3a,0x0a,0x40,0x6e,0x61,0x6d,0x65,0x49,0x22,0x09,0x4d,0x6f,0x76,0x65,0x06,0x3a,0x06,0x45,0x54,0x3a,0x0b,0x40,0x70,0x69,0x74,0x63,0x68,0x69,0x69,0x3a,0x0c,0x40,0x76,0x6f,0x6c,0x75,0x6d,0x65,0x69,0x55))
  TeleportPlayer(0,2,282,274,2,0)
  0()



EVENT   32
 PAGE   1
  ShowMessageFace("",0,0,2,1)
  ShowMessage("\\n<Fishmonger>Come buy our freshly-caught fish today! We also have a nice variety of seafood!")
  355("actor_label_jump")
  JumpToLabel("Shop")
  DefineLabel("5")
  ShowMessageFace("alice_fc5",7,0,2,2)
  ShowMessage("\\n<Alice>Fish...♪")
  JumpToLabel("Shop")
  DefineLabel("53")
  ShowMessageFace("slime_fc1",0,0,2,3)
  ShowMessage("\\n<Lime>Yaaay, fiiish♪")
  JumpToLabel("Shop")
  DefineLabel("116")
  ShowMessageFace("iso_fc1",0,0,2,4)
  ShowMessage("\\n<Isabelle>After being away from the sea for so long, I started missing the taste of fish...")
  JumpToLabel("Shop")
  DefineLabel("118")
  ShowMessageFace("meia_fc1",0,0,2,5)
  ShowMessage("\\n<Meia>Port Natalia's fish is the freshest. No, it's not like our town is trying to compete or anything...")
  JumpToLabel("Shop")
  DefineLabel("Shop")
  Shop(0,322,0,0,true)
  605(0,324,0,0)
  605(0,325,0,0)
  605(0,327,0,0)
  605(0,334,0,0)
  605(0,335,0,0)
  605(0,433,0,0)
  0()



EVENT   33
 PAGE   1
  250(bytes(0x04,0x08,0x6f,0x3a,0x0c,0x52,0x50,0x47,0x3a,0x3a,0x53,0x45,0x08,0x3a,0x0a,0x40,0x6e,0x61,0x6d,0x65,0x49,0x22,0x09,0x4d,0x6f,0x76,0x65,0x06,0x3a,0x06,0x45,0x54,0x3a,0x0b,0x40,0x70,0x69,0x74,0x63,0x68,0x69,0x69,0x3a,0x0c,0x40,0x76,0x6f,0x6c,0x75,0x6d,0x65,0x69,0x55))
  TeleportPlayer(0,2,282,274,2,0)
  0()



EVENT   34
 PAGE   1
  250(bytes(0x04,0x08,0x6f,0x3a,0x0c,0x52,0x50,0x47,0x3a,0x3a,0x53,0x45,0x08,0x3a,0x0a,0x40,0x6e,0x61,0x6d,0x65,0x49,0x22,0x09,0x4d,0x6f,0x76,0x65,0x06,0x3a,0x06,0x45,0x54,0x3a,0x0b,0x40,0x70,0x69,0x74,0x63,0x68,0x69,0x69,0x3a,0x0c,0x40,0x76,0x6f,0x6c,0x75,0x6d,0x65,0x69,0x55))
  TeleportPlayer(0,2,282,274,2,0)
  0()



EVENT   35
 PAGE   1
  250(bytes(0x04,0x08,0x6f,0x3a,0x0c,0x52,0x50,0x47,0x3a,0x3a,0x53,0x45,0x08,0x3a,0x0a,0x40,0x6e,0x61,0x6d,0x65,0x49,0x22,0x09,0x4d,0x6f,0x76,0x65,0x06,0x3a,0x06,0x45,0x54,0x3a,0x0b,0x40,0x70,0x69,0x74,0x63,0x68,0x69,0x69,0x3a,0x0c,0x40,0x76,0x6f,0x6c,0x75,0x6d,0x65,0x69,0x55))
  TeleportPlayer(0,2,282,274,2,0)
  0()



EVENT   36
 PAGE   1
  250(bytes(0x04,0x08,0x6f,0x3a,0x0c,0x52,0x50,0x47,0x3a,0x3a,0x53,0x45,0x08,0x3a,0x0a,0x40,0x6e,0x61,0x6d,0x65,0x49,0x22,0x09,0x4d,0x6f,0x76,0x65,0x06,0x3a,0x06,0x45,0x54,0x3a,0x0b,0x40,0x70,0x69,0x74,0x63,0x68,0x69,0x69,0x3a,0x0c,0x40,0x76,0x6f,0x6c,0x75,0x6d,0x65,0x69,0x55))
  TeleportPlayer(0,2,282,274,2,0)
  0()



EVENT   37
 PAGE   1
  If(1,1019,0,1,2)
   ShowMessageFace("",0,0,2,1)
   ShowMessage("\\n<Sailor>You may have heard about this 'round town, but the ship to Sentora Continent won't be settin' sail.")
   ShowMessageFace("",0,0,2,2)
   ShowMessage("\\n<Sailor>Whenever we sail offshore, a storm appears out of nowhere to sink us. Apparently, some monster is tryin' to take us down...")
   ShowMessageFace("",0,0,2,3)
   ShowMessage("\\n<Sailor>I'd say that this predicament must be disappointin' to you guys, too, but this mess is so bad that callin' it \"disappointin'\" would be an understatement.")
   EndEventProcessing()
   0()
  EndIf()
  If(1,1019,0,2,0)
   ChangeVariable(1019,1019,0,0,3)
   217()
   ShowMessageFace("",0,0,2,4)
   ShowMessage("\\n<Sailor>You may have heard about this 'round town, but the ship to Sentora Continent won't be settin' sail.")
   ShowMessageFace("",0,0,2,5)
   ShowMessage("\\n<Sailor>Whenever we sail offshore, a storm appears out of nowhere to sink us. Apparently, some monster is tryin' to take us down...")
   ShowMessageFace("",0,0,2,6)
   ShowMessage("\\n<Sailor>I'd say that this predicament must be disappointin' to you guys, too, but this mess is so bad that callin' it \"disappointin'\" would be an understatement.")
   If(4,72,0)
    ShowMessageFace("phoenix_fc1",3,0,2,7)
    ShowMessage("\\n<Mini>That must be one amazing monster to be able to do something like that! No matter how much I flap my wings, I couldn't sink a ship...")
    0()
   EndIf()
   If(0,4,0)
    ShowMessageFace("alice_fc5",0,0,2,8)
    ShowMessage("\\n<Alice>Considering the type and magnitude of a trick like that, it's probably the work of Alma Elma. Could Mother have possibly orchestrated this?")
    0()
   EndIf()
   If(0,5,0)
    ShowMessageFace("iriasu_fc4",2,0,2,9)
    ShowMessage("\\n<Ilias>Among those who reside on earth, the only one I imagine could be responsible for this... would be Alma Elma.")
    0()
   EndIf()
   ShowMessageFace("ruka_fc1",0,0,2,10)
   ShowMessage("\\n<Luka>Who is Alma Elma?")
   If(0,4,0)
    ShowMessageFace("alice_fc5",0,0,2,11)
    ShowMessage("\\n<Alice>One of the Four Heavenly Knights. She's the Queen Succubus who manipulates wind.")
    0()
   EndIf()
   If(0,5,0)
    ShowMessageFace("iriasu_fc4",2,0,2,12)
    ShowMessage("\\n<Ilias>She's the abominable Queen Succubus who manipulates wind.")
    0()
   EndIf()
   If(4,56,0)
    ShowMessageFace("inp_fc1",3,0,2,13)
    ShowMessage("\\n<Rami>Th-the Queen Succubus... The one who reigns over the clouds and even the starry sky...")
    0()
   EndIf()
   If(4,58,0)
    ShowMessageFace("inp_fc2",2,0,2,14)
    ShowMessage("\\n<Remi>...!! *shudder*")
    0()
   EndIf()
   ShowMessageFace("ruka_fc1",0,0,2,15)
   ShowMessage("\\n<Luka>In that case, we need to defeat her!")
   If(0,4,0)
    ShowMessageFace("alice_fc5",3,0,2,16)
    ShowMessage("\\n<Alice>...That would be impossible. With our power as it is now, we wouldn't be able to put a scratch on her.")
    0()
   EndIf()
   If(0,5,0)
    ShowMessageFace("iriasu_fc4",2,0,2,17)
    ShowMessage("\\n<Ilias>...Put that thought out of your mind. I know it's frustrating, but we are no match for her with our current strength.")
    0()
   EndIf()
   If(4,66,0)
    ShowMessageFace("vgirl_fc1",2,0,2,18)
    ShowMessage("\\n<Vanilla>I've heard rumors of her, too. There's no way we can win against the Queen Succubus...")
    0()
   EndIf()
   ShowMessageFace("ruka_fc1",0,0,2,19)
   ShowMessage("\\n<Luka>Then what do we do?")
   ChangeSwitch(2014,2014,0)
   205(49,bytes(0x04,0x08,0x6f,0x3a,0x13,0x52,0x50,0x47,0x3a,0x3a,0x4d,0x6f,0x76,0x65,0x52,0x6f,0x75,0x74,0x65,0x09,0x3a,0x0c,0x40,0x72,0x65,0x70,0x65,0x61,0x74,0x46,0x3a,0x0f,0x40,0x73,0x6b,0x69,0x70,0x70,0x61,0x62,0x6c,0x65,0x46,0x3a,0x0a,0x40,0x77,0x61,0x69,0x74,0x54,0x3a,0x0a,0x40,0x6c,0x69,0x73,0x74,0x5b,0x14,0x6f,0x3a,0x15,0x52,0x50,0x47,0x3a,0x3a,0x4d,0x6f,0x76,0x65,0x43,0x6f,0x6d,0x6d,0x61,0x6e,0x64,0x07,0x3a,0x0a,0x40,0x63,0x6f,0x64,0x65,0x69,0x2a,0x3a,0x10,0x40,0x70,0x61,0x72,0x61,0x6d,0x65,0x74,0x65,0x72,0x73,0x5b,0x00,0x6f,0x3b,0x0a,0x07,0x3b,0x0b,0x69,0x22,0x3b,0x0c,0x5b,0x06,0x69,0x0a,0x6f,0x3b,0x0a,0x07,0x3b,0x0b,0x69,0x23,0x3b,0x0c,0x5b,0x06,0x69,0x09,0x6f,0x3b,0x0a,0x07,0x3b,0x0b,0x69,0x07,0x3b,0x0c,0x5b,0x00,0x6f,0x3b,0x0a,0x07,0x3b,0x0b,0x69,0x07,0x3b,0x0c,0x5b,0x00,0x6f,0x3b,0x0a,0x07,0x3b,0x0b,0x69,0x07,0x3b,0x0c,0x5b,0x00,0x6f,0x3b,0x0a,0x07,0x3b,0x0b,0x69,0x07,0x3b,0x0c,0x5b,0x00,0x6f,0x3b,0x0a,0x07,0x3b,0x0b,0x69,0x07,0x3b,0x0c,0x5b,0x00,0x6f,0x3b,0x0a,0x07,0x3b,0x0b,0x69,0x07,0x3b,0x0c,0x5b,0x00,0x6f,0x3b,0x0a,0x07,0x3b,0x0b,0x69,0x07,0x3b,0x0c,0x5b,0x00,0x6f,0x3b,0x0a,0x07,0x3b,0x0b,0x69,0x07,0x3b,0x0c,0x5b,0x00,0x6f,0x3b,0x0a,0x07,0x3b,0x0b,0x69,0x1e,0x3b,0x0c,0x5b,0x00,0x6f,0x3b,0x0a,0x07,0x3b,0x0b,0x69,0x22,0x3b,0x0c,0x5b,0x06,0x69,0x08,0x6f,0x3b,0x0a,0x07,0x3b,0x0b,0x69,0x23,0x3b,0x0c,0x5b,0x06,0x69,0x08,0x6f,0x3b,0x0a,0x07,0x3b,0x0b,0x69,0x00,0x3b,0x0c,0x5b,0x00))
   PictureDisplay(5,"80_nero_st01b",0,0,0,0,100,100,0,0)
   PictureMove(5,null,0,0,0,0,100,100,255,0,60,true)
   ShowMessageFace("nero_fc1",0,0,2,20)
   ShowMessage("\\n<Nero>...There is a way.")
   If(0,4,0)
    ShowMessageFace("alice_fc5",0,0,2,21)
    ShowMessage("\\n<Alice>Gah! You!")
    0()
   EndIf()
   If(0,5,0)
    ShowMessageFace("iriasu_fc4",2,0,2,22)
    ShowMessage("\\n<Ilias>You!")
    0()
   EndIf()
   If(4,79,0)
    ShowMessageFace("nuruko_fc1",0,0,2,23)
    ShowMessage("\\n<Nuruko>Kyu?")
    0()
   EndIf()
   ShowMessageFace("nero_fc1",2,0,2,24)
   ShowMessage("\\n<Nero>Oh, fancy meeting you here...")
   If(0,4,0)
    ShowMessageFace("alice_fc5",5,0,2,25)
    ShowMessage("\\n<Alice>It's a little too late to be pretending that you're just passing by. So, what way is there?")
    0()
   EndIf()
   If(0,5,0)
    ShowMessageFace("iriasu_fc4",2,0,2,26)
    ShowMessage("\\n<Ilias>Quit pretending that you're simply passing by. So, what is this way you speak of?")
    0()
   EndIf()
   ShowMessageFace("nero_fc1",0,0,2,27)
   ShowMessage("\\n<Nero>There is a cave to the west of town. The great pirate Selene hid numerous treasures there.")
   If(4,62,0)
    ShowMessageFace("gob_fc1",0,0,2,28)
    ShowMessage("\\n<Gob>Whoa, amazing! That idea gets my ex-bandit blood stirring!")
    0()
   EndIf()
   ShowMessageFace("nero_fc1",0,0,2,29)
   ShowMessage("\\n<Nero>Among the treasure, there's \"\\ni[513]\". It's a magic artifact that protects a ship from sinking, no matter how stormy the sea is.")
   ShowMessageFace("ruka_fc1",0,0,2,30)
   ShowMessage("\\n<Luka>Then, if we have that...")
   ShowMessageFace("nero_fc1",0,0,2,31)
   ShowMessage("\\n<Nero>Yes. You'll be able to sail the ship to Sentora. With that said. I must hurry off.")
   If(0,6,0)
    If(1,1011,0,4,1)
     ShowMessageFace("sonia_fc1",0,0,2,32)
     ShowMessage("\\n<Sonya>Ah, wait a moment...")
     ShowMessageFace("nero_fc1",0,0,2,33)
     ShowMessage("\\n<Nero>What is it?")
     ShowMessageFace("sonia_fc1",0,0,2,34)
     ShowMessage("\\n<Sonya>We are grateful for the fruit of the World Tree you gave us in Happiness Village. That must have been very valuable, right...?")
     ShowMessageFace("nero_fc1",0,0,2,35)
     ShowMessage("\\n<Nero>No, it wasn't that important to me. It was nothing compared to defending the mutual trust between harpies and humans...")
     ShowMessageFace("nero_fc1",0,0,2,36)
     ShowMessage("\\n<Nero>...Well then, please excuse me.")
     0()
    EndIf()
    0()
   EndIf()
   PictureMove(5,null,0,0,0,0,100,100,0,0,30,true)
   PictureClear(5)
   205(49,bytes(0x04,0x08,0x6f,0x3a,0x13,0x52,0x50,0x47,0x3a,0x3a,0x4d,0x6f,0x76,0x65,0x52,0x6f,0x75,0x74,0x65,0x09,0x3a,0x0c,0x40,0x72,0x65,0x70,0x65,0x61,0x74,0x46,0x3a,0x0f,0x40,0x73,0x6b,0x69,0x70,0x70,0x61,0x62,0x6c,0x65,0x46,0x3a,0x0a,0x40,0x77,0x61,0x69,0x74,0x54,0x3a,0x0a,0x40,0x6c,0x69,0x73,0x74,0x5b,0x12,0x6f,0x3a,0x15,0x52,0x50,0x47,0x3a,0x3a,0x4d,0x6f,0x76,0x65,0x43,0x6f,0x6d,0x6d,0x61,0x6e,0x64,0x07,0x3a,0x0a,0x40,0x63,0x6f,0x64,0x65,0x69,0x22,0x3a,0x10,0x40,0x70,0x61,0x72,0x61,0x6d,0x65,0x74,0x65,0x72,0x73,0x5b,0x06,0x69,0x0a,0x6f,0x3b,0x0a,0x07,0x3b,0x0b,0x69,0x23,0x3b,0x0c,0x5b,0x06,0x69,0x09,0x6f,0x3b,0x0a,0x07,0x3b,0x0b,0x69,0x08,0x3b,0x0c,0x5b,0x00,0x6f,0x3b,0x0a,0x07,0x3b,0x0b,0x69,0x08,0x3b,0x0c,0x5b,0x00,0x6f,0x3b,0x0a,0x07,0x3b,0x0b,0x69,0x08,0x3b,0x0c,0x5b,0x00,0x6f,0x3b,0x0a,0x07,0x3b,0x0b,0x69,0x08,0x3b,0x0c,0x5b,0x00,0x6f,0x3b,0x0a,0x07,0x3b,0x0b,0x69,0x08,0x3b,0x0c,0x5b,0x00,0x6f,0x3b,0x0a,0x07,0x3b,0x0b,0x69,0x08,0x3b,0x0c,0x5b,0x00,0x6f,0x3b,0x0a,0x07,0x3b,0x0b,0x69,0x08,0x3b,0x0c,0x5b,0x00,0x6f,0x3b,0x0a,0x07,0x3b,0x0b,0x69,0x08,0x3b,0x0c,0x5b,0x00,0x6f,0x3b,0x0a,0x07,0x3b,0x0b,0x69,0x08,0x3b,0x0c,0x5b,0x00,0x6f,0x3b,0x0a,0x07,0x3b,0x0b,0x69,0x08,0x3b,0x0c,0x5b,0x00,0x6f,0x3b,0x0a,0x07,0x3b,0x0b,0x69,0x00,0x3b,0x0c,0x5b,0x00))
   ChangeSwitch(2014,2014,1)
   If(0,4,0)
    ShowMessageFace("alice_fc5",0,0,2,37)
    ShowMessage("\\n<Alice>\\ni[513], huh? That's certainly some useful information, but... Exactly what is that person aiming to accomplish?")
    0()
   EndIf()
   If(0,5,0)
    ShowMessageFace("iriasu_fc4",2,0,2,38)
    ShowMessage("\\n<Ilias>\\ni[513]... So that exists, huh? But what are the intentions of that man?")
    0()
   EndIf()
   ShowMessageFace("ruka_fc1",0,0,2,39)
   ShowMessage("\\n<Luka>I don't know what his motives are, but he definitely is helping us. He said that \\ni[513] is in the cave west of here, correct?")
   If(0,4,0)
    ShowMessageFace("alice_fc5",0,0,2,40)
    ShowMessage("\\n<Alice>I think there was a signpost between Iliasburg and this place. It should have directions to the Cave of Treasures written on it.")
    ShowMessageFace("alice_fc5",3,0,2,41)
    ShowMessage("\\n<Alice>While it's gutsy to do as that man says without knowing his intentions, it can't be helped. We don't have any other option.")
    0()
   EndIf()
   If(0,5,0)
    ShowMessageFace("iriasu_fc4",0,0,2,42)
    ShowMessage("\\n<Ilias>There was a signpost between Iliasburg and this town. Directions to the Cave of Treasures were inscribed on it.")
    ShowMessageFace("iriasu_fc4",2,0,2,43)
    ShowMessage("\\n<Ilias>While it's audacious to follow the instruction of that suspicious person without knowing his intentions, going to that cave is our only option. We have no alternatives currently.")
    0()
   EndIf()
   ShowMessageFace("ruka_fc1",0,0,2,44)
   ShowMessage("\\n<Luka>Well then, let's head to the Cave of Treasures! It seems to be a difficult place, so we should make any necessary preparations.")
   If(4,62,0)
    ShowMessageFace("gob_fc1",0,0,2,45)
    ShowMessage("\\n<Gob>Yaaay! Pirate treasure huuunt!")
    0()
   EndIf()
   If(4,41,0)
    ShowMessageFace("stein_fc2",1,0,2,46)
    ShowMessage("\\n<Promestein>So, the next location is a cavern. I need to prepare for collecting samples there...")
    0()
   EndIf()
   EndEventProcessing()
   0()
  EndIf()
  If(1,1019,0,3,0)
   ShowMessageFace("",0,0,2,47)
   ShowMessage("\\n<Sailor>You may have heard about this 'round town, but the ship to Sentora Continent won't be settin' sail.")
   ShowMessageFace("ruka_fc1",0,0,2,48)
   ShowMessage("\\n<Luka>So we need \\ni[513] after all. If I'm not mistaken, he said that it's in the cave to the west...")
   If(0,4,0)
    ShowMessageFace("alice_fc5",0,0,2,49)
    ShowMessage("\\n<Alice>I think there was a signpost between Iliasburg and this place. It should have directions to the Cave of Treasures written on it.")
    ShowMessageFace("alice_fc5",3,0,2,50)
    ShowMessage("\\n<Alice>While it's gutsy to do as that man says without knowing his intentions, it can't be helped. We don't have any other option.")
    0()
   EndIf()
   If(0,5,0)
    ShowMessageFace("iriasu_fc4",0,0,2,51)
    ShowMessage("\\n< Ilias>There was a signpost between Iliasburg and this town. Directions to the Cave of Treasures were inscribed on it.")
    ShowMessageFace("iriasu_fc4",2,0,2,52)
    ShowMessage("\\n<Ilias>While it's audacious to follow the instruction of that suspicious person without knowing his intentions, going to that cave is our only option. We have no alternatives.")
    0()
   EndIf()
   EndEventProcessing()
   0()
  EndIf()
  If(1,1019,0,4,0)
   If(8,513)
    ChangeVariable(1019,1019,0,0,5)
    ShowMessageFace("",0,0,2,53)
    ShowMessage("\\n<Sailor>You may have heard about this 'round town, but the ship to Sentora Continent won't be settin' sail.")
    ShowMessageFace("ruka_fc1",0,0,2,54)
    ShowMessage("\\n<Luka>Um, we have an artifact known as \\ni[513]...")
    If(4,62,0)
     ShowMessageFace("gob_fc1",0,0,2,55)
     ShowMessage("\\n<Gob>It's pirate treasure we found in the western cave!")
     0()
    EndIf()
    ShowMessageFace("",0,0,2,56)
    ShowMessage("\\n<Sailor>\\ni[513]? Err, ain't that item a myth? Lemme see if that's what ya really have.")
    ShowMessageFace("",0,0,2,57)
    ShowMessage("Luka showed \\ni[513] to the sailor...")
    ShowMessageFace("",0,0,2,58)
    ShowMessage("\\n<Sailor>...There's no mistakin' it. This is the real thing... Okay, the ship can leave with this aboard!")
    ShowMessageFace("",0,0,2,59)
    ShowMessage("\\n<Sailor>There's no need fer payment, since we've got plenty of cargo. It's good enough that we can set sail!")
    If(4,72,0)
     ShowMessageFace("phoenix_fc1",1,0,2,60)
     ShowMessage("\\n<Mini>Ohh, that's so generous of you!")
     0()
    EndIf()
    ShowMessageFace("",0,0,2,61)
    ShowMessage("You can now sail to and from Sentora! Do you wish to depart now?")
    ShowChoices(strings("Prepare for a little longer","Depart!"),1)
    IfPlayerPicksChoice(0,null)
     ShowMessageFace("",0,0,2,62)
     ShowMessage("\\n<Sailor>Got it. I'll wait. Hurry and finish preparin'.")
     EndEventProcessing()
     0()
    IfPlayerPicksChoice(1,null)
     DefineLabel("Depart")
     ShowMessageFace("",0,0,2,63)
     ShowMessage("\\n<Sailor>Great! Then climb aboard. We're settin' sail straight away!")
     If(0,4,0)
      ShowMessageFace("alice_fc5",1,0,2,64)
      ShowMessage("\\n<Alice>Finally, it's time to leave Ilias Continent! Now, let's journey to a new continent!")
      0()
     EndIf()
     If(0,5,0)
      ShowMessageFace("iriasu_fc4",0,0,2,65)
      ShowMessage("\\n<Ilias>Well then, it is time to bid farewell to Ilias Continent! A new continent awaits us!")
      0()
     EndIf()
     If(4,68,0)
      ShowMessageFace("dragonp_fc1",0,0,2,66)
      ShowMessage("\\n<Papi>Rawr! Let's rampaaage!")
      0()
     EndIf()
     If(4,62,0)
      ShowMessageFace("gob_fc1",6,0,2,67)
      ShowMessage("\\n<Gob>A...a ship... I'm scared...")
      If(4,58,0)
       ShowMessageFace("inp_fc2",2,0,2,68)
       ShowMessage("\\n<Remi>I'm... scared, too...")
       0()
      EndIf()
      0()
     EndIf()
     ShowMessageFace("",0,0,2,69)
     ShowMessage("Luka and the others boarded the ship heading to Sentora!")
     221()
     211(0)
     Wait(120)
     TeleportPlayer(0,587,1,1,0,2)
     EndEventProcessing()
     0()
    404()
    0()
   Else()
    ShowMessageFace("",0,0,2,70)
    ShowMessage("\\n<Sailor>You may have heard about this 'round town, but the ship to Sentora Continent won't be settin' sail.")
    ShowMessageFace("ruka_fc1",0,0,2,71)
    ShowMessage("\\n<Luka>So we need \\ni[513] after all. If I'm not mistaken, he said that it's in the cave to the west.")
    If(0,4,0)
     ShowMessageFace("alice_fc5",0,0,2,72)
     ShowMessage("\\n<Alice>I think there was a signpost between Iliasburg and this place. It should have directions to the Cave of Treasures written on it.")
     ShowMessageFace("alice_fc5",3,0,2,73)
     ShowMessage("\\n<Alice>While it's gutsy to do as that man says without knowing his intentions, it can't be helped. We don't have any other option.")
     0()
    EndIf()
    If(0,5,0)
     ShowMessageFace("iriasu_fc4",0,0,2,74)
     ShowMessage("\\n<Ilias>There was a signpost between Iliasburg and this town. Directions to the Cave of Treasures were inscribed on it.")
     ShowMessageFace("iriasu_fc4",2,0,2,75)
     ShowMessage("\\n<Ilias>While it's audacious to follow the instruction of that suspicious person without knowing his intentions, going to that cave is our only option. We have no alternatives.")
     0()
    EndIf()
    EndEventProcessing()
    0()
   EndIf()
   0()
  EndIf()
  If(1,1019,0,5,0)
   ShowMessageFace("",0,0,2,76)
   ShowMessage("\\n<Sailor>Well, are ya finished preparin'?")
   ShowMessageFace("",0,0,2,77)
   ShowMessage("You can now sail to and from Sentora! Do you wish to depart now?")
   ShowChoices(strings("Prepare for a little longer","Depart!"),1)
   IfPlayerPicksChoice(0,null)
    ShowMessageFace("",0,0,2,78)
    ShowMessage("\\n<Sailor>Got it. I'll wait. Hurry and finish preparin'.")
    EndEventProcessing()
    0()
   IfPlayerPicksChoice(1,null)
    JumpToLabel("Depart")
    0()
   404()
   0()
  EndIf()
  If(1,1019,0,6,0)
   ShowMessageFace("",0,0,2,79)
   ShowMessage("\\n<Sailor>Want to take the ship sailin' to Port Natalia?")
   ShowChoices(strings("Get on","Don't"),2)
   IfPlayerPicksChoice(0,null)
    ShowMessageFace("",0,0,2,80)
    ShowMessage("\\n<Sailor>Well then, climb aboard!")
    221()
    250(bytes(0x04,0x08,0x6f,0x3a,0x0c,0x52,0x50,0x47,0x3a,0x3a,0x53,0x45,0x08,0x3a,0x0a,0x40,0x6e,0x61,0x6d,0x65,0x49,0x22,0x0b,0x57,0x61,0x74,0x65,0x72,0x31,0x06,0x3a,0x06,0x45,0x54,0x3a,0x0b,0x40,0x70,0x69,0x74,0x63,0x68,0x69,0x69,0x3a,0x0c,0x40,0x76,0x6f,0x6c,0x75,0x6d,0x65,0x69,0x55))
    Wait(60)
    TeleportPlayer(0,141,10,49,2,2)
    314(0,0)
    222()
    EndEventProcessing()
    0()
   IfPlayerPicksChoice(1,null)
    EndEventProcessing()
    0()
   404()
   0()
  EndIf()
  0()



EVENT   38
 PAGE   1
  0()



EVENT   39
 PAGE   1
  If(1,1001,0,12,2)
   ShowMessageFace("",0,0,2,1)
   ShowMessage("\\n<Traveling Warrior>To think the ship sailing to Sentora won't depart... This is quite inconvenient.")
   EndEventProcessing()
   0()
  EndIf()
  If(1,1001,0,29,2)
   ShowMessageFace("",0,0,2,2)
   ShowMessage("\\n<Traveling Warrior>It seems like the ship can sail to Sentora once again. I guess you travelers managed to root out the monster responsible for that mess.")
   EndEventProcessing()
   0()
  EndIf()
  If(1,1001,0,30,1)
   ShowMessageFace("",0,0,2,3)
   ShowMessage("\\n<Traveling Warrior>I hear the war with the Monster Lord is escalating over in Sentora. Sounds like I'd be better off staying here for a while.")
   EndEventProcessing()
   0()
  EndIf()
  0()



EVENT   40
 PAGE   1
  If(1,1001,0,12,2)
   ShowMessageFace("",0,0,2,1)
   ShowMessage("\\n<Merchant>The shop is closed today since no stock has come in. If things stay this way, I may have to look for another job, you know?")
   EndEventProcessing()
   0()
  EndIf()
  If(1,1001,0,29,2)
   ShowMessageFace("",0,0,2,2)
   ShowMessage("\\n<Merchant>While it's good that the ships are sailing again, the cargo inspections have been too frequent and time-consuming for shipments to arrive.")
   ShowMessageFace("",0,0,2,3)
   ShowMessage("\\n<Merchant>So, once again, the shop is closed. At this rate, my business will go bankrupt. Maybe I should quit being a shopkeeper and try another line of work...")
   355("actor_label_jump")
   EndEventProcessing()
   DefineLabel("72")
   ShowMessageFace("phoenix_fc1",0,0,2,4)
   ShowMessage("\\n<Mini>Hang in there! I'll be rooting for you!")
   EndEventProcessing()
   0()
  EndIf()
  If(1,1001,0,30,1)
   ShowMessageFace("",0,0,2,5)
   ShowMessage("\\n<Merchant>Lately, I'm constantly lacking in wares. Everything's going towards the war effort, and there's not much left for merchants like myself...")
   EndEventProcessing()
   0()
  EndIf()
  0()



EVENT   41
 PAGE   1
  If(1,1001,0,12,2)
   ShowMessageFace("",0,0,2,1)
   ShowMessage("\\n<Rich-Looking Woman>The store over there used to sell luxury goods from all over. Pearls from Natalia, Eastern pottery and writings, Sabasa's lush carpets, and more......")
   If(0,4,0)
    ShowMessageFace("alice_fc5",3,0,2,2)
    ShowMessage("\\n<Alice>How boring. I can't eat any of those things.")
    0()
   EndIf()
   If(0,5,0)
    ShowMessageFace("iriasu_fc4",2,0,2,3)
    ShowMessage("\\n<Ilias>You should know that such extravagance is evil. Living an honest life in poverty is the truly virtuous lifestyle...")
    0()
   EndIf()
   ShowMessageFace("",0,0,2,4)
   ShowMessage("\\n<Rich-Looking Woman>You were also able to buy a variety of foreign delicacies. Natalia fish, Sabasa coconuts, Yamatai buns, and so forth...")
   ShowMessageFace("",0,0,2,5)
   ShowMessage("\\n<Rich-Looking Woman>That storm-brewing monster is to blame for these losses.")
   If(0,4,0)
    ShowMessageFace("alice_fc6",1,0,2,6)
    ShowMessage("\\n<Alice>That damn monster! This is unforgivable!")
    ShowMessageFace("ruka_fc1",0,0,2,7)
    ShowMessage("\\n<Luka>But you're a monster, too...")
    0()
   EndIf()
   If(0,5,0)
    ShowMessageFace("iriasu_fc4",2,0,2,8)
    ShowMessage("\\n<Ilias>Ah, what a shame... I wanted to sample delicacies from the mortal world's nations.")
    ShowMessageFace("ruka_fc1",0,0,2,9)
    ShowMessage("\\n<Luka>I thought that living an honest life in poverty was the truly virtuous lifestyle...")
    0()
   EndIf()
   EndEventProcessing()
   0()
  EndIf()
  If(1,1001,0,29,2)
   ShowMessageFace("",0,0,2,10)
   ShowMessage("\\n<Rich-Looking Woman>It seems that the supply chain is at a standstill because of war. Even though ships are coming and going, such a predicament is...")
   If(0,4,0)
    ShowMessageFace("alice_fc6",1,0,2,11)
    ShowMessage("\\n<Alice>I despise war with all of my heart! I'll show you that I will end all war in this world!")
    ShowMessageFace("ruka_fc1",0,0,2,12)
    ShowMessage("\\n<Luka>That's impressive commitment, but considering the motive behind it...")
    0()
   EndIf()
   If(0,5,0)
    ShowMessageFace("iriasu_fc5",0,0,2,13)
    ShowMessage("\\n<Ilias>Why do humans have to be so foolish by fighting each other?! I will make a decree to cease this senseless war!")
    ShowMessageFace("ruka_fc1",0,0,2,14)
    ShowMessage("\\n<Luka>That's impressive commitment, but considering the motive behind it...")
    0()
   EndIf()
   EndEventProcessing()
   0()
  EndIf()
  If(1,1001,0,30,1)
   ShowMessageFace("",0,0,2,15)
   ShowMessage("\\n<Rich-Looking Woman>I hear a hero named Luka is solving conflicts all over Sentora. It would be wonderful if he would defeat the Monster Lord while he's at it.")
   EndEventProcessing()
   0()
  EndIf()
  0()



EVENT   42
 PAGE   1
  ShowMessageFace("",0,0,2,1)
  ShowMessage("\\n<Hooligan>There's a cave to the west where Captain Selene's treasure rests. Rumor has it that there's enough gold and silver to last a lifetime.")
  ShowMessageFace("",0,0,2,2)
  ShowMessage("\\n<Hooligan>But that place is now a den of monsters. Many folks go looking for the treasure there, but none ever return.")
  ShowMessageFace("",0,0,2,3)
  ShowMessage("\\n<Hooligan>So, yeah. I'll pass.")
  355("actor_label_jump")
  EndEventProcessing()
  DefineLabel("62")
  ShowMessageFace("gob_fc1",0,0,2,4)
  ShowMessage("\\n<Gob>If there's treasure, I want to go there!")
  EndEventProcessing()
  DefineLabel("68")
  ShowMessageFace("dragonp_fc1",0,0,2,5)
  ShowMessage("\\n<Papi>Wow, let's go right now!")
  EndEventProcessing()
  DefineLabel("90")
  ShowMessageFace("meda_fc1",0,0,2,6)
  ShowMessage("\\n<Meru Meru>Caaaave... *Rustle Rustle* *Squirm Squirm*")
  EndEventProcessing()
  0()
 PAGE   2
  // condition: player has item #513
  If(1,1001,0,30,2)
   ShowMessageFace("",0,0,2,1)
   ShowMessage("\\n<Hooligan>There's a cave to the west where Captain Selene's treasure rests. Rumor has it that there's enough gold and silver to last a lifetime...")
   ShowMessageFace("",0,0,2,2)
   ShowMessage("\\n<Hooligan>But that place is now a den of monsters. Many folks go looking for the treasure there, but none ever return.")
   ShowMessageFace("",0,0,2,3)
   ShowMessage("\\n<Hooligan>Eh?!! You guys came back from there?! You're really somethin'...")
   355("actor_label_jump")
   EndEventProcessing()
   DefineLabel("53")
   ShowMessageFace("slime_fc1",0,0,2,4)
   ShowMessage("\\n<Lime>Amazing, right? ♪")
   EndEventProcessing()
   DefineLabel("75")
   ShowMessageFace("hituzi_fc1",3,0,2,5)
   ShowMessage("\\n<Mary>Praise me mooore!")
   EndEventProcessing()
   0()
  EndIf()
  If(1,1001,0,31,1)
   ShowMessageFace("",0,0,2,6)
   ShowMessage("\\n<Thug>The other day, we found a bunch of beached whales nearby. That's happening a lot, lately.")
   EndEventProcessing()
   0()
  EndIf()
  0()



EVENT   43
 PAGE   1
  ShowMessageFace("",0,0,2,1)
  ShowMessage("\\n<Youth>Welcome to Iliasport, the greatest port city in Ilias Continent! Need any help getting somewhere?")
  355("unlimited_choices(11, [\"Inn\",")
  655("\"Weapon - Armor Shop - Blacksmith\",")
  655("\"Accessory - Item Shop\",")
  655("\"Church\",\"Nowhere\"])")
  If(1,11,0,0,0)
   TeleportPlayer(0,139,22,31,2,0)
   EndEventProcessing()
   0()
  EndIf()
  If(1,11,0,1,0)
   TeleportPlayer(0,139,33,25,2,0)
   EndEventProcessing()
   0()
  EndIf()
  If(1,11,0,2,0)
   TeleportPlayer(0,139,34,14,2,0)
   EndEventProcessing()
   0()
  EndIf()
  If(1,11,0,3,0)
   TeleportPlayer(0,139,28,13,2,0)
   EndEventProcessing()
   0()
  EndIf()
  If(1,11,0,4,0)
   EndEventProcessing()
   0()
  EndIf()
  0()



EVENT   44
 PAGE   1
  ShowMessageFace("",0,0,2,1)
  ShowMessage("\\n<Priest>Welcome to the Rainy Blessings Church. What can I do for you?")
  ShowChoices(strings("Pray","Never mind"),2)
  IfPlayerPicksChoice(0,null)
   ChangeVariable(1002,1002,0,0,11)
   ShowMessageFace("",0,0,2,2)
   ShowMessage("\\n<Priest>Well then, let us pray to Ilias. ...there. You should feel a bond drawing you to this place.")
   ShowMessageFace("",0,0,2,3)
   ShowMessage("\\n<Priest>If something were to happen to you on your journey, the bond should lead you back here. May Ilias watch over you...")
   0()
  IfPlayerPicksChoice(1,null)
   ShowMessageFace("",0,0,2,4)
   ShowMessage("\\n<Priest>May Ilias watch over you...")
   0()
  404()
  0()



EVENT   45
 PAGE   1
  If(1,1001,0,12,2)
   ShowMessageFace("",0,0,2,1)
   ShowMessage("\\n<Old Man>The ship for Sentora Continent won't depart. Meanwhile, the town population keeps declining. I wonder how long that strange storm will rage on...")
   EndEventProcessing()
   0()
  EndIf()
  If(1,1001,0,30,2)
   ShowMessageFace("",0,0,2,2)
   ShowMessage("\\n<Old Man>It's not like everyone who left is going to come back just because the ships are sailing again. With war on the horizon, people naturally would be staying away. This could be a foreshadowing of dark days ahead...")
   355("actor_label_jump")
   EndEventProcessing()
   DefineLabel("80")
   ShowMessageFace("orc_fc1",0,0,2,3)
   ShowMessage("\\n<Hip>This place is so deserted that it's hardly worth raiding...")
   EndEventProcessing()
   DefineLabel("91")
   ShowMessageFace("candle_fc1",2,0,2,4)
   ShowMessage("\\n<Chandra>I wish that I could shine brightly through that darkness... Y'know?")
   EndEventProcessing()
   0()
  EndIf()
  If(1,1001,0,31,1)
   ShowMessageFace("",0,0,2,5)
   ShowMessage("\\n<Old Man>The world's gone to pieces, and this portside town is just as desolate as ever... What an age to live in.")
   EndEventProcessing()
   0()
  EndIf()
  0()



EVENT   46
 PAGE   1
  250(bytes(0x04,0x08,0x6f,0x3a,0x0c,0x52,0x50,0x47,0x3a,0x3a,0x53,0x45,0x08,0x3a,0x0a,0x40,0x6e,0x61,0x6d,0x65,0x49,0x22,0x09,0x4d,0x6f,0x76,0x65,0x06,0x3a,0x06,0x45,0x54,0x3a,0x0b,0x40,0x70,0x69,0x74,0x63,0x68,0x69,0x69,0x3a,0x0c,0x40,0x76,0x6f,0x6c,0x75,0x6d,0x65,0x69,0x55))
  TeleportPlayer(0,2,282,274,2,0)
  0()



EVENT   47
 PAGE   1
  ShowMessageFace("",0,0,2,1)
  ShowMessage("\\n<Sailor>Damn! What's with that strange storm?! Even during clear weather, it turns rough the moment we set out to sea!")
  ShowMessageFace("",0,0,2,2)
  ShowMessage("\\n<Sailor>Monsters are to blame, I tell ya! This is probably some vile plan of the Monster Lord herself!")
  If(0,4,0)
   ShowMessageFace("alice_fc5",3,0,2,3)
   ShowMessage("\\n<Alice>I have nothing to do with this. Your accusations are nothing more than foolish slander.")
   EndEventProcessing()
   0()
  EndIf()
  If(0,5,0)
   ShowMessageFace("iriasu_fc4",2,0,2,4)
   ShowMessage("\\n<Ilias>The 16th Monster Lord probably isn't involved directly... But perhaps this is her army's doing...")
   EndEventProcessing()
   0()
  EndIf()
  0()
 PAGE   2
  // condition: variable 1001 >= 13
  If(1,1001,0,29,2)
   ShowMessageFace("",0,0,2,1)
   ShowMessage("\\n<Sailor>Yahoo! The sea is back to normal! It's all thanks to you guys, so you have my gratitude!")
   If(0,4,0)
    ShowMessageFace("alice_fc5",0,0,2,2)
    ShowMessage("\\n<Alice>It's not like we defeated her ourselves... Well, at least that succubus claiming to be Morrigan seems to have disappeared.")
    EndEventProcessing()
    0()
   EndIf()
   If(0,5,0)
    ShowMessageFace("iriasu_fc4",2,0,2,3)
    ShowMessage("\\n<Ilias>It is not like we defeated her with our own strength... At any rate, it appears that Morrigan has withdrawn from this area.")
    EndEventProcessing()
    0()
   EndIf()
   0()
  EndIf()
  If(1,1001,0,30,1)
   ShowMessageFace("",0,0,2,4)
   ShowMessage("\\n<Sailor>There's a bunch of monsters hanging around this town... is that really safe? I won't be assaulted, will I?")
   EndEventProcessing()
   0()
  EndIf()
  0()



EVENT   48
 PAGE   1
  ShowMessageFace("",0,0,2,1)
  ShowMessage("\\n<Child>Dad's store shut down because that monster won't let any ships go through. I wonder if that monster enjoys making us suffer that much...")
  355("actor_label_jump")
  EndEventProcessing()
  DefineLabel("85")
  ShowMessageFace("highslag_fc1",0,0,2,2)
  ShowMessage("\\n<Elisabeth>Tormenting someone physically is enjoyable, but watching humans suffering from poverty is not fun at all.")
  EndEventProcessing()
  DefineLabel("101")
  ShowMessageFace("cent2_fc1",0,0,2,3)
  ShowMessage("\\n<Lichtina>That doesn't sound very fun... At least for me, running freely is much more enjoyable.")
  EndEventProcessing()
  0()
 PAGE   2
  // condition: variable 1001 >= 13
  If(1,1001,0,30,2)
   ShowMessageFace("",0,0,2,1)
   ShowMessage("\\n<Child>Ships can pass through now, but Dad's store is still shut down. This is so frustrating...")
   355("actor_label_jump")
   EndEventProcessing()
   DefineLabel("74")
   ShowMessageFace("usagi_fc1",0,0,2,2)
   ShowMessage("\\n<Barbun>Life has its ups and downs, so things may improve soon enough. When things get rough, big sis will comfort you.")
   EndEventProcessing()
   DefineLabel("66")
   ShowMessageFace("vgirl_fc1",2,0,2,3)
   ShowMessage("\\n<Vanilla>Sometimes when life gets you down, all you can do try to stay strong. But there are other times when you can just spring right back from the trouble.")
   EndEventProcessing()
   DefineLabel("94")
   ShowMessageFace("luksl_fc1",0,0,2,4)
   ShowMessage("\\n<Luxuru>Oh, I see. What a shame... Not only did my business fall apart, but so did my body, as you can see.")
   EndEventProcessing()
   DefineLabel("118")
   ShowMessageFace("meia_fc1",0,0,2,5)
   ShowMessage("\\n<Meia>You poor thing... If you need comfort, feel free to jump into my bosom.")
   EndEventProcessing()
   0()
  EndIf()
  If(1,1001,0,31,1)
   ShowMessageFace("",0,0,2,6)
   ShowMessage("\\n<Child>I hate monsters, I hope they all die...")
   EndEventProcessing()
   0()
  EndIf()
  0()



EVENT   49
 PAGE   1
  // condition: switch 2014 is ON
  0()



EVENT   50
 PAGE   1
  250(bytes(0x04,0x08,0x6f,0x3a,0x0c,0x52,0x50,0x47,0x3a,0x3a,0x53,0x45,0x08,0x3a,0x0a,0x40,0x6e,0x61,0x6d,0x65,0x49,0x22,0x0a,0x49,0x74,0x65,0x6d,0x31,0x06,0x3a,0x06,0x45,0x54,0x3a,0x0b,0x40,0x70,0x69,0x74,0x63,0x68,0x69,0x69,0x3a,0x0c,0x40,0x76,0x6f,0x6c,0x75,0x6d,0x65,0x69,0x55))
  ChangeSelfSwitch("A",0)
  ChangeInventory_Item(173,0,0,1)
  0()
 PAGE   2
  // condition: self-switch A is ON
  0()



EVENT   51
 PAGE   1
  250(bytes(0x04,0x08,0x6f,0x3a,0x0c,0x52,0x50,0x47,0x3a,0x3a,0x53,0x45,0x08,0x3a,0x0a,0x40,0x6e,0x61,0x6d,0x65,0x49,0x22,0x0a,0x49,0x74,0x65,0x6d,0x31,0x06,0x3a,0x06,0x45,0x54,0x3a,0x0b,0x40,0x70,0x69,0x74,0x63,0x68,0x69,0x69,0x3a,0x0c,0x40,0x76,0x6f,0x6c,0x75,0x6d,0x65,0x69,0x55))
  ChangeSelfSwitch("A",0)
  ChangeInventory_Item(175,0,0,1)
  0()
 PAGE   2
  // condition: self-switch A is ON
  0()



EVENT   52
 PAGE   1
  250(bytes(0x04,0x08,0x6f,0x3a,0x0c,0x52,0x50,0x47,0x3a,0x3a,0x53,0x45,0x08,0x3a,0x0a,0x40,0x6e,0x61,0x6d,0x65,0x49,0x22,0x0a,0x49,0x74,0x65,0x6d,0x31,0x06,0x3a,0x06,0x45,0x54,0x3a,0x0b,0x40,0x70,0x69,0x74,0x63,0x68,0x69,0x69,0x3a,0x0c,0x40,0x76,0x6f,0x6c,0x75,0x6d,0x65,0x69,0x55))
  ChangeSelfSwitch("A",0)
  ChangeInventory_Item(11,0,0,1)
  0()
 PAGE   2
  // condition: self-switch A is ON
  0()



EVENT   53
 PAGE   1
  250(bytes(0x04,0x08,0x6f,0x3a,0x0c,0x52,0x50,0x47,0x3a,0x3a,0x53,0x45,0x08,0x3a,0x0a,0x40,0x6e,0x61,0x6d,0x65,0x49,0x22,0x0a,0x49,0x74,0x65,0x6d,0x31,0x06,0x3a,0x06,0x45,0x54,0x3a,0x0b,0x40,0x70,0x69,0x74,0x63,0x68,0x69,0x69,0x3a,0x0c,0x40,0x76,0x6f,0x6c,0x75,0x6d,0x65,0x69,0x55))
  ChangeSelfSwitch("A",0)
  ChangeInventory_Item(21,0,0,1)
  0()
 PAGE   2
  // condition: self-switch A is ON
  0()



EVENT   54
 PAGE   1
  // condition: switch 4 is ON
  // condition: variable 1019 >= 1
  ShowMessageFace("iriasu_fc4",2,0,2,1)
  ShowMessage("\\n<Ilias>To think the ship won't sail... What on earth should we do...?")
  205(0,bytes(0x04,0x08,0x6f,0x3a,0x13,0x52,0x50,0x47,0x3a,0x3a,0x4d,0x6f,0x76,0x65,0x52,0x6f,0x75,0x74,0x65,0x09,0x3a,0x0c,0x40,0x72,0x65,0x70,0x65,0x61,0x74,0x46,0x3a,0x0f,0x40,0x73,0x6b,0x69,0x70,0x70,0x61,0x62,0x6c,0x65,0x46,0x3a,0x0a,0x40,0x77,0x61,0x69,0x74,0x54,0x3a,0x0a,0x40,0x6c,0x69,0x73,0x74,0x5b,0x08,0x6f,0x3a,0x15,0x52,0x50,0x47,0x3a,0x3a,0x4d,0x6f,0x76,0x65,0x43,0x6f,0x6d,0x6d,0x61,0x6e,0x64,0x07,0x3a,0x0a,0x40,0x63,0x6f,0x64,0x65,0x69,0x29,0x3a,0x10,0x40,0x70,0x61,0x72,0x61,0x6d,0x65,0x74,0x65,0x72,0x73,0x5b,0x00,0x6f,0x3b,0x0a,0x07,0x3b,0x0b,0x69,0x1e,0x3b,0x0c,0x5b,0x00,0x6f,0x3b,0x0a,0x07,0x3b,0x0b,0x69,0x00,0x3b,0x0c,0x5b,0x00))
  ShowMessageFace("iriasu_fc4",5,0,2,2)
  ShowMessage("\\n<Ilias>W-what are you looking at?!")
  205(0,bytes(0x04,0x08,0x6f,0x3a,0x13,0x52,0x50,0x47,0x3a,0x3a,0x4d,0x6f,0x76,0x65,0x52,0x6f,0x75,0x74,0x65,0x09,0x3a,0x0c,0x40,0x72,0x65,0x70,0x65,0x61,0x74,0x46,0x3a,0x0f,0x40,0x73,0x6b,0x69,0x70,0x70,0x61,0x62,0x6c,0x65,0x46,0x3a,0x0a,0x40,0x77,0x61,0x69,0x74,0x54,0x3a,0x0a,0x40,0x6c,0x69,0x73,0x74,0x5b,0x08,0x6f,0x3a,0x15,0x52,0x50,0x47,0x3a,0x3a,0x4d,0x6f,0x76,0x65,0x43,0x6f,0x6d,0x6d,0x61,0x6e,0x64,0x07,0x3a,0x0a,0x40,0x63,0x6f,0x64,0x65,0x69,0x18,0x3a,0x10,0x40,0x70,0x61,0x72,0x61,0x6d,0x65,0x74,0x65,0x72,0x73,0x5b,0x00,0x6f,0x3b,0x0a,0x07,0x3b,0x0b,0x69,0x28,0x3b,0x0c,0x5b,0x00,0x6f,0x3b,0x0a,0x07,0x3b,0x0b,0x69,0x00,0x3b,0x0c,0x5b,0x00))
  0()
 PAGE   2
  // condition: variable 1019 >= 4
  0()



EVENT   55
 PAGE   1
  // condition: switch 4 is ON
  // condition: variable 1019 >= 1
  ShowMessageFace("slime_fc1",0,0,2,1)
  ShowMessage("\\n<Puruko>Purupurupuruuu...♪\nAdventuring is fuuun, isn't it? ♪")
  355("actor_label_jump")
  EndEventProcessing()
  DefineLabel("53")
  ShowMessageFace("slime_fc1",0,0,2,2)
  ShowMessage("\\n<Lime>Let's both do our best, 'kaaay? ♪")
  EndEventProcessing()
  0()
 PAGE   2
  // condition: variable 1019 >= 4
  0()



EVENT   56
 PAGE   1
  // condition: switch 4 is ON
  // condition: variable 1019 >= 1
  ShowMessageFace("dog_fc1",4,0,2,1)
  ShowMessage("\\n<Wanko>Woof woof... Swimming the doggy paddle isn't good enough, is it...?")
  355("actor_label_jump")
  EndEventProcessing()
  DefineLabel("60")
  ShowMessageFace("dog_fc1",4,0,2,2)
  ShowMessage("\\n<Pochi>Should we practice swimming together...?")
  EndEventProcessing()
  DefineLabel("70")
  ShowMessageFace("nezumi_fc1",0,0,2,3)
  ShowMessage("\\n<Ratty>(Those dog girls always look so cowardly, don't they...?)")
  EndEventProcessing()
  0()
 PAGE   2
  // condition: variable 1019 >= 4
  0()



EVENT   57
 PAGE   1
  ShowMessageFace("",0,0,2,1)
  ShowMessage("\\n<Fox>Kwon!")
  355("actor_label_jump")
  EndEventProcessing()
  DefineLabel("5")
  ShowMessageFace("alice_fc5",1,0,2,2)
  ShowMessage("\\n<Alice>Damn fox... *snicker*\nI'm going to pull your tail...")
  ShowMessageFace("",0,0,2,3)
  ShowMessage("\\n<Fox>K-kwon...")
  If(0,6,0)
   ShowMessageFace("sonia_fc2",5,0,2,4)
   ShowMessage("\\n<Sonya>Heeey! No bullying the fox!")
   ShowMessageFace("alice_fc5",3,0,2,5)
   ShowMessage("\\n<Alice>*looks down*...")
   0()
  EndIf()
  EndEventProcessing()
  DefineLabel("58")
  ShowMessageFace("inp_fc2",2,0,2,6)
  ShowMessage("\\n<Remi>*tremble*...")
  EndEventProcessing()
  DefineLabel("89")
  ShowMessageFace("ropa_fc1",0,0,2,7)
  ShowMessage("\\n<Cindy>Looks tasty...")
  ShowMessageFace("",0,0,2,8)
  ShowMessage("\\n<Fox>*twitch*!")
  EndEventProcessing()
  DefineLabel("92")
  ShowMessageFace("eater_fc1",3,0,2,9)
  ShowMessage("\\n<Eater>Looks tasty...")
  ShowMessageFace("",0,0,2,10)
  ShowMessage("\\n<Fox>*twitch*!")
  EndEventProcessing()
  DefineLabel("102")
  ShowMessageFace("youko_fc1",0,0,2,11)
  ShowMessage("\\n<Kitsu>It's a fooox! *pat* *pat*")
  ShowMessageFace("",0,0,2,12)
  ShowMessage("\\n<Fox>Fwaaah!")
  250(bytes(0x04,0x08,0x6f,0x3a,0x0c,0x52,0x50,0x47,0x3a,0x3a,0x53,0x45,0x08,0x3a,0x0a,0x40,0x6e,0x61,0x6d,0x65,0x49,0x22,0x0f,0x6d,0x6f,0x6e,0x5f,0x64,0x61,0x6d,0x61,0x67,0x65,0x06,0x3a,0x06,0x45,0x54,0x3a,0x0b,0x40,0x70,0x69,0x74,0x63,0x68,0x69,0x69,0x3a,0x0c,0x40,0x76,0x6f,0x6c,0x75,0x6d,0x65,0x69,0x69))
  ShowMessageFace("youko_fc1",2,0,2,13)
  ShowMessage("\\n<Kitsu>Ow!!")
  ShowMessageFace("",0,0,2,14)
  ShowMessage("The fox bit her hand!")
  EndEventProcessing()
  DefineLabel("103")
  ShowMessageFace("kamuro_fc1",0,0,2,15)
  ShowMessage("\\n<Kamuro>Oh, it's a fox...\n*pat* *pat*...")
  ShowMessageFace("",0,0,2,16)
  ShowMessage("\\n<Fox>......")
  ShowMessageFace("",0,0,2,17)
  ShowMessage("The fox seems docile toward her...")
  EndEventProcessing()
  0()



EVENT   58
 PAGE   1
  If(1,1001,0,29,2)
   If(4,101,0)
    ShowMessageFace("cent2_fc1",0,0,2,1)
    ShowMessage("\\n<Centaur>My, if it isn't Lichtina. Are you traveling with humans?")
    ShowMessageFace("cent2_fc1",0,0,2,2)
    ShowMessage("\\n<Lichtina>Yeah. I want to run on my hooves all around the world. So, what brings you here?")
    ShowMessageFace("cent2_fc1",0,0,2,3)
    ShowMessage("\\n<Centaur>I wanted to go to Port Natalia, but so much for that. I wish I could just run across the ocean...")
    EndEventProcessing()
    0()
   EndIf()
   If(1,1001,0,12,2)
    ShowMessageFace("cent2_fc1",0,0,2,4)
    ShowMessage("\\n<Centaur>It is bothersome that the ship won't leave port. And it's not like I can simply gallop across the sea...")
    0()
   EndIf()
   If(1,1001,0,13,1)
    ShowMessageFace("cent2_fc1",0,0,2,5)
    ShowMessage("\\n<Centaur>I noticed that even if the ship leaves, I don't have money to pay the fare. And it's not like I can simply gallop across the sea...")
    0()
   EndIf()
   ShowMessageFace("cent2_fc1",0,0,2,6)
   ShowMessage("\\n<Centaur>I did try, of course. I only made it 10 seconds...")
   355("actor_label_jump")
   EndEventProcessing()
   DefineLabel("62")
   ShowMessageFace("gob_fc1",0,0,2,7)
   ShowMessage("\\n<Gob>I can push on for a hundred seconds! Any longer than that and I start to sink, though...")
   ShowMessageFace("cent2_fc1",2,0,2,8)
   ShowMessage("\\n<Centaur>Y-you have me beat...! How humiliating. I need to train harder!")
   If(0,6,0)
    ShowMessageFace("sonia_fc4",0,0,2,9)
    ShowMessage("\\n<Sonya>What kind of a competition is that...")
    0()
   EndIf()
   EndEventProcessing()
   DefineLabel("118")
   ShowMessageFace("meia_fc1",0,0,2,10)
   ShowMessage("\\n<Meia>I could swim all the way to the opposite shore...")
   EndEventProcessing()
   0()
  EndIf()
  If(1,1001,0,30,1)
   ShowMessageFace("cent2_fc1",0,0,2,11)
   ShowMessage("\\n<Centaur>Ever since the Monster Lord declared war, the atmosphere here has gotten kind of heavy. Rather than hatred, it feels more like they're afraid of us.")
   EndEventProcessing()
   0()
  EndIf()
  0()



EVENT   59
 PAGE   1
  ShowMessageFace("",0,0,2,1)
  ShowMessage("\\n<Tired Middle-Aged Man>Good grief. What's the purpose of academics? It's all stuff you have no use for in society...")
  If(4,41,0)
   ShowMessageFace("stein_fc2",0,0,2,2)
   ShowMessage("\\n<Promestein>On the contrary. There's no field of study lacking application to society.")
   ShowMessageFace("stein_fc2",0,0,2,3)
   ShowMessage("\\n<Promestein>It's precisely because you are a human who doesn't amass knowledge that you have cerebral stagnation, appropriately forcing you to settle in your social status.")
   ShowMessageFace("stein_fc2",0,0,2,4)
   ShowMessage("\\n<Promestein>If you're highly intelligent and accumulate academic achievements, you can rise to the top of the social hierarchy.")
   ShowMessageFace("stein_fc2",0,0,2,5)
   ShowMessage("\\n<Promestein>And if you climb to the top of the social hierarchy, you can reproduce with many individuals of the opposite sex, resulting in many descendants.")
   ShowMessageFace("",0,0,2,6)
   ShowMessage("\\n<Tired Middle-Aged Man>Why didn't anyone tell me this sooner?! Damnit!")
   0()
  EndIf()
  0()



EVENT   60
 PAGE   1
  // condition: switch 1080 is ON
  ShowMessageFace("orc_fc1",1,0,2,1)
  ShowMessage("\\n<Hip>Oink! It's an orc raid!")
  ShowMessageFace("",0,0,2,2)
  ShowMessage("\\n<Hooligan>Tch... I have my pride as a man of sea!")
  ShowMessageFace("",0,0,2,3)
  ShowMessage("It looks like my orc companion is terrorizing people. At least she won't cause any real trouble, I guess.")
  0()
 PAGE   2
  // condition: party contains actor #80
  0()



EVENT   61
 PAGE   1
  // condition: switch 1540 is ON
  241(bytes(0x04,0x08,0x6f,0x3a,0x0d,0x52,0x50,0x47,0x3a,0x3a,0x42,0x47,0x4d,0x08,0x3a,0x0a,0x40,0x6e,0x61,0x6d,0x65,0x49,0x22,0x0a,0x61,0x6d,0x69,0x72,0x61,0x06,0x3a,0x06,0x45,0x54,0x3a,0x0c,0x40,0x76,0x6f,0x6c,0x75,0x6d,0x65,0x69,0x69,0x3a,0x0b,0x40,0x70,0x69,0x74,0x63,0x68,0x69,0x69))
  If(2,"A",1)
   ChangeSelfSwitch("A",0)
   RunCommonEvent(322)
   0()
  Else()
   ShowMessageFace("amira_fc1",0,0,2,1)
   ShowMessage("\\n<Amira>You've already found me here.\nKeep searching for me elsewhere...")
   0()
  EndIf()
  241(bytes(0x04,0x08,0x6f,0x3a,0x0d,0x52,0x50,0x47,0x3a,0x3a,0x42,0x47,0x4d,0x08,0x3a,0x0a,0x40,0x6e,0x61,0x6d,0x65,0x49,0x22,0x0a,0x63,0x69,0x74,0x79,0x31,0x06,0x3a,0x06,0x45,0x54,0x3a,0x0c,0x40,0x76,0x6f,0x6c,0x75,0x6d,0x65,0x69,0x69,0x3a,0x0b,0x40,0x70,0x69,0x74,0x63,0x68,0x69,0x69))
  EndEventProcessing()
  0()
 PAGE   2
  // condition: party contains actor #540
  0()
