﻿


EVENT   1
 PAGE   1
  Wait(120)
  ShowMessageFace("sirousagi_fc1",2,0,2,1)
  ShowMessage("\\n<White Rabbit>This is...spatial erosion?")
  ShowMessageFace("",0,0,2,2)
  ShowMessage("\\n<？？？>Fufufu... This is the \"Land of Night\".\nI will show this world a wonderful dream...♡")
  ShowMessageFace("sirousagi_fc1",0,0,2,3)
  ShowMessage("\\n<White Rabbit>Sorry, but I won't let you do that...\nI'll send you back to your world, even if I have to do it by force!")
  355("display_skill_name(\"Death Claw Dance\")")
  212(4,987,false)
  ShowMessageFace("",0,0,2,4)
  ShowMessage("White Rabbit slashes with her claws in a deadly dance!\\|")
  ShowMessage("But her attacks did not affect ？？？...")
  355("clear_skill_name")
  ShowMessageFace("sirousagi_fc1",2,0,2,5)
  ShowMessage("\\n<White Rabbit>That...didn't work?!\nHow am I unable to interfere with you...?")
  ShowMessageFace("",0,0,2,6)
  ShowMessage("\\n<？？？>You cannot attack a Nightmare like that.\nNow, I shall show you a dream of pleasure...")
  ShowMessageFace("sirousagi_fc1",0,0,2,7)
  ShowMessage("\\n<White Rabbit>Sorry, but pleasure attacks won't work on me at all--")
  212(0,857,false)
  Wait(60)
  ShowMessageFace("sirousagi_fc1",0,0,2,8)
  ShowMessage("\\n<White Rabbit>It wooorked! T-this feels gooood♡")
  ShowMessageFace("sirousagi_fc1",2,0,2,9)
  ShowMessage("\\n<White Rabbit>My pleasure resistance was penetrated...\nThis is the first time I'm going to die like this...")
  250(bytes(0x04,0x08,0x6f,0x3a,0x0c,0x52,0x50,0x47,0x3a,0x3a,0x53,0x45,0x08,0x3a,0x0a,0x40,0x6e,0x61,0x6d,0x65,0x49,0x22,0x0d,0x6d,0x6f,0x6e,0x5f,0x64,0x6f,0x77,0x6e,0x06,0x3a,0x06,0x45,0x54,0x3a,0x0b,0x40,0x70,0x69,0x74,0x63,0x68,0x69,0x69,0x3a,0x0c,0x40,0x76,0x6f,0x6c,0x75,0x6d,0x65,0x69,0x69))
  205(2,bytes(0x04,0x08,0x6f,0x3a,0x13,0x52,0x50,0x47,0x3a,0x3a,0x4d,0x6f,0x76,0x65,0x52,0x6f,0x75,0x74,0x65,0x09,0x3a,0x0c,0x40,0x72,0x65,0x70,0x65,0x61,0x74,0x46,0x3a,0x0f,0x40,0x73,0x6b,0x69,0x70,0x70,0x61,0x62,0x6c,0x65,0x46,0x3a,0x0a,0x40,0x77,0x61,0x69,0x74,0x54,0x3a,0x0a,0x40,0x6c,0x69,0x73,0x74,0x5b,0x07,0x6f,0x3a,0x15,0x52,0x50,0x47,0x3a,0x3a,0x4d,0x6f,0x76,0x65,0x43,0x6f,0x6d,0x6d,0x61,0x6e,0x64,0x07,0x3a,0x0a,0x40,0x63,0x6f,0x64,0x65,0x69,0x27,0x3a,0x10,0x40,0x70,0x61,0x72,0x61,0x6d,0x65,0x74,0x65,0x72,0x73,0x5b,0x00,0x6f,0x3b,0x0a,0x07,0x3b,0x0b,0x69,0x00,0x3b,0x0c,0x5b,0x00))
  ShowMessageFace("",0,0,2,10)
  ShowMessage("\\n<White Rabbit>Uhhhn, so sleepy...")
  ShowMessageFace("",0,0,2,11)
  ShowMessage("\\n<？？？>Fufu... Enjoy your sweet dreams.\nI shall make use of your power...")
  ShowMessageFace("",0,0,2,12)
  ShowMessage("\\n<White Rabbit>ZZZ...")
  Wait(60)
  221()
  242(1)
  PictureClear(5)
  281(1)
  211(1)
  Wait(120)
  TeleportPlayer(0,228,24,27,8,0)
  222()
  If(0,4,0)
   ShowMessageFace("alice_fc5",6,0,2,13)
   ShowMessage("\\n<Alice>So you were killed?!")
   0()
  EndIf()
  If(0,5,0)
   ShowMessageFace("iriasu_fc4",5,0,2,14)
   ShowMessage("\\n<Ilias>So you were killed?!")
   0()
  EndIf()
  ShowMessageFace("sirousagi_fc1",0,0,2,15)
  ShowMessage("\\n<White Rabbit>Because my opponent was someone who defied the usual laws of physics. It was the first time I couldn't do anything but suffer an embarrassing defeat.")
  ShowMessageFace("sirousagi_fc1",0,0,2,16)
  ShowMessage("\\n<White Rabbit>That's how I fell into a dream.\nIt's just like being taken prisoner by the enemy.")
  ShowMessageFace("ruka_fc1",0,0,2,17)
  ShowMessage("\\n<Luka>But the White Rabbit is right in front of us...\n...I see, so there were a lot of White Rabbits.")
  ShowMessageFace("sirousagi_fc1",0,0,2,18)
  ShowMessage("\\n<White Rabbit>The \"Queen of Dreams\"--I'm just going to call our enemy that for convenience's sake. I don't know what she's called in her original world.")
  ShowMessageFace("sirousagi_fc1",0,0,2,19)
  ShowMessage("\\n<White Rabbit>Anyhow, the Queen of Dreams has been exploiting the power that she's taken from me. She's opened up gates and summoned those who answered her call from other worlds.")
  If(0,4,0)
   ShowMessageFace("alice_fc5",0,0,2,20)
   ShowMessage("\\n<Alice>Those who answered her call...?\nSo you're saying they're the Queen of Dreams' friends?")
   0()
  EndIf()
  If(0,5,0)
   ShowMessageFace("iriasu_fc4",2,0,2,21)
   ShowMessage("\\n<Ilias>Those who answered her call...?\nAre you saying they're the Queen of Dreams' friends?")
   0()
  EndIf()
  ShowMessageFace("sirousagi_fc1",0,0,2,22)
  ShowMessage("\\n<White Rabbit>I think it would be more appropriate to call them an alliance rather than friends. It appears she's invited them in from various different worlds.")
  ShowMessageFace("sirousagi_fc1",0,0,2,23)
  ShowMessage("\\n<White Rabbit>Since they're from different worlds, they're all new to each other. I suspect that they've been gathered together under some contract.")
  ShowMessageFace("sirousagi_fc1",0,0,2,24)
  ShowMessage("\\n<White Rabbit>Needless to say however, they're all equally powerful. Quite a number of villainous characters have come into our world.")
  If(0,4,0)
   ShowMessageFace("alice_fc5",0,0,2,25)
   ShowMessage("\\n<Alice>And at the heart of them is Queen of Dreams...\nThey've come together from different worlds to form a single great force.")
   0()
  EndIf()
  If(0,5,0)
   ShowMessageFace("iriasu_fc4",7,0,2,26)
   ShowMessage("\\n<Ilias>And at the heart of them is Queen of Dreams...\nThey've come together from different worlds to form a single great force.")
   0()
  EndIf()
  ShowMessageFace("sirousagi_fc1",0,0,2,27)
  ShowMessage("\\n<White Rabbit>And now, the \"Queen of Dreams\"...is trying to expand her \"Land of Night\" in this world.")
  ShowMessageFace("ruka_fc1",0,0,2,28)
  ShowMessage("\\n<Luka>\"Land of Night\"? What in the world is that...?")
  ShowMessageFace("sirousagi_fc1",0,0,2,29)
  ShowMessage("\\n<White Rabbit>I have a lot of questions myself regarding the physical laws of that other world, but... I think it's a spiritual world that erodes the space around it.")
  ShowMessageFace("sirousagi_fc1",0,0,2,30)
  ShowMessage("\\n<White Rabbit>The \"Queen of Dreams\"...called herself a Nightmare. If the succubi of our world can be thought of as a dream, these spiritual world ones would be Nightmares.")
  If(0,4,0)
   ShowMessageFace("alice_fc5",0,0,2,31)
   ShowMessage("\\n<Alice>In short... These Nightmares are beings who contradict our physical laws?")
   0()
  EndIf()
  If(0,5,0)
   ShowMessageFace("iriasu_fc4",7,0,2,32)
   ShowMessage("\\n<Ilias>So in other words... These Nightmares are beings who exist outside the scope of the physical laws we're familiar with.")
   0()
  EndIf()
  ShowMessageFace("ruka_fc1",0,0,2,33)
  ShowMessage("\\n<Luka>These beings seem to be different from the succubi we know. It's hard to believe such a terrifying foe has invaded this world.")
  ShowMessageFace("sirousagi_fc1",0,0,2,34)
  ShowMessage("\\n<White Rabbit>The Queen of Dreams may have successfully defeated me, but... I've learned a lot about the special characteristics of Nightmares from that encounter.")
  ShowMessageFace("sirousagi_fc1",0,0,2,35)
  ShowMessage("\\n<White Rabbit>First, attributes other than pleasure will have no effect on Nightmares. They cannot be harmed by physical attacks or any other attributes.")
  If(0,4,0)
   ShowMessageFace("alice_fc5",0,0,2,36)
   ShowMessage("\\n<Alice>So if our opponent is a Nightmare, we can't hurt them with anything except pleasure skills...? That alone makes them a terrifying menace.")
   0()
  EndIf()
  If(0,5,0)
   ShowMessageFace("iriasu_fc4",2,0,2,37)
   ShowMessage("\\n<Ilias>We can't rely on anything except pleasure skills when fighting Nightmares... That's just cheating, isn't it...?")
   0()
  EndIf()
  ShowMessageFace("sirousagi_fc1",0,0,2,38)
  ShowMessage("\\n<White Rabbit>Furthermore, the pleasure skills used by Nightmares cannot be resisted at all. They can even pierce through pleasure reflection.")
  ShowMessageFace("ruka_fc1",0,0,2,39)
  ShowMessage("\\n<Luka>That's brutal... Even if we have pleasure resistance, it won't help us at all.")
  ShowMessageFace("sirousagi_fc1",0,0,2,40)
  ShowMessage("\\n<White Rabbit>But...I'm pretty sure Nightmares don't use anything other than pleasure skills.")
  ShowMessageFace("sonia_fc2",2,0,2,41)
  ShowMessage("\\n<Sonya>They don't use anything other than pleasure skills...?! Shouldn't they be hitting us or casting offensive magic?")
  ShowMessageFace("sirousagi_fc1",0,0,2,42)
  ShowMessage("\\n<White Rabbit>Nightmares live under a doctrine of denying such violence. That's why they have such an astounding specialization in pleasure.")
  ShowMessageFace("sirousagi_fc1",0,0,2,43)
  ShowMessage("\\n<White Rabbit>Those are the special characteristics of Nightmares... Did you understand all that? You're the ones who are going to fight them, so make sure to remember it.")
  If(0,4,0)
   ShowMessageFace("alice_fc5",0,0,2,44)
   ShowMessage("\\n<Alice>Once more, just to be sure...\nFirst, Nightmares cannot be harmed by anything except pleasure attacks.")
   ShowMessageFace("alice_fc5",0,0,2,45)
   ShowMessage("\\n<Alice>If that's the case... That means be it'd be a good idea to confront them with party members who are good with pleasure skills.")
   0()
  EndIf()
  If(0,5,0)
   ShowMessageFace("iriasu_fc4",7,0,2,46)
   ShowMessage("\\n<Ilias>Once more, just to confirm... First, Nightmares cannot be harmed by anything except pleasure attacks.")
   ShowMessageFace("iriasu_fc4",7,0,2,47)
   ShowMessage("\\n<Ilias>Thus, we should reinforce our party with those who excel at pleasure skills. If we do that, we should be able to fight them more effectively, even if just a little.")
   0()
  EndIf()
  ShowMessageFace("ruka_fc1",0,0,2,48)
  ShowMessage("\\n<Luka>I don't think I'm going to be of much help in that regard...")
  ShowMessageFace("sirousagi_fc1",0,0,2,49)
  ShowMessage("\\n<White Rabbit>If anything, you'd just be food wouldn't you?")
  ShowMessageFace("ruka_fc1",0,0,2,50)
  ShowMessage("\\n<Luka>............")
  If(0,4,0)
   ShowMessageFace("alice_fc5",0,0,2,51)
   ShowMessage("\\n<Alice>Furthermore, the pleasure granted by Nightmares cannot be prevented. They can pierce through pleasure resistance and reflection to reliably inflict damage.")
   ShowMessageFace("alice_fc5",0,0,2,52)
   ShowMessage("\\n<Alice>However... Nightmares don't have any offensive capabilities other than pleasure attacks. If we keep this in mind, we should be able to fight them more effectively.")
   0()
  EndIf()
  If(0,5,0)
   ShowMessageFace("iriasu_fc4",7,0,2,53)
   ShowMessage("\\n<Ilias>Furthermore, the pleasure granted by Nightmares cannot be prevented. They disregard pleasure resistance and reflection and will damage you by ignoring it.")
   ShowMessageFace("iriasu_fc4",7,0,2,54)
   ShowMessage("\\n<Ilias>However... Nightmares have no offensive capabilities other than pleasure attacks. They appear to be beings who are completely specialized in pleasure.")
   0()
  EndIf()
  ShowMessageFace("sonia_fc2",2,0,2,55)
  ShowMessage("\\n<Sonya>You said the Queen of Dreams had gathered together an alliance, didn't you? Are all of them Nightmares too...?")
  ShowMessageFace("sirousagi_fc1",0,0,2,56)
  ShowMessage("\\n<White Rabbit>There might be a few Nightmares among them, but... I'm pretty sure the majority of them aren't Nightmares.")
  ShowMessageFace("sirousagi_fc1",0,0,2,57)
  ShowMessage("\\n<White Rabbit>So you should be able to fight most of her alliance like you normally would. Naturally, you shouldn't let your guard down; they're quite powerful after all.")
  If(0,4,0)
   ShowMessageFace("alice_fc5",0,0,2,58)
   ShowMessage("\\n<Alice>So then...what is the Queen of Dreams' goal?\nWhat is she trying to accomplish in forming an alliance and invading this world?")
   0()
  EndIf()
  If(0,5,0)
   ShowMessageFace("iriasu_fc4",7,0,2,59)
   ShowMessage("\\n<Ilias>So what is the Queen of Dreams' objective?\nWhat is she plotting by forming an alliance and invading this world?")
   0()
  EndIf()
  ShowMessageFace("sirousagi_fc1",0,0,2,60)
  ShowMessage("\\n<White Rabbit>To expand the \"Land of Night\" into this world.\nI told you earlier that it's some kind of spiritual world that erodes the space around it.")
  ShowMessageFace("sirousagi_fc1",0,0,2,61)
  ShowMessage("\\n<White Rabbit>I think she plans to cover this world with her \"Land of Night\". No...she'll turn this entire world into the \"Land of Night\".")
  ShowMessageFace("sirousagi_fc1",0,0,2,62)
  ShowMessage("\\n<White Rabbit>Once there, everyone will fall into dreams of neverending pleasure... Just like how the Queen of Dreams killed me.")
  ShowMessageFace("ruka_fc1",0,0,2,63)
  ShowMessage("\\n<Luka>This entire world will fall into dreams of pleasure...?!")
  ShowMessageFace("sirousagi_fc1",0,0,2,64)
  ShowMessage("\\n<White Rabbit>Yep, we're in a serious pinch, aren't we?")
  If(0,4,0)
   ShowMessageFace("alice_fc6",1,0,2,65)
   ShowMessage("\\n<Alice>Of course we are!\nMoreover, your mistake is the cause of all this!")
   0()
  EndIf()
  If(0,5,0)
   ShowMessageFace("iriasu_fc4",7,0,2,66)
   ShowMessage("\\n<Ilias>Of course this is a serious pinch!\nWhat's more, this is all because of your mistake!!")
   0()
  EndIf()
  ShowMessageFace("sirousagi_fc1",0,0,2,67)
  ShowMessage("\\n<White Rabbit>...I did nothing wrong.\nRather, you could say this happened at a good time.")
  ShowMessageFace("sirousagi_fc1",0,0,2,68)
  ShowMessage("\\n<White Rabbit>Ever since the Great Monster Wars up until now, this world has been in an era of relative peace. Now is the time that the most powerful forces have gathered together.")
  ShowMessageFace("sirousagi_fc1",0,0,2,69)
  ShowMessage("\\n<White Rabbit>And before long, a conflict comparable to the Great Monster Wars will happen. At times like this, there's no getting around that, is there?")
  ShowMessageFace("sirousagi_fc1",0,0,2,70)
  ShowMessage("\\n<White Rabbit>In other words, now is the most convenient time in history... We can take on the Queen of Dreams with the best forces.")
  ShowMessageFace("sirousagi_fc1",0,0,2,71)
  ShowMessage("\\n<White Rabbit>At the end of the day, this is a calamity that just so happened to occur. We were rather lucky that it happened at the best time for us.")
  ShowMessageFace("sirousagi_fc1",0,0,2,72)
  ShowMessage("\\n<White Rabbit>...Don't you think so?")
  If(0,4,0)
   ShowMessageFace("alice_fc5",2,0,2,73)
   ShowMessage("\\n<Alice>...Did you really think we'd approve of being used like this?")
   0()
  EndIf()
  If(0,5,0)
   ShowMessageFace("iriasu_fc5",0,0,2,74)
   ShowMessage("\\n<Ilias>I cannot forgive you using us for a reason like that!")
   0()
  EndIf()
  ShowMessageFace("sirousagi_fc1",0,0,2,75)
  ShowMessage("\\n<White Rabbit>I guess not...")
  ShowMessageFace("ruka_fc1",0,0,2,76)
  ShowMessage("\\n<Luka>We'll condemn the White Rabbit for this later.\nRight now, there's a crisis we have to deal with!")
  If(0,4,0)
   ShowMessageFace("alice_fc5",2,0,2,77)
   ShowMessage("\\n<Alice>I definitely agree.\nWhite Rabbit... Where is the Queen of Dreams currently?")
   0()
  EndIf()
  If(0,5,0)
   ShowMessageFace("iriasu_fc4",7,0,2,78)
   ShowMessage("\\n<Ilias>I could not agree more.\nWhite Rabbit... Where is the Queen of Dreams at this moment?")
   0()
  EndIf()
  ShowMessageFace("sirousagi_fc1",0,0,2,79)
  ShowMessage("\\n<White Rabbit>She first appeared at the Lima Village ruins, but... I don't know where she is now.")
  ShowMessageFace("sirousagi_fc1",0,0,2,80)
  ShowMessage("\\n<White Rabbit>Also...I'm not supposed to interfere with these matters. My role is to lead, after all.")
  If(0,4,0)
   ShowMessageFace("alice_fc6",1,0,2,81)
   ShowMessage("\\n<Alice>But you were the one who caused all of this, you stupid rabbit!!")
   0()
  EndIf()
  If(0,5,0)
   ShowMessageFace("iriasu_fc5",0,0,2,82)
   ShowMessage("\\n<Ilias>But the cause for all of this was entirely your fault! I should make you into rabbit stew for this!")
   0()
  EndIf()
  ShowMessageFace("sirousagi_fc1",2,0,2,83)
  ShowMessage("\\n<White Rabbit>I'll admit I do bear some responsibility, which was why I came here to inform you. Technically speaking, you're completely ignoring the matter at hand here.")
  If(0,4,0)
   ShowMessageFace("alice_fc5",0,0,2,84)
   ShowMessage("\\n<Alice>Anyways... If you don't know where the enemy ringleader is, then we're done talking. Let's start by gathering some information.")
   ShowMessageFace("alice_fc5",0,0,2,85)
   ShowMessage("\\n<Alice>If the Queen of Dreams is as powerful as you say, someone must've seen some changes in the surroundings. I also doubt her alliance is keeping quiet either.")
   0()
  EndIf()
  If(0,5,0)
   ShowMessageFace("iriasu_fc4",7,0,2,86)
   ShowMessage("\\n<Ilias>Anyhow... The problem is that we do not know the whereabouts of the big boss. We should start with some information gathering.")
   ShowMessageFace("iriasu_fc4",7,0,2,87)
   ShowMessage("\\n<Ilias>If the Queen of Dreams is indeed that powerful, someone must have noticed changes in the surroundings. I also expect her alliance has already made some moves as well.")
   0()
  EndIf()
  ShowMessageFace("sara_fc1",0,0,2,88)
  ShowMessage("\\n<Sara>Then I'll head back to my country at once.\nI'll order the relevant organizations to conduct a nationwide investigation.")
  ShowMessageFace("saniria_fc2",0,0,2,89)
  ShowMessage("\\n<King of San Ilia>I too shall issue a proclamation to all of the districts. We shall gather information regarding the strange phenomenon and analyze it downstairs.")
  If(0,1533,0)
   ShowMessageFace("grandnoa_fc1",0,0,2,90)
   ShowMessage("\\n<Queen of Grand Noah>Naturally, Grand Noah shall also cooperate.\nWe'll gather information in the four major countries to discover the origin of this incident.")
   0()
  EndIf()
  ShowMessageFace("",0,0,2,91)
  ShowMessage("And so, the rulers of each country returned to their respective kingdoms.")
  If(0,1286,0)
   ShowMessageFace("witchs_fc1",0,0,2,92)
   ShowMessage("\\n<Witch>Can I return to Succubus Village as well?\nI might be able to find some reference books on the Nightmares...")
   If(0,4,0)
    ShowMessageFace("alice_fc5",0,0,2,93)
    ShowMessage("\\n<Alice>That seems unlikely, but you might some related material. All right, I'm leaving that to you.")
    0()
   EndIf()
   If(0,5,0)
    ShowMessageFace("iriasu_fc4",2,0,2,94)
    ShowMessage("\\n<Ilias>You probably won't turn up any results...\nStill, I won't stop you.")
    0()
   EndIf()
   0()
  EndIf()
  If(0,4,0)
   ShowMessageFace("morrigan_fc1",3,0,2,95)
   ShowMessage("\\n<Morrigan>I'll head back to my sisters for a bit. This is something I gotta report on right away.")
   ShowMessageFace("alice_fc5",0,0,2,96)
   ShowMessage("\\n<Alice>So long as our opponents are Nightmares, we'll be at a disadvantage with you gone...")
   ShowMessageFace("morrigan_fc1",0,0,2,97)
   ShowMessage("\\n<Morrigan>I'll be back as soon as possible.\nSee ya!")
   250(bytes(0x04,0x08,0x6f,0x3a,0x0c,0x52,0x50,0x47,0x3a,0x3a,0x53,0x45,0x08,0x3a,0x0a,0x40,0x6e,0x61,0x6d,0x65,0x49,0x22,0x0a,0x57,0x69,0x6e,0x64,0x31,0x06,0x3a,0x06,0x45,0x54,0x3a,0x0b,0x40,0x70,0x69,0x74,0x63,0x68,0x69,0x69,0x3a,0x0c,0x40,0x76,0x6f,0x6c,0x75,0x6d,0x65,0x69,0x55))
   ChangeSwitch(1382,1382,1)
   ShowMessageFace("",0,0,2,98)
   ShowMessage("Morrigan flew away...")
   0()
  EndIf()
  ShowMessageFace("sonia_fc2",2,0,2,99)
  ShowMessage("\\n<Sonya>So...what are we going to do?")
  If(0,4,0)
   ShowMessageFace("alice_fc5",0,0,2,100)
   ShowMessage("\\n<Alice>For now, we have no choice but to wait for some plausible information. We don't know where our enemy is, so we can't do anything.")
   0()
  EndIf()
  If(0,5,0)
   ShowMessageFace("iriasu_fc4",2,0,2,101)
   ShowMessage("\\n<Ilias>Right now, there is nothing we can do but to wait for some promising information. We can't really do anything if we don't know where our enemy is.")
   0()
  EndIf()
  ShowMessageFace("ruka_fc1",0,0,2,102)
  ShowMessage("\\n<Luka>We'll just have to wait patiently for a while...")
  ShowMessageFace("",0,0,2,103)
  ShowMessage("I don't like the idea of sitting around, but there's no helping it. With the four great nations gathering information, I'm sure they'll turn up something soon...")
  ShowMessageFace("sirousagi_fc1",0,0,2,104)
  ShowMessage("\\n<White Rabbit>...I've mentioned before how the ones who called themselves an alliance came from various different worlds. Their existence here will increase the entropy of this world.")
  ShowMessageFace("sirousagi_fc1",0,0,2,105)
  ShowMessage("\\n<White Rabbit>However, there is a reaction to every action in this world. And history has a way of correcting itself.")
  ShowMessageFace("sirousagi_fc1",0,0,2,106)
  ShowMessage("\\n<White Rabbit>So if the entropy of this world increases...\nThat corrective force should work in opposition to hold it back.")
  If(0,4,0)
   ShowMessageFace("alice_fc5",2,0,2,107)
   ShowMessage("\\n<Alice>In other words...what does that mean?")
   0()
  EndIf()
  If(0,5,0)
   ShowMessageFace("iriasu_fc4",2,0,2,108)
   ShowMessage("\\n<Ilias>In other words...what do you mean?")
   0()
  EndIf()
  ShowMessageFace("sirousagi_fc1",0,0,2,109)
  ShowMessage("\\n<White Rabbit>They were drawn into this world from various other worlds. It's possible the Queen of Dreams' allies weren't the only ones brought here.")
  ShowMessageFace("sirousagi_fc1",0,0,2,110)
  ShowMessage("\\n<White Rabbit>The crisis she is causing could be resolved by heroes... They might've been summoned from the other worlds.")
  Wait(60)
  242(2)
  221()
  Wait(120)
  PictureDisplay(5,"iv_chapter01",0,0,0,0,100,100,255,0)
  222()
  Wait(180)
  221()
  PictureClear(4)
  PictureClear(5)
  Wait(120)
  TeleportPlayer(0,845,68,8,2,2)
  0()



EVENT   2
 PAGE   1
  0()



EVENT   3
 PAGE   1
  0()



EVENT   4
 PAGE   1
  0()
