﻿


EVENT   1
 PAGE   1
  0()



EVENT   2
 PAGE   1
  0()



EVENT   3
 PAGE   1
  0()



EVENT   4
 PAGE   1
  0()



EVENT   8
 PAGE   1
  0()



EVENT   16
 PAGE   1
  0()



EVENT   17
 PAGE   1
  0()



EVENT   22
 PAGE   1
  0()



EVENT   23
 PAGE   1
  0()



EVENT   24
 PAGE   1
  0()



EVENT   25
 PAGE   1
  0()



EVENT   26
 PAGE   1
  0()



EVENT   5
 PAGE   1
  281(1)
  250(bytes(0x04,0x08,0x6f,0x3a,0x0c,0x52,0x50,0x47,0x3a,0x3a,0x53,0x45,0x08,0x3a,0x0a,0x40,0x6e,0x61,0x6d,0x65,0x49,0x22,0x09,0x4d,0x6f,0x76,0x65,0x06,0x3a,0x06,0x45,0x54,0x3a,0x0b,0x40,0x70,0x69,0x74,0x63,0x68,0x69,0x69,0x3a,0x0c,0x40,0x76,0x6f,0x6c,0x75,0x6d,0x65,0x69,0x55))
  TeleportPlayer(0,936,6,11,0,0)
  0()



EVENT   7
 PAGE   1
  281(1)
  250(bytes(0x04,0x08,0x6f,0x3a,0x0c,0x52,0x50,0x47,0x3a,0x3a,0x53,0x45,0x08,0x3a,0x0a,0x40,0x6e,0x61,0x6d,0x65,0x49,0x22,0x09,0x4d,0x6f,0x76,0x65,0x06,0x3a,0x06,0x45,0x54,0x3a,0x0b,0x40,0x70,0x69,0x74,0x63,0x68,0x69,0x69,0x3a,0x0c,0x40,0x76,0x6f,0x6c,0x75,0x6d,0x65,0x69,0x55))
  TeleportPlayer(0,936,29,6,0,0)
  0()



EVENT   18
 PAGE   1
  281(1)
  250(bytes(0x04,0x08,0x6f,0x3a,0x0c,0x52,0x50,0x47,0x3a,0x3a,0x53,0x45,0x08,0x3a,0x0a,0x40,0x6e,0x61,0x6d,0x65,0x49,0x22,0x09,0x4d,0x6f,0x76,0x65,0x06,0x3a,0x06,0x45,0x54,0x3a,0x0b,0x40,0x70,0x69,0x74,0x63,0x68,0x69,0x69,0x3a,0x0c,0x40,0x76,0x6f,0x6c,0x75,0x6d,0x65,0x69,0x55))
  TeleportPlayer(0,936,23,22,0,0)
  0()



EVENT   13
 PAGE   1
  250(bytes(0x04,0x08,0x6f,0x3a,0x0c,0x52,0x50,0x47,0x3a,0x3a,0x53,0x45,0x08,0x3a,0x0a,0x40,0x6e,0x61,0x6d,0x65,0x49,0x22,0x09,0x4d,0x6f,0x76,0x65,0x06,0x3a,0x06,0x45,0x54,0x3a,0x0b,0x40,0x70,0x69,0x74,0x63,0x68,0x69,0x69,0x3a,0x0c,0x40,0x76,0x6f,0x6c,0x75,0x6d,0x65,0x69,0x55))
  TeleportPlayer(0,847,16,48,0,0)
  ChangeSwitch(31,31,1)
  0()



EVENT   28
 PAGE   1
  ShowMessageFace("",0,0,2,1)
  ShowMessage("\\n<Merchant>I'm a merchant and I'll always be one until the day I die.\nGo ahead and buy something.")
  Shop(0,2,0,0,false)
  605(0,11,0,0)
  605(0,13,0,0)
  605(0,14,0,0)
  605(0,15,0,0)
  605(0,16,0,0)
  605(0,17,0,0)
  605(0,18,0,0)
  605(0,19,0,0)
  605(0,20,0,0)
  605(0,21,0,0)
  0()



EVENT   6
 PAGE   1
  281(1)
  250(bytes(0x04,0x08,0x6f,0x3a,0x0c,0x52,0x50,0x47,0x3a,0x3a,0x53,0x45,0x08,0x3a,0x0a,0x40,0x6e,0x61,0x6d,0x65,0x49,0x22,0x09,0x4d,0x6f,0x76,0x65,0x06,0x3a,0x06,0x45,0x54,0x3a,0x0b,0x40,0x70,0x69,0x74,0x63,0x68,0x69,0x69,0x3a,0x0c,0x40,0x76,0x6f,0x6c,0x75,0x6d,0x65,0x69,0x55))
  TeleportPlayer(0,936,14,8,0,0)
  0()



EVENT   27
 PAGE   1
  ShowMessageFace("",0,0,2,1)
  ShowMessage("\\n<Weapon Merchant>Buying and selling! Until the end of my life!")
  ShowMessageFace("byakunen_fc1",0,0,2,2)
  ShowMessage("\\n<Hakunen>There sure are a lot of spirited merchants...")
  Shop(1,104,0,0,false)
  605(1,315,0,0)
  605(1,741,0,0)
  605(2,12,0,0)
  605(2,25,0,0)
  605(2,137,0,0)
  605(2,189,0,0)
  605(2,250,0,0)
  605(2,264,0,0)
  605(2,274,0,0)
  605(2,286,0,0)
  0()



EVENT   31
 PAGE   1
  If(0,2913,1)
   ShowMessageFace("",0,0,2,1)
   ShowMessage("\\n<Guard>W-What strength! You have to run, hurry up...!")
   0()
  Else()
   ShowMessageFace("",0,0,2,2)
   ShowMessage("\\n<Guard>Y-You saved me. You don't seem to be from this village.")
   ShowMessageFace("",0,0,2,3)
   ShowMessage("\\n<Guard>You look like you're unlucky travelers, but I definitely saw how strong you were. Please, get out safely and call for help.")
   0()
  EndIf()
  0()



EVENT   42
 PAGE   1
  ShowMessageFace("",0,0,2,1)
  ShowMessage("\\n<Warrior>Huff, huff... Running away is all I can do...")
  0()



EVENT   33
 PAGE   1
  ShowMessageFace("",0,0,2,1)
  ShowMessage("\\n<Youth>Huff, huff... You saved me...\nAre you a hero? You're very strong.")
  ShowMessageFace("",0,0,2,2)
  ShowMessage("\\n<Youth>Still, to think the village would be attacked...\nIs this also the work of the Monster Lord...?")
  ShowMessageFace("kazuya_fc2",2,0,2,3)
  ShowMessage("\\n<Kazuya>(Monster Lord? I see, so this world also has a Demon King... But this case doesn't seem to have anything to do with them.)")
  0()



EVENT   50
 PAGE   1
  250(bytes(0x04,0x08,0x6f,0x3a,0x0c,0x52,0x50,0x47,0x3a,0x3a,0x53,0x45,0x08,0x3a,0x0a,0x40,0x6e,0x61,0x6d,0x65,0x49,0x22,0x0a,0x49,0x74,0x65,0x6d,0x31,0x06,0x3a,0x06,0x45,0x54,0x3a,0x0b,0x40,0x70,0x69,0x74,0x63,0x68,0x69,0x69,0x3a,0x0c,0x40,0x76,0x6f,0x6c,0x75,0x6d,0x65,0x69,0x55))
  ChangeSelfSwitch("A",0)
  ChangeInventory_Item(77,0,0,1)
  0()
 PAGE   2
  // condition: self-switch A is ON
  0()



EVENT   51
 PAGE   1
  250(bytes(0x04,0x08,0x6f,0x3a,0x0c,0x52,0x50,0x47,0x3a,0x3a,0x53,0x45,0x08,0x3a,0x0a,0x40,0x6e,0x61,0x6d,0x65,0x49,0x22,0x0a,0x49,0x74,0x65,0x6d,0x31,0x06,0x3a,0x06,0x45,0x54,0x3a,0x0b,0x40,0x70,0x69,0x74,0x63,0x68,0x69,0x69,0x3a,0x0c,0x40,0x76,0x6f,0x6c,0x75,0x6d,0x65,0x69,0x55))
  ChangeSelfSwitch("A",0)
  ChangeInventory_Item(16,0,0,1)
  0()
 PAGE   2
  // condition: self-switch A is ON
  0()



EVENT   52
 PAGE   1
  250(bytes(0x04,0x08,0x6f,0x3a,0x0c,0x52,0x50,0x47,0x3a,0x3a,0x53,0x45,0x08,0x3a,0x0a,0x40,0x6e,0x61,0x6d,0x65,0x49,0x22,0x0a,0x49,0x74,0x65,0x6d,0x31,0x06,0x3a,0x06,0x45,0x54,0x3a,0x0b,0x40,0x70,0x69,0x74,0x63,0x68,0x69,0x69,0x3a,0x0c,0x40,0x76,0x6f,0x6c,0x75,0x6d,0x65,0x69,0x55))
  ChangeSelfSwitch("A",0)
  ChangeInventory_Item(5,0,0,1)
  0()
 PAGE   2
  // condition: self-switch A is ON
  0()



EVENT   32
 PAGE   1
  0()



EVENT   21
 PAGE   1
  0()



EVENT   10
 PAGE   1
  0()



EVENT   14
 PAGE   1
  250(bytes(0x04,0x08,0x6f,0x3a,0x0c,0x52,0x50,0x47,0x3a,0x3a,0x53,0x45,0x08,0x3a,0x0a,0x40,0x6e,0x61,0x6d,0x65,0x49,0x22,0x09,0x4d,0x6f,0x76,0x65,0x06,0x3a,0x06,0x45,0x54,0x3a,0x0b,0x40,0x70,0x69,0x74,0x63,0x68,0x69,0x69,0x3a,0x0c,0x40,0x76,0x6f,0x6c,0x75,0x6d,0x65,0x69,0x55))
  TeleportPlayer(0,847,66,152,0,0)
  0()



EVENT   9
 PAGE   1
  250(bytes(0x04,0x08,0x6f,0x3a,0x0c,0x52,0x50,0x47,0x3a,0x3a,0x53,0x45,0x08,0x3a,0x0a,0x40,0x6e,0x61,0x6d,0x65,0x49,0x22,0x09,0x4d,0x6f,0x76,0x65,0x06,0x3a,0x06,0x45,0x54,0x3a,0x0b,0x40,0x70,0x69,0x74,0x63,0x68,0x69,0x69,0x3a,0x0c,0x40,0x76,0x6f,0x6c,0x75,0x6d,0x65,0x69,0x55))
  TeleportPlayer(0,847,17,48,0,0)
  ChangeSwitch(31,31,1)
  0()



EVENT   11
 PAGE   1
  250(bytes(0x04,0x08,0x6f,0x3a,0x0c,0x52,0x50,0x47,0x3a,0x3a,0x53,0x45,0x08,0x3a,0x0a,0x40,0x6e,0x61,0x6d,0x65,0x49,0x22,0x09,0x4d,0x6f,0x76,0x65,0x06,0x3a,0x06,0x45,0x54,0x3a,0x0b,0x40,0x70,0x69,0x74,0x63,0x68,0x69,0x69,0x3a,0x0c,0x40,0x76,0x6f,0x6c,0x75,0x6d,0x65,0x69,0x55))
  TeleportPlayer(0,847,16,27,0,0)
  0()



EVENT   12
 PAGE   1
  250(bytes(0x04,0x08,0x6f,0x3a,0x0c,0x52,0x50,0x47,0x3a,0x3a,0x53,0x45,0x08,0x3a,0x0a,0x40,0x6e,0x61,0x6d,0x65,0x49,0x22,0x09,0x4d,0x6f,0x76,0x65,0x06,0x3a,0x06,0x45,0x54,0x3a,0x0b,0x40,0x70,0x69,0x74,0x63,0x68,0x69,0x69,0x3a,0x0c,0x40,0x76,0x6f,0x6c,0x75,0x6d,0x65,0x69,0x55))
  TeleportPlayer(0,847,17,27,0,0)
  0()



EVENT   38
 PAGE   1
  ShowMessageFace("",0,0,2,1)
  ShowMessage("\\n<Guard>Gh! This doll is very powerful...!")
  ShowMessageFace("mukuro_fc1",0,0,2,2)
  ShowMessage("\\n<Mukuro>Why do you resist?\nDon't you want to die with me...?")
  ShowMessageFace("kazuya_fc2",2,0,2,3)
  ShowMessage("\\n<Kazuya>Stop it, Mukuro!")
  205(0,bytes(0x04,0x08,0x6f,0x3a,0x13,0x52,0x50,0x47,0x3a,0x3a,0x4d,0x6f,0x76,0x65,0x52,0x6f,0x75,0x74,0x65,0x09,0x3a,0x0c,0x40,0x72,0x65,0x70,0x65,0x61,0x74,0x46,0x3a,0x0f,0x40,0x73,0x6b,0x69,0x70,0x70,0x61,0x62,0x6c,0x65,0x46,0x3a,0x0a,0x40,0x77,0x61,0x69,0x74,0x54,0x3a,0x0a,0x40,0x6c,0x69,0x73,0x74,0x5b,0x08,0x6f,0x3a,0x15,0x52,0x50,0x47,0x3a,0x3a,0x4d,0x6f,0x76,0x65,0x43,0x6f,0x6d,0x6d,0x61,0x6e,0x64,0x07,0x3a,0x0a,0x40,0x63,0x6f,0x64,0x65,0x69,0x29,0x3a,0x10,0x40,0x70,0x61,0x72,0x61,0x6d,0x65,0x74,0x65,0x72,0x73,0x5b,0x00,0x6f,0x3b,0x0a,0x07,0x3b,0x0b,0x69,0x1e,0x3b,0x0c,0x5b,0x00,0x6f,0x3b,0x0a,0x07,0x3b,0x0b,0x69,0x00,0x3b,0x0c,0x5b,0x00))
  PictureDisplay(5,"80_mukuro_st01",0,0,0,0,100,100,0,0)
  PictureMove(5,null,0,0,0,0,100,100,255,0,30,true)
  ShowMessageFace("mukuro_fc1",0,0,2,4)
  ShowMessage("\\n<Mukuro>You, do you want to be with me until death do us part? Then let's do it...")
  PictureClear(5)
  Battle(0,1350,false,false)
  ChangeSwitch(2913,2913,0)
  ShowMessageFace("",0,0,2,5)
  ShowMessage("\\n<Guard>Y-You saved me.\nYou don't seem to be from this village.")
  ShowMessageFace("",0,0,2,6)
  ShowMessage("\\n<Guard>You look like unlucky travelers, but I definitely saw how strong you were.\nPlease, get out safely and call for help.")
  ShowMessageFace("byakunen_fc1",0,0,2,7)
  ShowMessage("\\n<Hakunen>Yes, leave it to us.")
  0()
 PAGE   2
  // condition: switch 2913 is ON
  0()



EVENT   54
 PAGE   1
  0()
 PAGE   2
  // condition: variable 1206 >= 2
  0()



EVENT   30
 PAGE   1
  0()
 PAGE   2
  // condition: variable 1206 >= 3
  PictureDisplay(5,"80_nemea_st01",0,0,0,0,100,100,0,0)
  PictureMove(5,null,0,0,0,0,100,100,255,0,30,true)
  ShowMessageFace("nemea_fc1",0,0,2,1)
  ShowMessage("\\n<Nemea>Ufufu... I caught you. ♥")
  250(bytes(0x04,0x08,0x6f,0x3a,0x0c,0x52,0x50,0x47,0x3a,0x3a,0x53,0x45,0x08,0x3a,0x0a,0x40,0x6e,0x61,0x6d,0x65,0x49,0x22,0x0a,0x44,0x6f,0x77,0x6e,0x31,0x06,0x3a,0x06,0x45,0x54,0x3a,0x0b,0x40,0x70,0x69,0x74,0x63,0x68,0x69,0x69,0x3a,0x0c,0x40,0x76,0x6f,0x6c,0x75,0x6d,0x65,0x69,0x55))
  ShowMessageFace("",0,0,2,2)
  ShowMessage("I was caught by Nemea...")
  241(bytes(0x04,0x08,0x6f,0x3a,0x0d,0x52,0x50,0x47,0x3a,0x3a,0x42,0x47,0x4d,0x08,0x3a,0x0a,0x40,0x6e,0x61,0x6d,0x65,0x49,0x22,0x09,0x65,0x72,0x6f,0x31,0x06,0x3a,0x06,0x45,0x54,0x3a,0x0c,0x40,0x76,0x6f,0x6c,0x75,0x6d,0x65,0x69,0x69,0x3a,0x0b,0x40,0x70,0x69,0x74,0x63,0x68,0x69,0x69))
  PictureDisplay(5,"80_nemea_st06",0,0,0,0,100,100,255,0)
  ShowMessageFace("nemea_fc1",5,0,2,3)
  ShowMessage("\\n<Nemea>Don't be scared... big sis will gently make you pass away...♥")
  ShowMessageFace("kazuya_fc2",3,0,2,4)
  ShowMessage("\\n<Kazuya>S-Stop... Uwhaaaa!!!")
  221()
  PictureClear(5)
  RunCommonEvent(104)
  RunCommonEvent(105)
  ShowMessageFace("kazuya_fc2",3,0,2,5)
  ShowMessage("\\n<Kazuya>Ah... ahh...")
  ShowMessageFace("nemea_fc1",5,0,2,6)
  ShowMessage("\\n<Nemea>Ufufu, you were delicious...♥")
  242(1)
  Wait(120)
  ShowMessageFace("",0,0,2,7)
  ShowMessage("・・・・・・・・")
  RunCommonEvent(2999)
  0()



EVENT   34
 PAGE   1
  0()
 PAGE   2
  // condition: switch 31 is ON
  0()



EVENT   35
 PAGE   1
  281(1)
  250(bytes(0x04,0x08,0x6f,0x3a,0x0c,0x52,0x50,0x47,0x3a,0x3a,0x53,0x45,0x08,0x3a,0x0a,0x40,0x6e,0x61,0x6d,0x65,0x49,0x22,0x09,0x4d,0x6f,0x76,0x65,0x06,0x3a,0x06,0x45,0x54,0x3a,0x0b,0x40,0x70,0x69,0x74,0x63,0x68,0x69,0x69,0x3a,0x0c,0x40,0x76,0x6f,0x6c,0x75,0x6d,0x65,0x69,0x55))
  TeleportPlayer(0,936,14,25,0,0)
  216(0)
  241(bytes(0x04,0x08,0x6f,0x3a,0x0d,0x52,0x50,0x47,0x3a,0x3a,0x42,0x47,0x4d,0x08,0x3a,0x0a,0x40,0x6e,0x61,0x6d,0x65,0x49,0x22,0x16,0x64,0x75,0x6e,0x67,0x65,0x6f,0x6e,0x5f,0x74,0x61,0x72,0x75,0x74,0x61,0x72,0x6f,0x31,0x06,0x3a,0x06,0x45,0x54,0x3a,0x0c,0x40,0x76,0x6f,0x6c,0x75,0x6d,0x65,0x69,0x69,0x3a,0x0b,0x40,0x70,0x69,0x74,0x63,0x68,0x69,0x69))
  ChangeVariable(1206,1206,0,0,5)
  ShowMessageFace("kazuya_fc2",2,0,2,1)
  ShowMessage("\\n<Kazuya>She's not coming... Looks like we got away.")
  ShowMessageFace("byakunen_fc1",2,0,2,2)
  ShowMessage("\\n<Hakunen>I feel like that person was only looking at me...\nAm I being too self-conscious?")
  ShowMessageFace("lanpass_fc2",3,0,2,3)
  ShowMessage("\\n<Lampas>No, she really was staring at you fixedly...\nShe even licked her lips.")
  ShowMessageFace("youkosan_fc1",0,0,2,4)
  ShowMessage("\\n<Dream Fox>Looks like she likes you. Congratulations!")
  ShowMessageFace("byakunen_fc2",5,0,2,5)
  ShowMessage("\\n<Hakunen>There is nothing to be happy about...")
  ChangeSaveEnabled(1)
  EndEventProcessing()
  0()



EVENT   37
 PAGE   1
  281(1)
  250(bytes(0x04,0x08,0x6f,0x3a,0x0c,0x52,0x50,0x47,0x3a,0x3a,0x53,0x45,0x08,0x3a,0x0a,0x40,0x6e,0x61,0x6d,0x65,0x49,0x22,0x09,0x4d,0x6f,0x76,0x65,0x06,0x3a,0x06,0x45,0x54,0x3a,0x0b,0x40,0x70,0x69,0x74,0x63,0x68,0x69,0x69,0x3a,0x0c,0x40,0x76,0x6f,0x6c,0x75,0x6d,0x65,0x69,0x55))
  TeleportPlayer(0,847,63,67,0,0)
  RunCommonEvent(536)
  0()



EVENT   39
 PAGE   1
  ShowMessageFace("kazuya_fc2",3,0,2,1)
  ShowMessage("\\n<Kazuya>If we go back, we're dead!")
  205(-1,bytes(0x04,0x08,0x6f,0x3a,0x13,0x52,0x50,0x47,0x3a,0x3a,0x4d,0x6f,0x76,0x65,0x52,0x6f,0x75,0x74,0x65,0x09,0x3a,0x0c,0x40,0x72,0x65,0x70,0x65,0x61,0x74,0x46,0x3a,0x0f,0x40,0x73,0x6b,0x69,0x70,0x70,0x61,0x62,0x6c,0x65,0x46,0x3a,0x0a,0x40,0x77,0x61,0x69,0x74,0x54,0x3a,0x0a,0x40,0x6c,0x69,0x73,0x74,0x5b,0x07,0x6f,0x3a,0x15,0x52,0x50,0x47,0x3a,0x3a,0x4d,0x6f,0x76,0x65,0x43,0x6f,0x6d,0x6d,0x61,0x6e,0x64,0x07,0x3a,0x0a,0x40,0x63,0x6f,0x64,0x65,0x69,0x06,0x3a,0x10,0x40,0x70,0x61,0x72,0x61,0x6d,0x65,0x74,0x65,0x72,0x73,0x5b,0x00,0x6f,0x3b,0x0a,0x07,0x3b,0x0b,0x69,0x00,0x3b,0x0c,0x5b,0x00))
  EndEventProcessing()
  0()



EVENT   15
 PAGE   1
  281(1)
  250(bytes(0x04,0x08,0x6f,0x3a,0x0c,0x52,0x50,0x47,0x3a,0x3a,0x53,0x45,0x08,0x3a,0x0a,0x40,0x6e,0x61,0x6d,0x65,0x49,0x22,0x09,0x4d,0x6f,0x76,0x65,0x06,0x3a,0x06,0x45,0x54,0x3a,0x0b,0x40,0x70,0x69,0x74,0x63,0x68,0x69,0x69,0x3a,0x0c,0x40,0x76,0x6f,0x6c,0x75,0x6d,0x65,0x69,0x55))
  TeleportPlayer(0,847,63,67,0,0)
  RunCommonEvent(536)
  0()



EVENT   36
 PAGE   1
  281(1)
  250(bytes(0x04,0x08,0x6f,0x3a,0x0c,0x52,0x50,0x47,0x3a,0x3a,0x53,0x45,0x08,0x3a,0x0a,0x40,0x6e,0x61,0x6d,0x65,0x49,0x22,0x09,0x4d,0x6f,0x76,0x65,0x06,0x3a,0x06,0x45,0x54,0x3a,0x0b,0x40,0x70,0x69,0x74,0x63,0x68,0x69,0x69,0x3a,0x0c,0x40,0x76,0x6f,0x6c,0x75,0x6d,0x65,0x69,0x55))
  TeleportPlayer(0,847,63,67,0,0)
  RunCommonEvent(536)
  0()



EVENT   40
 PAGE   1
  PictureDisplay(5,"80_vinum_st03",0,0,0,0,100,100,0,0)
  PictureMove(5,null,0,0,0,0,100,100,255,0,30,true)
  ShowMessageFace("vinum_fc1",2,0,2,1)
  ShowMessage("\\n<Vinum>To think you would talk to me of your own volition...\nYou seem to be tired of living.")
  221()
  PictureClear(5)
  RunCommonEvent(104)
  RunCommonEvent(105)
  ShowMessageFace("kazuya_fc2",3,0,2,2)
  ShowMessage("\\n<Kazuya>Ah... ahh...")
  ShowMessageFace("vinum_fc1",0,0,2,3)
  ShowMessage("\\n<Vinum>Reading while sipping on high-quality semen...\nFumu, it's not bad at all.")
  242(1)
  Wait(120)
  ShowMessageFace("",0,0,2,4)
  ShowMessage("・・・・・・・・")
  RunCommonEvent(2999)
  0()



EVENT   41
 PAGE   1
  250(bytes(0x04,0x08,0x6f,0x3a,0x0c,0x52,0x50,0x47,0x3a,0x3a,0x53,0x45,0x08,0x3a,0x0a,0x40,0x6e,0x61,0x6d,0x65,0x49,0x22,0x0e,0x6d,0x6f,0x6e,0x5f,0x64,0x6f,0x6f,0x72,0x31,0x06,0x3a,0x06,0x45,0x54,0x3a,0x0b,0x40,0x70,0x69,0x74,0x63,0x68,0x69,0x69,0x3a,0x0c,0x40,0x76,0x6f,0x6c,0x75,0x6d,0x65,0x69,0x69))
  205(0,bytes(0x04,0x08,0x6f,0x3a,0x13,0x52,0x50,0x47,0x3a,0x3a,0x4d,0x6f,0x76,0x65,0x52,0x6f,0x75,0x74,0x65,0x09,0x3a,0x0c,0x40,0x72,0x65,0x70,0x65,0x61,0x74,0x46,0x3a,0x0f,0x40,0x73,0x6b,0x69,0x70,0x70,0x61,0x62,0x6c,0x65,0x46,0x3a,0x0a,0x40,0x77,0x61,0x69,0x74,0x46,0x3a,0x0a,0x40,0x6c,0x69,0x73,0x74,0x5b,0x0c,0x6f,0x3a,0x15,0x52,0x50,0x47,0x3a,0x3a,0x4d,0x6f,0x76,0x65,0x43,0x6f,0x6d,0x6d,0x61,0x6e,0x64,0x07,0x3a,0x0a,0x40,0x63,0x6f,0x64,0x65,0x69,0x16,0x3a,0x10,0x40,0x70,0x61,0x72,0x61,0x6d,0x65,0x74,0x65,0x72,0x73,0x5b,0x00,0x6f,0x3b,0x0a,0x07,0x3b,0x0b,0x69,0x14,0x3b,0x0c,0x5b,0x06,0x69,0x08,0x6f,0x3b,0x0a,0x07,0x3b,0x0b,0x69,0x17,0x3b,0x0c,0x5b,0x00,0x6f,0x3b,0x0a,0x07,0x3b,0x0b,0x69,0x14,0x3b,0x0c,0x5b,0x06,0x69,0x08,0x6f,0x3b,0x0a,0x07,0x3b,0x0b,0x69,0x18,0x3b,0x0c,0x5b,0x00,0x6f,0x3b,0x0a,0x07,0x3b,0x0b,0x69,0x2a,0x3b,0x0c,0x5b,0x00,0x6f,0x3b,0x0a,0x07,0x3b,0x0b,0x69,0x00,0x3b,0x0c,0x5b,0x00))
  Wait(20)
  250(bytes(0x04,0x08,0x6f,0x3a,0x0c,0x52,0x50,0x47,0x3a,0x3a,0x53,0x45,0x08,0x3a,0x0a,0x40,0x6e,0x61,0x6d,0x65,0x49,0x22,0x0f,0x6d,0x6f,0x6e,0x5f,0x62,0x72,0x65,0x61,0x6b,0x37,0x06,0x3a,0x06,0x45,0x54,0x3a,0x0b,0x40,0x70,0x69,0x74,0x63,0x68,0x69,0x69,0x3a,0x0c,0x40,0x76,0x6f,0x6c,0x75,0x6d,0x65,0x69,0x69))
  Wait(60)
  ShowMessageFace("kazuya_fc2",3,0,2,1)
  ShowMessage("\\n<Kazuya>What the hell is this door!?\nThere is something wrong with it!")
  ChangeSwitch(2922,2922,0)
  RunCommonEvent(514)
  0()



EVENT   46
 PAGE   1
  281(1)
  250(bytes(0x04,0x08,0x6f,0x3a,0x0c,0x52,0x50,0x47,0x3a,0x3a,0x53,0x45,0x08,0x3a,0x0a,0x40,0x6e,0x61,0x6d,0x65,0x49,0x22,0x09,0x4d,0x6f,0x76,0x65,0x06,0x3a,0x06,0x45,0x54,0x3a,0x0b,0x40,0x70,0x69,0x74,0x63,0x68,0x69,0x69,0x3a,0x0c,0x40,0x76,0x6f,0x6c,0x75,0x6d,0x65,0x69,0x55))
  TeleportPlayer(0,847,44,31,2,0)
  0()



EVENT   53
 PAGE   1
  281(1)
  250(bytes(0x04,0x08,0x6f,0x3a,0x0c,0x52,0x50,0x47,0x3a,0x3a,0x53,0x45,0x08,0x3a,0x0a,0x40,0x6e,0x61,0x6d,0x65,0x49,0x22,0x09,0x4d,0x6f,0x76,0x65,0x06,0x3a,0x06,0x45,0x54,0x3a,0x0b,0x40,0x70,0x69,0x74,0x63,0x68,0x69,0x69,0x3a,0x0c,0x40,0x76,0x6f,0x6c,0x75,0x6d,0x65,0x69,0x55))
  TeleportPlayer(0,936,37,19,0,0)
  0()



EVENT   19
 PAGE   1
  RunCommonEvent(537)
  0()
 PAGE   2
  // condition: switch 2922 is ON
  RunCommonEvent(537)
  0()



EVENT   20
 PAGE   1
  281(1)
  250(bytes(0x04,0x08,0x6f,0x3a,0x0c,0x52,0x50,0x47,0x3a,0x3a,0x53,0x45,0x08,0x3a,0x0a,0x40,0x6e,0x61,0x6d,0x65,0x49,0x22,0x09,0x4d,0x6f,0x76,0x65,0x06,0x3a,0x06,0x45,0x54,0x3a,0x0b,0x40,0x70,0x69,0x74,0x63,0x68,0x69,0x69,0x3a,0x0c,0x40,0x76,0x6f,0x6c,0x75,0x6d,0x65,0x69,0x55))
  TeleportPlayer(0,847,11,116,0,0)
  0()



EVENT   45
 PAGE   1
  ShowMessageFace("kazuya_fc2",2,0,2,1)
  ShowMessage("\\n<Kazuya>I better not go back to that library...")
  205(-1,bytes(0x04,0x08,0x6f,0x3a,0x13,0x52,0x50,0x47,0x3a,0x3a,0x4d,0x6f,0x76,0x65,0x52,0x6f,0x75,0x74,0x65,0x09,0x3a,0x0c,0x40,0x72,0x65,0x70,0x65,0x61,0x74,0x46,0x3a,0x0f,0x40,0x73,0x6b,0x69,0x70,0x70,0x61,0x62,0x6c,0x65,0x46,0x3a,0x0a,0x40,0x77,0x61,0x69,0x74,0x54,0x3a,0x0a,0x40,0x6c,0x69,0x73,0x74,0x5b,0x07,0x6f,0x3a,0x15,0x52,0x50,0x47,0x3a,0x3a,0x4d,0x6f,0x76,0x65,0x43,0x6f,0x6d,0x6d,0x61,0x6e,0x64,0x07,0x3a,0x0a,0x40,0x63,0x6f,0x64,0x65,0x69,0x09,0x3a,0x10,0x40,0x70,0x61,0x72,0x61,0x6d,0x65,0x74,0x65,0x72,0x73,0x5b,0x00,0x6f,0x3b,0x0a,0x07,0x3b,0x0b,0x69,0x00,0x3b,0x0c,0x5b,0x00))
  0()



EVENT   55
 PAGE   1
  0()
 PAGE   2
  // condition: variable 1206 >= 8
  0()



EVENT   56
 PAGE   1
  ShowMessageFace("",0,0,2,1)
  ShowMessage("Mukuro doesn't react at all.\nIt seems she has stopped functioning...")
  0()



EVENT   67
 PAGE   1
  281(1)
  250(bytes(0x04,0x08,0x6f,0x3a,0x0c,0x52,0x50,0x47,0x3a,0x3a,0x53,0x45,0x08,0x3a,0x0a,0x40,0x6e,0x61,0x6d,0x65,0x49,0x22,0x09,0x4d,0x6f,0x76,0x65,0x06,0x3a,0x06,0x45,0x54,0x3a,0x0b,0x40,0x70,0x69,0x74,0x63,0x68,0x69,0x69,0x3a,0x0c,0x40,0x76,0x6f,0x6c,0x75,0x6d,0x65,0x69,0x55))
  TeleportPlayer(0,936,23,30,0,0)
  0()



EVENT   68
 PAGE   1
  250(bytes(0x04,0x08,0x6f,0x3a,0x0c,0x52,0x50,0x47,0x3a,0x3a,0x53,0x45,0x08,0x3a,0x0a,0x40,0x6e,0x61,0x6d,0x65,0x49,0x22,0x09,0x4d,0x6f,0x76,0x65,0x06,0x3a,0x06,0x45,0x54,0x3a,0x0b,0x40,0x70,0x69,0x74,0x63,0x68,0x69,0x69,0x3a,0x0c,0x40,0x76,0x6f,0x6c,0x75,0x6d,0x65,0x69,0x55))
  TeleportPlayer(0,847,53,58,0,0)
  0()



EVENT   69
 PAGE   1
  0()
 PAGE   2
  // condition: variable 1206 >= 9
  PictureDisplay(5,"80_vinum_st05",0,0,0,0,100,100,0,0)
  PictureMove(5,null,0,0,0,0,100,100,255,0,30,true)
  ShowMessageFace("vinum_fc1",4,0,2,1)
  ShowMessage("\\n<Vinum>Kufufu... There is no escape.")
  250(bytes(0x04,0x08,0x6f,0x3a,0x0c,0x52,0x50,0x47,0x3a,0x3a,0x53,0x45,0x08,0x3a,0x0a,0x40,0x6e,0x61,0x6d,0x65,0x49,0x22,0x0a,0x44,0x6f,0x77,0x6e,0x31,0x06,0x3a,0x06,0x45,0x54,0x3a,0x0b,0x40,0x70,0x69,0x74,0x63,0x68,0x69,0x69,0x3a,0x0c,0x40,0x76,0x6f,0x6c,0x75,0x6d,0x65,0x69,0x55))
  ShowMessageFace("",0,0,2,2)
  ShowMessage("I was caught by Vinum...")
  241(bytes(0x04,0x08,0x6f,0x3a,0x0d,0x52,0x50,0x47,0x3a,0x3a,0x42,0x47,0x4d,0x08,0x3a,0x0a,0x40,0x6e,0x61,0x6d,0x65,0x49,0x22,0x09,0x65,0x72,0x6f,0x31,0x06,0x3a,0x06,0x45,0x54,0x3a,0x0c,0x40,0x76,0x6f,0x6c,0x75,0x6d,0x65,0x69,0x69,0x3a,0x0b,0x40,0x70,0x69,0x74,0x63,0x68,0x69,0x69))
  ShowMessageFace("vinum_fc1",4,0,2,3)
  ShowMessage("\\n<Vinum>And now... I shall devour you.")
  ShowMessageFace("kazuya_fc2",3,0,2,4)
  ShowMessage("\\n<Kazuya>S-Stop... Uwhaaaa!!!")
  221()
  PictureClear(5)
  RunCommonEvent(104)
  RunCommonEvent(105)
  ShowMessageFace("kazuya_fc2",3,0,2,5)
  ShowMessage("\\n<Kazuya>Ah... ahh...")
  ShowMessageFace("vinum_fc1",4,0,2,6)
  ShowMessage("\\n<Vinum>...Fumu, that was really delicious.")
  242(1)
  Wait(120)
  ShowMessageFace("",0,0,2,7)
  ShowMessage("・・・・・・・・")
  RunCommonEvent(2999)
  0()



EVENT   70
 PAGE   1
  ChangeSaveEnabled(1)
  250(bytes(0x04,0x08,0x6f,0x3a,0x0c,0x52,0x50,0x47,0x3a,0x3a,0x53,0x45,0x08,0x3a,0x0a,0x40,0x6e,0x61,0x6d,0x65,0x49,0x22,0x09,0x4d,0x6f,0x76,0x65,0x06,0x3a,0x06,0x45,0x54,0x3a,0x0b,0x40,0x70,0x69,0x74,0x63,0x68,0x69,0x69,0x3a,0x0c,0x40,0x76,0x6f,0x6c,0x75,0x6d,0x65,0x69,0x55))
  TeleportPlayer(0,936,18,28,2,0)
  ChangeVariable(1206,1206,0,0,10)
  ChangeSwitch(31,31,1)
  ChangeSwitch(32,32,1)
  ChangeSwitch(33,33,1)
  0()



EVENT   72
 PAGE   1
  205(-1,bytes(0x04,0x08,0x6f,0x3a,0x13,0x52,0x50,0x47,0x3a,0x3a,0x4d,0x6f,0x76,0x65,0x52,0x6f,0x75,0x74,0x65,0x09,0x3a,0x0c,0x40,0x72,0x65,0x70,0x65,0x61,0x74,0x46,0x3a,0x0f,0x40,0x73,0x6b,0x69,0x70,0x70,0x61,0x62,0x6c,0x65,0x46,0x3a,0x0a,0x40,0x77,0x61,0x69,0x74,0x54,0x3a,0x0a,0x40,0x6c,0x69,0x73,0x74,0x5b,0x08,0x6f,0x3a,0x15,0x52,0x50,0x47,0x3a,0x3a,0x4d,0x6f,0x76,0x65,0x43,0x6f,0x6d,0x6d,0x61,0x6e,0x64,0x07,0x3a,0x0a,0x40,0x63,0x6f,0x64,0x65,0x69,0x09,0x3a,0x10,0x40,0x70,0x61,0x72,0x61,0x6d,0x65,0x74,0x65,0x72,0x73,0x5b,0x00,0x6f,0x3b,0x0a,0x07,0x3b,0x0b,0x69,0x17,0x3b,0x0c,0x5b,0x00,0x6f,0x3b,0x0a,0x07,0x3b,0x0b,0x69,0x00,0x3b,0x0c,0x5b,0x00))
  241(bytes(0x04,0x08,0x6f,0x3a,0x0d,0x52,0x50,0x47,0x3a,0x3a,0x42,0x47,0x4d,0x08,0x3a,0x0a,0x40,0x6e,0x61,0x6d,0x65,0x49,0x22,0x0a,0x6b,0x69,0x6b,0x69,0x32,0x06,0x3a,0x06,0x45,0x54,0x3a,0x0c,0x40,0x76,0x6f,0x6c,0x75,0x6d,0x65,0x69,0x69,0x3a,0x0b,0x40,0x70,0x69,0x74,0x63,0x68,0x69,0x69))
  ShowSpeechBalloon(-1,1,false)
  ShowMessageFace("",0,0,2,1)
  ShowMessage("\\n<Villager>What's this doll... Uwhaaa!!")
  ShowMessageFace("mukuro_fc1",0,0,2,2)
  ShowMessage("\\n<Mukuro A>Are you the one who will die with me...?")
  ShowMessageFace("",0,0,2,3)
  ShowMessage("\\n<Guard>Don't come... Eeeeeek!!")
  ShowMessageFace("mukuro_fc1",0,0,2,4)
  ShowMessage("\\n<Mukuro B>With my functions, you will have a taste of heaven as you die...")
  ShowMessageFace("",0,0,2,5)
  ShowMessage("Attacked and chased by countless dolls...\nAnd then raped. This truly is a painting of a scene in Hell.")
  ShowMessageFace("",0,0,2,6)
  ShowMessage("Moreover, the dolls attacking those people are-")
  ShowMessageFace("kazuya_fc2",3,0,2,7)
  ShowMessage("\\n<Kazuya>No way, Mukuro...!?\nNo... They have the same appearance, but this isn't her...")
  ShowMessageFace("byakunen_fc1",2,0,2,8)
  ShowMessage("\\n<Hakunen>Kazuya, do you know those dolls?")
  ShowMessageFace("kazuya_fc2",2,0,2,9)
  ShowMessage("\\n<Kazuya>This is Mukuro, a demon full of hatred who's taken control of a milking doll.\nBut the girls in front of us are different...")
  ShowMessageFace("byakunen_fc1",2,0,2,10)
  ShowMessage("\\n<Hakunen>What do you mean by that-")
  ShowMessageFace("",0,0,2,11)
  ShowMessage("\\n<Guard>Uwhaaa!!")
  ShowMessageFace("kazuya_fc2",2,0,2,12)
  ShowMessage("\\n<Kazuya>Now is not the time to talk!\nLet's help the residents who are under attack!")
  ShowMessageFace("byakunen_fc1",0,0,2,13)
  ShowMessage("\\n<Hakunen>Yes...!")
  205(-1,bytes(0x04,0x08,0x6f,0x3a,0x13,0x52,0x50,0x47,0x3a,0x3a,0x4d,0x6f,0x76,0x65,0x52,0x6f,0x75,0x74,0x65,0x09,0x3a,0x0c,0x40,0x72,0x65,0x70,0x65,0x61,0x74,0x46,0x3a,0x0f,0x40,0x73,0x6b,0x69,0x70,0x70,0x61,0x62,0x6c,0x65,0x46,0x3a,0x0a,0x40,0x77,0x61,0x69,0x74,0x54,0x3a,0x0a,0x40,0x6c,0x69,0x73,0x74,0x5b,0x0c,0x6f,0x3a,0x15,0x52,0x50,0x47,0x3a,0x3a,0x4d,0x6f,0x76,0x65,0x43,0x6f,0x6d,0x6d,0x61,0x6e,0x64,0x07,0x3a,0x0a,0x40,0x63,0x6f,0x64,0x65,0x69,0x22,0x3a,0x10,0x40,0x70,0x61,0x72,0x61,0x6d,0x65,0x74,0x65,0x72,0x73,0x5b,0x06,0x69,0x0a,0x6f,0x3b,0x0a,0x07,0x3b,0x0b,0x69,0x23,0x3b,0x0c,0x5b,0x06,0x69,0x09,0x6f,0x3b,0x0a,0x07,0x3b,0x0b,0x69,0x08,0x3b,0x0c,0x5b,0x00,0x6f,0x3b,0x0a,0x07,0x3b,0x0b,0x69,0x08,0x3b,0x0c,0x5b,0x00,0x6f,0x3b,0x0a,0x07,0x3b,0x0b,0x69,0x22,0x3b,0x0c,0x5b,0x06,0x69,0x09,0x6f,0x3b,0x0a,0x07,0x3b,0x0b,0x69,0x23,0x3b,0x0c,0x5b,0x06,0x69,0x08,0x6f,0x3b,0x0a,0x07,0x3b,0x0b,0x69,0x00,0x3b,0x0c,0x5b,0x00))
  205(54,bytes(0x04,0x08,0x6f,0x3a,0x13,0x52,0x50,0x47,0x3a,0x3a,0x4d,0x6f,0x76,0x65,0x52,0x6f,0x75,0x74,0x65,0x09,0x3a,0x0c,0x40,0x72,0x65,0x70,0x65,0x61,0x74,0x46,0x3a,0x0f,0x40,0x73,0x6b,0x69,0x70,0x70,0x61,0x62,0x6c,0x65,0x46,0x3a,0x0a,0x40,0x77,0x61,0x69,0x74,0x54,0x3a,0x0a,0x40,0x6c,0x69,0x73,0x74,0x5b,0x07,0x6f,0x3a,0x15,0x52,0x50,0x47,0x3a,0x3a,0x4d,0x6f,0x76,0x65,0x43,0x6f,0x6d,0x6d,0x61,0x6e,0x64,0x07,0x3a,0x0a,0x40,0x63,0x6f,0x64,0x65,0x69,0x16,0x3a,0x10,0x40,0x70,0x61,0x72,0x61,0x6d,0x65,0x74,0x65,0x72,0x73,0x5b,0x00,0x6f,0x3b,0x0a,0x07,0x3b,0x0b,0x69,0x00,0x3b,0x0c,0x5b,0x00))
  PictureDisplay(5,"80_mukuro_st01",0,0,0,0,100,100,0,0)
  PictureMove(5,null,0,0,0,0,100,100,255,0,30,true)
  ShowMessageFace("mukuro_fc1",0,0,2,14)
  ShowMessage("\\n<Mukuro>There was another man here...")
  ShowMessageFace("mukuro_fc1",0,0,2,15)
  ShowMessage("\\n<Mukuro>I was told I could attack the men of this place.\nI'll milk their semen out...")
  ShowMessageFace("kazuya_fc2",2,0,2,16)
  ShowMessage("\\n<Kazuya>Mukuro, don't you recognize me...!?\nIt's me, Kazuya!")
  ShowMessageFace("mukuro_fc1",0,0,2,17)
  ShowMessage("\\n<Mukuro>Kazuya...?\nThere is no such name registered in my data.")
  ShowMessageFace("",0,0,2,18)
  ShowMessage("Data...!? She's just like a machine...")
  ShowMessageFace("kazuya_fc2",2,0,2,19)
  ShowMessage("\\n<Kazuya>Now it's clear.\nShe's completely different from the Mukuro I know.")
  ShowMessageFace("",0,0,2,20)
  ShowMessage("And those moves from a moment ago...\nHer agility is incomparable to when she was incomplete.")
  ShowMessageFace("kazuya_fc2",0,0,2,21)
  ShowMessage("\\n<Kazuya>It looks like her abilities have been considerably enhanced compared to the original Mukuro...\nDon't let your guard down, Hakunen!")
  ShowMessageFace("byakunen_fc1",0,0,2,22)
  ShowMessage("\\n<Hakunen>Yes! I'll fight with all I've got!")
  ShowMessageFace("mukuro_fc1",0,0,2,23)
  ShowMessage("\\n<Mukuro>Which one will die with me...?\nCome, let's perish together...")
  PictureClear(5)
  Battle(0,1350,false,false)
  ChangeVariable(1206,1206,0,0,2)
  ShowMessageFace("kazuya_fc2",2,0,2,24)
  ShowMessage("\\n<Kazuya>...")
  ShowMessageFace("",0,0,2,25)
  ShowMessage("I'm even more convinced after fighting her...")
  ShowMessage("This Mukuro is completely different from the one I know.")
  ShowMessageFace("",0,0,2,26)
  ShowMessage("Her abilities have been enhanced and her movements are mechanical... Those are very unlikely to be a demon's moves.")
  ShowMessageFace("kazuya_fc2",0,0,2,27)
  ShowMessage("\\n<Kazuya>Hakunen... Mukuro died in loneliness.\nThen, she attacked me while she was searching for a partner.")
  ShowMessageFace("byakunen_fc1",2,0,2,28)
  ShowMessage("\\n<Hakunen>A partner...?")
  ShowMessageFace("kazuya_fc2",0,0,2,29)
  ShowMessage("\\n<Kazuya>A partner to die and rest in peace with...\nAnd for that, she would use her milking functions to forcefully make a contract with her partner.")
  ShowMessageFace("kazuya_fc2",0,0,2,30)
  ShowMessage("\\n<Kazuya>...But this Mukuro is different.\nIt's as if squeezing semen out was her goal.")
  ShowMessageFace("",0,0,2,31)
  ShowMessage("Why are there several Mukuro to begin with?\nThe Mukuro I know is supposed to be the only one.")
  ShowMessageFace("",0,0,2,32)
  ShowMessage("Then there is only one thing I can come up with.\nSomeone mass-produced Mukuro's body...")
  ShowMessageFace("byakunen_fc1",0,0,2,33)
  ShowMessage("\\n<Hakunen>Kazuya, let's defeat the other Mukuro!\nWe have to help the residents!")
  ShowMessageFace("kazuya_fc2",0,0,2,34)
  ShowMessage("\\n<Kazuya>Yeah... You're right!")
  241(bytes(0x04,0x08,0x6f,0x3a,0x0d,0x52,0x50,0x47,0x3a,0x3a,0x42,0x47,0x4d,0x08,0x3a,0x0a,0x40,0x6e,0x61,0x6d,0x65,0x49,0x22,0x16,0x64,0x75,0x6e,0x67,0x65,0x6f,0x6e,0x5f,0x74,0x61,0x72,0x75,0x74,0x61,0x72,0x6f,0x31,0x06,0x3a,0x06,0x45,0x54,0x3a,0x0c,0x40,0x76,0x6f,0x6c,0x75,0x6d,0x65,0x69,0x69,0x3a,0x0b,0x40,0x70,0x69,0x74,0x63,0x68,0x69,0x69))
  EndEventProcessing()
  0()
 PAGE   2
  // condition: variable 1206 >= 2
  0()



EVENT   43
 PAGE   1
  // condition: variable 1206 >= 2
  ScrollMap(2,5,4)
  217()
  Wait(60)
  241(bytes(0x04,0x08,0x6f,0x3a,0x0d,0x52,0x50,0x47,0x3a,0x3a,0x42,0x47,0x4d,0x08,0x3a,0x0a,0x40,0x6e,0x61,0x6d,0x65,0x49,0x22,0x0c,0x62,0x6f,0x73,0x73,0x30,0x2d,0x34,0x06,0x3a,0x06,0x45,0x54,0x3a,0x0c,0x40,0x76,0x6f,0x6c,0x75,0x6d,0x65,0x69,0x69,0x3a,0x0b,0x40,0x70,0x69,0x74,0x63,0x68,0x69,0x69))
  PictureDisplay(5,"80_nemea_st01",0,0,0,0,100,100,0,0)
  PictureMove(5,null,0,0,0,0,100,100,255,0,30,true)
  ShowMessageFace("kazuya_fc2",2,0,2,1)
  ShowMessage("\\n<Kazuya>You are... Nemea!?")
  PictureDisplay(5,"80_nemea_st04",0,0,0,0,100,100,255,0)
  ShowMessageFace("nemea_fc1",3,0,2,2)
  ShowMessage("\\n<Nemea>Ara, welcome. ♥")
  ShowMessageFace("nemea_fc1",3,0,2,3)
  ShowMessage("\\n<Nemea>But wait a little bit longer.\nI'm about to finish my meal...")
  PictureClear(5)
  Wait(30)
  ShowMessageFace("",0,0,2,4)
  ShowMessage("\\n<Boy>Ahh... Fuaaah...\nI-It feels gooood...")
  ShowMessageFace("nemea_fc1",0,0,2,5)
  ShowMessage("\\n<Nemea>Ufufu, it's okay... Don't be afraid.\nAscend to heaven in peace...")
  250(bytes(0x04,0x08,0x6f,0x3a,0x0c,0x52,0x50,0x47,0x3a,0x3a,0x53,0x45,0x08,0x3a,0x0a,0x40,0x6e,0x61,0x6d,0x65,0x49,0x22,0x13,0x6d,0x6f,0x6e,0x5f,0x65,0x72,0x6f,0x5f,0x63,0x68,0x75,0x70,0x61,0x36,0x06,0x3a,0x06,0x45,0x54,0x3a,0x0b,0x40,0x70,0x69,0x74,0x63,0x68,0x69,0x69,0x3a,0x0c,0x40,0x76,0x6f,0x6c,0x75,0x6d,0x65,0x69,0x69))
  ChangeSwitch(31,31,0)
  ShowMessageFace("",0,0,2,6)
  ShowMessage("The boy in Nemea's arms is wasting away very quickly.\nWe can't save him anymore...")
  ShowMessageFace("byakunen_fc1",3,0,2,7)
  ShowMessage("\\n<Hakunen>This is... horrible...")
  ShowMessageFace("nemea_fc1",0,0,2,8)
  ShowMessage("\\n<Nemea>Ara... This isn't horrible at all.\nThis is what this child wants.")
  ShowMessageFace("nemea_fc1",0,0,2,9)
  ShowMessage("\\n<Nemea>Rather than running away in fear, he wanted to die in the sweetest of pleasures...\nHe gave up and jumped into my chest.")
  205(30,bytes(0x04,0x08,0x6f,0x3a,0x13,0x52,0x50,0x47,0x3a,0x3a,0x4d,0x6f,0x76,0x65,0x52,0x6f,0x75,0x74,0x65,0x09,0x3a,0x0c,0x40,0x72,0x65,0x70,0x65,0x61,0x74,0x46,0x3a,0x0f,0x40,0x73,0x6b,0x69,0x70,0x70,0x61,0x62,0x6c,0x65,0x46,0x3a,0x0a,0x40,0x77,0x61,0x69,0x74,0x54,0x3a,0x0a,0x40,0x6c,0x69,0x73,0x74,0x5b,0x07,0x6f,0x3a,0x15,0x52,0x50,0x47,0x3a,0x3a,0x4d,0x6f,0x76,0x65,0x43,0x6f,0x6d,0x6d,0x61,0x6e,0x64,0x07,0x3a,0x0a,0x40,0x63,0x6f,0x64,0x65,0x69,0x18,0x3a,0x10,0x40,0x70,0x61,0x72,0x61,0x6d,0x65,0x74,0x65,0x72,0x73,0x5b,0x00,0x6f,0x3b,0x0a,0x07,0x3b,0x0b,0x69,0x00,0x3b,0x0c,0x5b,0x00))
  PictureDisplay(5,"80_nemea_st01",0,0,0,0,100,100,0,0)
  PictureMove(5,null,0,0,0,0,100,100,255,0,30,true)
  ShowMessageFace("",0,0,2,10)
  ShowMessage("Nemea let go of the dried up boy's corpse.\nThen, she turned her demonic gaze toward us.")
  PictureDisplay(5,"80_nemea_st04",0,0,0,0,100,100,255,0)
  ShowMessageFace("nemea_fc1",3,0,2,11)
  ShowMessage("\\n<Nemea>Don't you also wish to be put out of your misery...?")
  ShowMessageFace("nemea_fc1",3,0,2,12)
  ShowMessage("\\n<Nemea>Isn't it scary? Isn't it painful...?\nGive up and become mine.")
  ShowMessageFace("nemea_fc1",3,0,2,13)
  ShowMessage("\\n<Nemea>If you do that, I'll give you a pleasant and peaceful death in sweet, gentle, and melting comfort...")
  ShowMessageFace("",0,0,2,14)
  ShowMessage("Those inviting eyes, this sweet fragrance.\nThe temptation is so overwhelming that an average human being would even give up their life.")
  PictureClear(5)
  ShowMessageFace("kazuya_fc2",2,0,2,15)
  ShowMessage("\\n<Kazuya>Hakunen... Don't let her fool you.")
  ShowMessageFace("byakunen_fc3",0,0,2,16)
  ShowMessage("\\n<Hakunen>Yes, of course.\nI've cultivated my spirit to resist temptation!")
  Wait(30)
  205(30,bytes(0x04,0x08,0x6f,0x3a,0x13,0x52,0x50,0x47,0x3a,0x3a,0x4d,0x6f,0x76,0x65,0x52,0x6f,0x75,0x74,0x65,0x09,0x3a,0x0c,0x40,0x72,0x65,0x70,0x65,0x61,0x74,0x46,0x3a,0x0f,0x40,0x73,0x6b,0x69,0x70,0x70,0x61,0x62,0x6c,0x65,0x46,0x3a,0x0a,0x40,0x77,0x61,0x69,0x74,0x54,0x3a,0x0a,0x40,0x6c,0x69,0x73,0x74,0x5b,0x09,0x6f,0x3a,0x15,0x52,0x50,0x47,0x3a,0x3a,0x4d,0x6f,0x76,0x65,0x43,0x6f,0x6d,0x6d,0x61,0x6e,0x64,0x07,0x3a,0x0a,0x40,0x63,0x6f,0x64,0x65,0x69,0x2a,0x3a,0x10,0x40,0x70,0x61,0x72,0x61,0x6d,0x65,0x74,0x65,0x72,0x73,0x5b,0x00,0x6f,0x3b,0x0a,0x07,0x3b,0x0b,0x69,0x09,0x3b,0x0c,0x5b,0x00,0x6f,0x3b,0x0a,0x07,0x3b,0x0b,0x69,0x2b,0x3b,0x0c,0x5b,0x00,0x6f,0x3b,0x0a,0x07,0x3b,0x0b,0x69,0x00,0x3b,0x0c,0x5b,0x00))
  ScrollMap(8,5,4)
  ShowMessageFace("nemea_fc1",5,0,2,17)
  ShowMessage("\\n<Nemea>Come here...\nI'll make you ascend to heaven as you taste the finest of pleasures.")
  ShowMessageFace("kazuya_fc2",2,0,2,18)
  ShowMessage("\\n<Kazuya>...Anyway, let's get out of here.\nIf she catches us, it's over.")
  ShowMessageFace("byakunen_fc1",0,0,2,19)
  ShowMessage("\\n<Hakunen>I'm confident when it comes to running away!\nKazuya, please run as fast as you can!")
  241(bytes(0x04,0x08,0x6f,0x3a,0x0d,0x52,0x50,0x47,0x3a,0x3a,0x42,0x47,0x4d,0x08,0x3a,0x0a,0x40,0x6e,0x61,0x6d,0x65,0x49,0x22,0x0a,0x6b,0x69,0x6b,0x69,0x31,0x06,0x3a,0x06,0x45,0x54,0x3a,0x0c,0x40,0x76,0x6f,0x6c,0x75,0x6d,0x65,0x69,0x69,0x3a,0x0b,0x40,0x70,0x69,0x74,0x63,0x68,0x69,0x69))
  250(bytes(0x04,0x08,0x6f,0x3a,0x0c,0x52,0x50,0x47,0x3a,0x3a,0x53,0x45,0x08,0x3a,0x0a,0x40,0x6e,0x61,0x6d,0x65,0x49,0x22,0x0c,0x50,0x6f,0x77,0x65,0x72,0x75,0x70,0x06,0x3a,0x06,0x45,0x54,0x3a,0x0b,0x40,0x70,0x69,0x74,0x63,0x68,0x69,0x69,0x3a,0x0c,0x40,0x76,0x6f,0x6c,0x75,0x6d,0x65,0x69,0x55))
  216(1)
  ShowMessageFace("",0,1,1,20)
  ShowMessage("Nemea is chasing you, run away from her!\nIf you get caught, it's game over!")
  Wait(30)
  ChangeVariable(1206,1206,0,0,3)
  ChangeSaveEnabled(0)
  EndEventProcessing()
  0()
 PAGE   2
  // condition: variable 1206 >= 3
  0()



EVENT   73
 PAGE   1
  // condition: variable 1206 >= 5
  241(bytes(0x04,0x08,0x6f,0x3a,0x0d,0x52,0x50,0x47,0x3a,0x3a,0x42,0x47,0x4d,0x08,0x3a,0x0a,0x40,0x6e,0x61,0x6d,0x65,0x49,0x22,0x0a,0x6b,0x69,0x6b,0x69,0x32,0x06,0x3a,0x06,0x45,0x54,0x3a,0x0c,0x40,0x76,0x6f,0x6c,0x75,0x6d,0x65,0x69,0x69,0x3a,0x0b,0x40,0x70,0x69,0x74,0x63,0x68,0x69,0x69))
  PictureDisplay(5,"80_vinum_st03",0,0,0,0,100,100,0,0)
  PictureMove(5,null,0,0,0,0,100,100,255,0,30,true)
  ShowMessageFace("vinum_fc1",2,0,2,1)
  ShowMessage("\\n<Vinum>...So it's the kids.\nLucky for you, I'm reading.")
  ShowMessageFace("",0,0,2,2)
  ShowMessage("Vinum doesn't even bother to look at us.\nIt's as if she's not interested in us...")
  ShowMessageFace("vinum_fc1",2,0,2,3)
  ShowMessage("\\n<Vinum>You better get going...\nKeep quiet and I'll let you off the hook for now.")
  PictureClear(5)
  ShowMessageFace("kazuya_fc2",2,0,2,4)
  ShowMessage("\\n<Kazuya>...")
  ShowMessageFace("byakunen_fc1",0,0,2,5)
  ShowMessage("\\n<Hakunen>...")
  ShowMessageFace("",0,0,2,6)
  ShowMessage("Hakunen and I quietly nodded to each other.\nIt seems we can pass as long as we don't disturb Vinum.")
  ShowMessageFace("",0,0,2,7)
  ShowMessage("However, making noise could interrupt her reading.\nWe have to proceed while making as little noise as possible...")
  241(bytes(0x04,0x08,0x6f,0x3a,0x0d,0x52,0x50,0x47,0x3a,0x3a,0x42,0x47,0x4d,0x08,0x3a,0x0a,0x40,0x6e,0x61,0x6d,0x65,0x49,0x22,0x16,0x64,0x75,0x6e,0x67,0x65,0x6f,0x6e,0x5f,0x74,0x61,0x72,0x75,0x74,0x61,0x72,0x6f,0x31,0x06,0x3a,0x06,0x45,0x54,0x3a,0x0c,0x40,0x76,0x6f,0x6c,0x75,0x6d,0x65,0x69,0x69,0x3a,0x0b,0x40,0x70,0x69,0x74,0x63,0x68,0x69,0x69))
  250(bytes(0x04,0x08,0x6f,0x3a,0x0c,0x52,0x50,0x47,0x3a,0x3a,0x53,0x45,0x08,0x3a,0x0a,0x40,0x6e,0x61,0x6d,0x65,0x49,0x22,0x0c,0x50,0x6f,0x77,0x65,0x72,0x75,0x70,0x06,0x3a,0x06,0x45,0x54,0x3a,0x0b,0x40,0x70,0x69,0x74,0x63,0x68,0x69,0x69,0x3a,0x0c,0x40,0x76,0x6f,0x6c,0x75,0x6d,0x65,0x69,0x55))
  ShowMessageFace("",0,1,1,8)
  ShowMessage("Move without making noise.\nIf you make noise, it's game over!")
  Wait(30)
  ChangeVariable(1206,1206,0,0,6)
  EndEventProcessing()
  0()
 PAGE   2
  // condition: variable 1206 >= 6
  0()



EVENT   74
 PAGE   1
  RunCommonEvent(512)
  0()



EVENT   75
 PAGE   1
  RunCommonEvent(512)
  0()



EVENT   76
 PAGE   1
  RunCommonEvent(512)
  0()



EVENT   77
 PAGE   1
  RunCommonEvent(512)
  0()



EVENT   78
 PAGE   1
  RunCommonEvent(512)
  0()



EVENT   79
 PAGE   1
  RunCommonEvent(512)
  0()



EVENT   80
 PAGE   1
  RunCommonEvent(512)
  0()



EVENT   81
 PAGE   1
  RunCommonEvent(512)
  0()



EVENT   82
 PAGE   1
  RunCommonEvent(512)
  0()



EVENT   83
 PAGE   1
  RunCommonEvent(512)
  0()



EVENT   84
 PAGE   1
  RunCommonEvent(512)
  0()



EVENT   85
 PAGE   1
  RunCommonEvent(512)
  0()



EVENT   86
 PAGE   1
  RunCommonEvent(512)
  0()



EVENT   87
 PAGE   1
  RunCommonEvent(512)
  0()



EVENT   88
 PAGE   1
  RunCommonEvent(512)
  0()



EVENT   89
 PAGE   1
  RunCommonEvent(512)
  0()



EVENT   90
 PAGE   1
  RunCommonEvent(512)
  0()



EVENT   91
 PAGE   1
  RunCommonEvent(512)
  0()



EVENT   92
 PAGE   1
  RunCommonEvent(512)
  0()



EVENT   93
 PAGE   1
  RunCommonEvent(512)
  0()



EVENT   94
 PAGE   1
  RunCommonEvent(512)
  0()



EVENT   95
 PAGE   1
  RunCommonEvent(512)
  0()



EVENT   96
 PAGE   1
  RunCommonEvent(512)
  0()



EVENT   97
 PAGE   1
  RunCommonEvent(512)
  0()



EVENT   98
 PAGE   1
  RunCommonEvent(513)
  0()



EVENT   99
 PAGE   1
  RunCommonEvent(513)
  0()



EVENT   100
 PAGE   1
  RunCommonEvent(513)
  0()



EVENT   101
 PAGE   1
  // condition: variable 1206 >= 7
  241(bytes(0x04,0x08,0x6f,0x3a,0x0d,0x52,0x50,0x47,0x3a,0x3a,0x42,0x47,0x4d,0x08,0x3a,0x0a,0x40,0x6e,0x61,0x6d,0x65,0x49,0x22,0x0f,0x6b,0x61,0x67,0x65,0x74,0x75,0x6d,0x75,0x67,0x69,0x06,0x3a,0x06,0x45,0x54,0x3a,0x0c,0x40,0x76,0x6f,0x6c,0x75,0x6d,0x65,0x69,0x69,0x3a,0x0b,0x40,0x70,0x69,0x74,0x63,0x68,0x69,0x69))
  ShowMessageFace("kagetumugi_fc1",4,0,2,1)
  ShowMessage("\\n<Kagetsumugi>This unit is also defective...\nI see, a thought-mimicking AI isn't enough to make them usable...")
  ShowMessageFace("byakunen_fc1",0,0,2,2)
  ShowMessage("\\n<Hakunen>Is she a stagehand...?")
  ShowMessageFace("kazuya_fc2",2,0,2,3)
  ShowMessage("\\n<Kazuya>...Who are you?\nAre you a member of the Alliance...!?")
  205(55,bytes(0x04,0x08,0x6f,0x3a,0x13,0x52,0x50,0x47,0x3a,0x3a,0x4d,0x6f,0x76,0x65,0x52,0x6f,0x75,0x74,0x65,0x09,0x3a,0x0c,0x40,0x72,0x65,0x70,0x65,0x61,0x74,0x46,0x3a,0x0f,0x40,0x73,0x6b,0x69,0x70,0x70,0x61,0x62,0x6c,0x65,0x46,0x3a,0x0a,0x40,0x77,0x61,0x69,0x74,0x54,0x3a,0x0a,0x40,0x6c,0x69,0x73,0x74,0x5b,0x07,0x6f,0x3a,0x15,0x52,0x50,0x47,0x3a,0x3a,0x4d,0x6f,0x76,0x65,0x43,0x6f,0x6d,0x6d,0x61,0x6e,0x64,0x07,0x3a,0x0a,0x40,0x63,0x6f,0x64,0x65,0x69,0x16,0x3a,0x10,0x40,0x70,0x61,0x72,0x61,0x6d,0x65,0x74,0x65,0x72,0x73,0x5b,0x00,0x6f,0x3b,0x0a,0x07,0x3b,0x0b,0x69,0x00,0x3b,0x0c,0x5b,0x00))
  PictureDisplay(5,"80_kagetumugi_st51",0,0,0,0,100,100,0,0)
  PictureMove(5,null,0,0,0,0,100,100,255,0,60,true)
  ShowMessageFace("kagetumugi_fc1",0,0,2,4)
  ShowMessage("\\n<Kagetsumugi>I am not. I am someone who was born into this world and lives in it.")
  ShowMessageFace("kagetumugi_fc1",0,0,2,5)
  ShowMessage("\\n<Kagetsumugi>As for the members of the Alliance... You could say I have ties with them, more or less.\nI supply them with dolls for their game.")
  ShowMessageFace("kazuya_fc2",3,0,2,6)
  ShowMessage("\\n<Kazuya>Dolls... You're the one who gave them the Mukuro?\nWhat's the meaning of this!?")
  ShowMessageFace("kagetumugi_fc1",0,0,2,7)
  ShowMessage("\\n<Kagetsumugi>The milking doll named Mukuro...\nI am the one who mass-produced it.")
  ShowMessageFace("kazuya_fc2",2,0,2,8)
  ShowMessage("\\n<Kazuya>Why did you do that? To back them?")
  ShowMessageFace("kagetumugi_fc1",0,0,2,9)
  ShowMessage("\\n<Kagetsumugi>I am a puppeteer...\nIf I have an interesting doll's blueprints, I will certainly want to build it.")
  ShowMessageFace("kazuya_fc2",2,0,2,10)
  ShowMessage("\\n<Kazuya>Why do you have Mukuro's blueprints...?")
  ShowMessageFace("kagetumugi_fc1",0,0,2,11)
  ShowMessage("\\n<Kagetsumugi>They ended up in my hands through a certain route.\nI cannot tell you who handed them over to me.")
  ShowMessageFace("kazuya_fc2",0,0,2,12)
  ShowMessage("\\n<Kazuya>I thought so...\nWell, I can guess who did it...")
  ShowMessageFace("kazuya_fc2",0,0,2,13)
  ShowMessage("\\n<Kazuya>Then I'll change my question.\nWhy did you build so many?")
  ShowMessageFace("kagetumugi_fc1",0,0,2,14)
  ShowMessage("\\n<Kagetsumugi>I thought I could use them for the circus I lead... So I built some more.")
  ShowMessageFace("kagetumugi_fc1",0,0,2,15)
  ShowMessage("\\n<Kagetsumugi>But this doll is too elaborate.\nThe modeling is outstanding, but it is not suitable for mass production.")
  ShowMessageFace("kazuya_fc2",0,0,2,16)
  ShowMessage("\\n<Kazuya>...I see, I get it.")
  ShowMessageFace("",0,0,2,17)
  ShowMessage("Now I understand why they are more complete compared to the Mukuro I know... And the reason why their moves and words caused me such discomfort.")
  ShowMessageFace("",0,0,2,18)
  ShowMessage("They are not the Mukuro I know, after all. They are mass-produced dolls. On top of that, she even used an AI to mimic her thoughts.")
  ShowMessageFace("kazuya_fc2",0,0,2,19)
  ShowMessage("\\n<Kazuya>But no matter how different they are compared to her, I can't let you play with Mukuro any longer.")
  ShowMessageFace("kazuya_fc2",5,0,2,20)
  ShowMessage("\\n<Kazuya>Get away from those dolls right this instant or else...!!")
  ShowMessageFace("byakunen_fc2",4,0,2,21)
  ShowMessage("\\n<Hakunen>K-Kazuya! Calm down...!")
  ShowMessageFace("kagetumugi_fc1",0,0,2,22)
  ShowMessage("\\n<Kagetsumugi>How rude... You are close to Mukuro, aren't you?\nThen I'd like you to check something for me.")
  ShowMessageFace("kagetumugi_fc1",0,0,2,23)
  ShowMessage("\\n<Kagetsumugi>During the mass production, there was one abnormal individual.\nI thought it was because there was a bug in the personality emulator, but-")
  PictureClear(5)
  Wait(30)
  TeleportEvent(102,0,55,107,4)
  ChangeSwitch(31,31,0)
  241(bytes(0x04,0x08,0x6f,0x3a,0x0d,0x52,0x50,0x47,0x3a,0x3a,0x42,0x47,0x4d,0x08,0x3a,0x0a,0x40,0x6e,0x61,0x6d,0x65,0x49,0x22,0x0c,0x62,0x6f,0x73,0x73,0x30,0x2d,0x32,0x06,0x3a,0x06,0x45,0x54,0x3a,0x0c,0x40,0x76,0x6f,0x6c,0x75,0x6d,0x65,0x69,0x69,0x3a,0x0b,0x40,0x70,0x69,0x74,0x63,0x68,0x69,0x69))
  205(102,bytes(0x04,0x08,0x6f,0x3a,0x13,0x52,0x50,0x47,0x3a,0x3a,0x4d,0x6f,0x76,0x65,0x52,0x6f,0x75,0x74,0x65,0x09,0x3a,0x0c,0x40,0x72,0x65,0x70,0x65,0x61,0x74,0x46,0x3a,0x0f,0x40,0x73,0x6b,0x69,0x70,0x70,0x61,0x62,0x6c,0x65,0x46,0x3a,0x0a,0x40,0x77,0x61,0x69,0x74,0x54,0x3a,0x0a,0x40,0x6c,0x69,0x73,0x74,0x5b,0x07,0x6f,0x3a,0x15,0x52,0x50,0x47,0x3a,0x3a,0x4d,0x6f,0x76,0x65,0x43,0x6f,0x6d,0x6d,0x61,0x6e,0x64,0x07,0x3a,0x0a,0x40,0x63,0x6f,0x64,0x65,0x69,0x07,0x3a,0x10,0x40,0x70,0x61,0x72,0x61,0x6d,0x65,0x74,0x65,0x72,0x73,0x5b,0x00,0x6f,0x3b,0x0a,0x07,0x3b,0x0b,0x69,0x00,0x3b,0x0c,0x5b,0x00))
  ShowMessageFace("",0,0,2,24)
  ShowMessage("Kagetsumugi lightly waved her arm...\nAnd a Mukuro crawled out of her large hamper.")
  PictureDisplay(5,"80_mukuro_st02",0,0,0,0,100,100,0,0)
  PictureMove(5,null,0,0,0,0,100,100,255,0,30,true)
  ShowMessageFace("mukuro_fc1",3,0,2,25)
  ShowMessage("\\n<Mukuro>...")
  PictureDisplay(5,"80_mukuro_st02",0,0,-150,0,100,100,0,0)
  PictureDisplay(6,"80_kagetumugi_st01",0,0,150,0,100,100,0,0)
  PictureMove(5,null,0,0,-150,0,100,100,255,0,30,false)
  PictureMove(6,null,0,0,150,0,100,100,255,0,30,true)
  ShowMessageFace("kagetumugi_fc1",0,0,2,26)
  ShowMessage("\\n<Kagetsumugi>As you can see, she follows my orders...\nBut she keeps raving and repeating a single name.")
  ShowMessageFace("mukuro_fc1",3,0,2,27)
  ShowMessage("\\n<Mukuro>...Kazuya...")
  ShowMessageFace("kazuya_fc2",3,0,2,28)
  ShowMessage("\\n<Kazuya>...!!")
  ShowMessageFace("kagetumugi_fc1",0,0,2,29)
  ShowMessage("\\n<Kagetsumugi>She is probably searching for some kind of word.\nDo you have any idea what the activation trigger is?")
  PictureClear(6)
  PictureDisplay(5,"80_mukuro_st02",0,0,0,0,100,100,255,0)
  ShowMessageFace("kazuya_fc2",2,0,2,30)
  ShowMessage("\\n<Kazuya>...")
  ShowMessageFace("",0,0,2,31)
  ShowMessage("The color of her eyes is different from the others.\nThose are not the eyes of a machine, there is life in them.")
  ShowMessageFace("",0,0,2,32)
  ShowMessage("If I have to call her by a name other than Mukuro... Then there is only one name that could work...")
  ShowMessageFace("",0,0,2,33)
  ShowMessage("The name the girl dwelling in Mukuro had when she was alive... The true name of the Mukuro I know...")
  ShowMessageFace("kazuya_fc2",0,0,2,34)
  ShowMessage("\\n<Kazuya>Akane... Do you recognize me...?")
  ShowMessageFace("mukuro_fc1",3,0,2,35)
  ShowMessage("\\n<Mukuro>Aka...ne...\nI am...I am... Yes...")
  ShowMessageFace("mukuro_fc1",3,0,2,36)
  ShowMessage("\\n<Mukuro>I fell into the abyss... for the village...\nIt was dark... and deep...")
  PictureClear(5)
  Wait(30)
  205(102,bytes(0x04,0x08,0x6f,0x3a,0x13,0x52,0x50,0x47,0x3a,0x3a,0x4d,0x6f,0x76,0x65,0x52,0x6f,0x75,0x74,0x65,0x09,0x3a,0x0c,0x40,0x72,0x65,0x70,0x65,0x61,0x74,0x46,0x3a,0x0f,0x40,0x73,0x6b,0x69,0x70,0x70,0x61,0x62,0x6c,0x65,0x46,0x3a,0x0a,0x40,0x77,0x61,0x69,0x74,0x54,0x3a,0x0a,0x40,0x6c,0x69,0x73,0x74,0x5b,0x07,0x6f,0x3a,0x15,0x52,0x50,0x47,0x3a,0x3a,0x4d,0x6f,0x76,0x65,0x43,0x6f,0x6d,0x6d,0x61,0x6e,0x64,0x07,0x3a,0x0a,0x40,0x63,0x6f,0x64,0x65,0x69,0x07,0x3a,0x10,0x40,0x70,0x61,0x72,0x61,0x6d,0x65,0x74,0x65,0x72,0x73,0x5b,0x00,0x6f,0x3b,0x0a,0x07,0x3b,0x0b,0x69,0x00,0x3b,0x0c,0x5b,0x00))
  ShowMessageFace("kazuya_fc2",2,0,2,37)
  ShowMessage("\\n<Kazuya>H-Hey...!!")
  ShowMessageFace("mukuro_fc1",3,0,2,38)
  ShowMessage("\\n<Mukuro>I... don't want to be alone anymore...\nSomeone... Someone... Stay with me...")
  ShowMessageFace("mukuro_fc1",3,0,2,39)
  ShowMessage("\\n<Mukuro>Fall... with me...")
  ShowMessageFace("byakunen_fc2",0,0,2,40)
  ShowMessage("\\n<Hakunen>She's acting strange... Is this normal?")
  ShowMessageFace("kazuya_fc2",2,0,2,41)
  ShowMessage("\\n<Kazuya>No, she's very unstable...!\nShe can't recognize me as she is now...!!")
  ShowMessageFace("kazuya_fc2",2,0,2,42)
  ShowMessage("\\n<Kazuya>But now I'm sure of it...\nShe is the Mukuro I know...!!")
  205(102,bytes(0x04,0x08,0x6f,0x3a,0x13,0x52,0x50,0x47,0x3a,0x3a,0x4d,0x6f,0x76,0x65,0x52,0x6f,0x75,0x74,0x65,0x09,0x3a,0x0c,0x40,0x72,0x65,0x70,0x65,0x61,0x74,0x46,0x3a,0x0f,0x40,0x73,0x6b,0x69,0x70,0x70,0x61,0x62,0x6c,0x65,0x46,0x3a,0x0a,0x40,0x77,0x61,0x69,0x74,0x54,0x3a,0x0a,0x40,0x6c,0x69,0x73,0x74,0x5b,0x07,0x6f,0x3a,0x15,0x52,0x50,0x47,0x3a,0x3a,0x4d,0x6f,0x76,0x65,0x43,0x6f,0x6d,0x6d,0x61,0x6e,0x64,0x07,0x3a,0x0a,0x40,0x63,0x6f,0x64,0x65,0x69,0x07,0x3a,0x10,0x40,0x70,0x61,0x72,0x61,0x6d,0x65,0x74,0x65,0x72,0x73,0x5b,0x00,0x6f,0x3b,0x0a,0x07,0x3b,0x0b,0x69,0x00,0x3b,0x0c,0x5b,0x00))
  PictureDisplay(5,"80_mukuro_st02",0,0,0,0,100,100,0,0)
  PictureMove(5,null,0,0,0,0,100,100,255,0,30,true)
  ShowMessageFace("mukuro_fc1",3,0,2,43)
  ShowMessage("\\n<Mukuro>Now, let's fall together... in the abyss...")
  ShowMessageFace("kazuya_fc2",2,0,2,44)
  ShowMessage("\\n<Kazuya>It can't be helped... We have to use strength!\nLet's give a big impact to her body to make her recognize me!")
  ShowMessageFace("byakunen_fc1",0,0,2,45)
  ShowMessage("\\n<Hakunen>Y-Yes!!")
  ShowMessageFace("kazuya_fc2",2,0,2,46)
  ShowMessage("\\n<Kazuya>Please, come to your senses! Mukuro!!")
  SetBattleBGM(bytes(0x04,0x08,0x6f,0x3a,0x0d,0x52,0x50,0x47,0x3a,0x3a,0x42,0x47,0x4d,0x08,0x3a,0x0a,0x40,0x6e,0x61,0x6d,0x65,0x49,0x22,0x0a,0x62,0x6f,0x73,0x73,0x31,0x06,0x3a,0x06,0x45,0x54,0x3a,0x0c,0x40,0x76,0x6f,0x6c,0x75,0x6d,0x65,0x69,0x69,0x3a,0x0b,0x40,0x70,0x69,0x74,0x63,0x68,0x69,0x69))
  Battle(0,1355,false,false)
  SetBattleBGM(bytes(0x04,0x08,0x6f,0x3a,0x0d,0x52,0x50,0x47,0x3a,0x3a,0x42,0x47,0x4d,0x08,0x3a,0x0a,0x40,0x6e,0x61,0x6d,0x65,0x49,0x22,0x0b,0x62,0x61,0x74,0x74,0x6c,0x65,0x06,0x3a,0x06,0x45,0x54,0x3a,0x0c,0x40,0x76,0x6f,0x6c,0x75,0x6d,0x65,0x69,0x69,0x3a,0x0b,0x40,0x70,0x69,0x74,0x63,0x68,0x69,0x69))
  241(bytes(0x04,0x08,0x6f,0x3a,0x0d,0x52,0x50,0x47,0x3a,0x3a,0x42,0x47,0x4d,0x08,0x3a,0x0a,0x40,0x6e,0x61,0x6d,0x65,0x49,0x22,0x13,0x73,0x63,0x65,0x6e,0x65,0x5f,0x6f,0x64,0x61,0x79,0x61,0x6b,0x61,0x32,0x06,0x3a,0x06,0x45,0x54,0x3a,0x0c,0x40,0x76,0x6f,0x6c,0x75,0x6d,0x65,0x69,0x69,0x3a,0x0b,0x40,0x70,0x69,0x74,0x63,0x68,0x69,0x69))
  ShowMessageFace("mukuro_fc1",3,0,2,47)
  ShowMessage("\\n<Mukuro>...!!")
  ShowMessageFace("",0,0,2,48)
  ShowMessage("After receiving damage, Mukuro fell to her knees!")
  ShowMessageFace("kazuya_fc2",3,0,2,49)
  ShowMessage("\\n<Kazuya>Akane!! Are you okay...!?")
  ShowMessageFace("mukuro_fc1",3,0,2,50)
  ShowMessage("\\n<Mukuro>...")
  ShowMessageFace("mukuro_fc1",3,0,2,51)
  ShowMessage("\\n<Mukuro>...I told you not to call me Akane, Kazuya...")
  ShowMessageFace("kazuya_fc2",6,0,2,52)
  ShowMessage("\\n<Kazuya>Mukuro...!!\nYou know who I am, don't you...!!")
  ShowMessageFace("",0,0,2,53)
  ShowMessage("A demon called Akane whose soul has taken control of an unfinished milking doll... That's who Mukuro is.")
  ShowMessageFace("",0,0,2,54)
  ShowMessage("And now, it seems she has finally come back to her senses...")
  PictureDisplay(5,"80_kagetumugi_st51",0,0,0,0,100,100,0,0)
  PictureMove(5,null,0,0,0,0,100,100,255,0,30,true)
  ShowMessageFace("kagetumugi_fc1",0,0,2,55)
  ShowMessage("\\n<Kagetsumugi>...I see, that name was the activation word.\nThis AI has a pretty interesting system.")
  ShowMessageFace("kagetumugi_fc1",0,0,2,56)
  ShowMessage("\\n<Kagetsumugi>It is not uncommon for a doll to have a soul, but... To think that a mass-produced body would also develop a sense of self.")
  ShowMessageFace("kazuya_fc2",0,0,2,57)
  ShowMessage("\\n<Kazuya>...I don't really understand what you're saying, but Mukuro is Mukuro.\nShe isn't your puppet anymore...")
  ShowMessageFace("kagetumugi_fc1",0,0,2,58)
  ShowMessage("\\n<Kagetsumugi>Indeed, she is no longer a puppet...\nI certainly witnessed her budding ego.")
  ShowMessageFace("kazuya_fc2",0,0,2,59)
  ShowMessage("\\n<Kazuya>Kagetsumugi... I believe that's what you called yourself... Are you going to be our next opponent...?")
  ShowMessageFace("kagetumugi_fc1",0,0,2,60)
  ShowMessage("\\n<Kagetsumugi>No... I am not your enemy.")
  ShowMessageFace("byakunen_fc3",0,0,2,61)
  ShowMessage("\\n<Hakunen>But you made so many of those Mukuro dolls...")
  ShowMessageFace("kagetumugi_fc1",0,0,2,62)
  ShowMessage("\\n<Kagetsumugi>And I merely supplied them to the Alliance.\nI do not intend to personally intervene in this matter.")
  ShowMessageFace("kazuya_fc4",7,0,2,63)
  ShowMessage("\\n<Kazuya>...")
  PictureDisplay(5,"80_mukuro_st02",0,0,-150,0,100,100,0,0)
  PictureDisplay(6,"80_kagetumugi_st01",0,0,150,0,100,100,0,0)
  PictureMove(5,null,0,0,-150,0,100,100,255,0,30,false)
  PictureMove(6,null,0,0,150,0,100,100,255,0,30,true)
  ShowMessageFace("kagetumugi_fc1",0,0,2,64)
  ShowMessage("\\n<Kagetsumugi>Now... What will you do, Mukuro?\nWhat do you choose to do with your newly awakened ego?")
  ShowMessageFace("mukuro_fc1",3,0,2,65)
  ShowMessage("\\n<Mukuro>To be honest, I still don't fully understand the situation... But my answer is clear...")
  ShowMessageFace("mukuro_fc1",3,0,2,66)
  ShowMessage("\\n<Mukuro>I... will protect Kazuya with this body.")
  ShowMessageFace("kagetumugi_fc1",0,0,2,67)
  ShowMessage("\\n<Kagetsumugi>I see... Very well, I shall respect your will.\nKazuya, is it? I will entrust Mukuro to you.")
  ShowMessageFace("kagetumugi_fc1",0,0,2,68)
  ShowMessage("\\n<Kagetsumugi>I modified this Mukuro with my own hands...\nI shall tribute the built-in battle gimmick to you.")
  ShowMessageFace("kazuya_fc2",0,0,2,69)
  ShowMessage("\\n<Kazuya>Kagetsumugi... Why would you leave Mukuro in our care?")
  ShowMessageFace("kagetumugi_fc1",0,0,2,70)
  ShowMessage("\\n<Kagetsumugi>...Because this doll will be happier that way.")
  ShowMessageFace("kazuya_fc2",2,0,2,71)
  ShowMessage("\\n<Kazuya>...")
  PictureClear(6)
  PictureDisplay(5,"iv_kagetumugi_c1",0,0,0,0,100,100,0,0)
  PictureMove(5,null,0,0,0,0,100,100,255,0,60,true)
  ShowMessageFace("kagetumugi_fc1",0,0,2,72)
  ShowMessage("\\n<Kagetsumugi>Well then, I will take my leave now.\nI am planning a large-scale performance soon, please look forward to it.")
  ShowMessageFace("",0,0,2,73)
  ShowMessage("Kagetsumugi turned away, trying to leave...\nI asked her a question as her back was facing us.")
  ShowMessageFace("kazuya_fc2",0,0,2,74)
  ShowMessage("\\n<Kazuya>Tell me, Kagetsumugi...\nAre you a puppeteer? Or are you a puppet?")
  241(bytes(0x04,0x08,0x6f,0x3a,0x0d,0x52,0x50,0x47,0x3a,0x3a,0x42,0x47,0x4d,0x08,0x3a,0x0a,0x40,0x6e,0x61,0x6d,0x65,0x49,0x22,0x00,0x06,0x3a,0x06,0x45,0x54,0x3a,0x0c,0x40,0x76,0x6f,0x6c,0x75,0x6d,0x65,0x69,0x69,0x3a,0x0b,0x40,0x70,0x69,0x74,0x63,0x68,0x69,0x69))
  ShowMessageFace("kagetumugi_fc1",0,0,2,75)
  ShowMessage("\\n<Kagetsumugi>...")
  241(bytes(0x04,0x08,0x6f,0x3a,0x0d,0x52,0x50,0x47,0x3a,0x3a,0x42,0x47,0x4d,0x08,0x3a,0x0a,0x40,0x6e,0x61,0x6d,0x65,0x49,0x22,0x0c,0x62,0x6f,0x73,0x73,0x30,0x2d,0x33,0x06,0x3a,0x06,0x45,0x54,0x3a,0x0c,0x40,0x76,0x6f,0x6c,0x75,0x6d,0x65,0x69,0x69,0x3a,0x0b,0x40,0x70,0x69,0x74,0x63,0x68,0x69,0x69))
  250(bytes(0x04,0x08,0x6f,0x3a,0x0c,0x52,0x50,0x47,0x3a,0x3a,0x53,0x45,0x08,0x3a,0x0a,0x40,0x6e,0x61,0x6d,0x65,0x49,0x22,0x0e,0x6d,0x6f,0x6e,0x5f,0x64,0x6f,0x6f,0x72,0x31,0x06,0x3a,0x06,0x45,0x54,0x3a,0x0b,0x40,0x70,0x69,0x74,0x63,0x68,0x69,0x69,0x3a,0x0c,0x40,0x76,0x6f,0x6c,0x75,0x6d,0x65,0x69,0x69))
  PictureDisplay(5,"iv_kagetumugi_c2",0,0,0,0,100,100,255,0)
  ShowMessageFace("kagetumugi_fc1",0,0,2,76)
  ShowMessage("\\n<Kagetsumugi>I, am not, a puppet.")
  ShowMessageFace("byakunen_fc2",0,0,2,77)
  ShowMessage("\\n<Hakunen>...!?")
  ShowMessageFace("kazuya_fc2",2,0,2,78)
  ShowMessage("\\n<Kazuya>...!!")
  PictureClear(5)
  Wait(30)
  212(55,542,false)
  Wait(60)
  ChangeVariable(1206,1206,0,0,8)
  Wait(60)
  241(bytes(0x04,0x08,0x6f,0x3a,0x0d,0x52,0x50,0x47,0x3a,0x3a,0x42,0x47,0x4d,0x08,0x3a,0x0a,0x40,0x6e,0x61,0x6d,0x65,0x49,0x22,0x16,0x64,0x75,0x6e,0x67,0x65,0x6f,0x6e,0x5f,0x74,0x61,0x72,0x75,0x74,0x61,0x72,0x6f,0x31,0x06,0x3a,0x06,0x45,0x54,0x3a,0x0c,0x40,0x76,0x6f,0x6c,0x75,0x6d,0x65,0x69,0x69,0x3a,0x0b,0x40,0x70,0x69,0x74,0x63,0x68,0x69,0x69))
  ShowMessageFace("",0,0,2,79)
  ShowMessage("After a short pause, Kagetsumugi disappeared.")
  ShowMessageFace("byakunen_fc2",0,0,2,80)
  ShowMessage("\\n<Hakunen>Kagetsumugi... Who is that person...")
  ShowMessageFace("kazuya_fc2",2,0,2,81)
  ShowMessage("\\n<Kazuya>I didn't believe she was human from the beginning...")
  ShowMessageFace("",0,0,2,82)
  ShowMessage("But even so, she is more inhuman than I thought.\nI'm really glad she left.")
  ShowMessageFace("byakunen_fc1",2,0,2,83)
  ShowMessage("\\n<Hakunen>That person said she would entrust Mukuro to us.\nShe didn't say she would give her to us...")
  ShowMessageFace("kazuya_fc2",0,0,2,84)
  ShowMessage("\\n<Kazuya>Yeah...")
  ShowMessageFace("",0,0,2,85)
  ShowMessage("That Kagetsumugi... She seems to have some deep emotional attachment to dolls.")
  241(bytes(0x04,0x08,0x6f,0x3a,0x0d,0x52,0x50,0x47,0x3a,0x3a,0x42,0x47,0x4d,0x08,0x3a,0x0a,0x40,0x6e,0x61,0x6d,0x65,0x49,0x22,0x14,0x73,0x63,0x65,0x6e,0x65,0x5f,0x65,0x70,0x69,0x6c,0x6f,0x67,0x75,0x65,0x32,0x06,0x3a,0x06,0x45,0x54,0x3a,0x0c,0x40,0x76,0x6f,0x6c,0x75,0x6d,0x65,0x69,0x69,0x3a,0x0b,0x40,0x70,0x69,0x74,0x63,0x68,0x69,0x69))
  205(102,bytes(0x04,0x08,0x6f,0x3a,0x13,0x52,0x50,0x47,0x3a,0x3a,0x4d,0x6f,0x76,0x65,0x52,0x6f,0x75,0x74,0x65,0x09,0x3a,0x0c,0x40,0x72,0x65,0x70,0x65,0x61,0x74,0x46,0x3a,0x0f,0x40,0x73,0x6b,0x69,0x70,0x70,0x61,0x62,0x6c,0x65,0x46,0x3a,0x0a,0x40,0x77,0x61,0x69,0x74,0x54,0x3a,0x0a,0x40,0x6c,0x69,0x73,0x74,0x5b,0x07,0x6f,0x3a,0x15,0x52,0x50,0x47,0x3a,0x3a,0x4d,0x6f,0x76,0x65,0x43,0x6f,0x6d,0x6d,0x61,0x6e,0x64,0x07,0x3a,0x0a,0x40,0x63,0x6f,0x64,0x65,0x69,0x17,0x3a,0x10,0x40,0x70,0x61,0x72,0x61,0x6d,0x65,0x74,0x65,0x72,0x73,0x5b,0x00,0x6f,0x3b,0x0a,0x07,0x3b,0x0b,0x69,0x00,0x3b,0x0c,0x5b,0x00))
  PictureDisplay(5,"80_mukuro_st02",0,0,0,0,100,100,0,0)
  PictureMove(5,null,0,0,0,0,100,100,255,0,30,true)
  ShowMessageFace("mukuro_fc1",3,0,2,86)
  ShowMessage("\\n<Mukuro>...What a strange sight. Bodies looking like mine are lying around...")
  205(102,bytes(0x04,0x08,0x6f,0x3a,0x13,0x52,0x50,0x47,0x3a,0x3a,0x4d,0x6f,0x76,0x65,0x52,0x6f,0x75,0x74,0x65,0x09,0x3a,0x0c,0x40,0x72,0x65,0x70,0x65,0x61,0x74,0x46,0x3a,0x0f,0x40,0x73,0x6b,0x69,0x70,0x70,0x61,0x62,0x6c,0x65,0x46,0x3a,0x0a,0x40,0x77,0x61,0x69,0x74,0x54,0x3a,0x0a,0x40,0x6c,0x69,0x73,0x74,0x5b,0x07,0x6f,0x3a,0x15,0x52,0x50,0x47,0x3a,0x3a,0x4d,0x6f,0x76,0x65,0x43,0x6f,0x6d,0x6d,0x61,0x6e,0x64,0x07,0x3a,0x0a,0x40,0x63,0x6f,0x64,0x65,0x69,0x16,0x3a,0x10,0x40,0x70,0x61,0x72,0x61,0x6d,0x65,0x74,0x65,0x72,0x73,0x5b,0x00,0x6f,0x3b,0x0a,0x07,0x3b,0x0b,0x69,0x00,0x3b,0x0c,0x5b,0x00))
  ShowMessageFace("mukuro_fc1",3,0,2,87)
  ShowMessage("\\n<Mukuro>Besides, this body... It's a lot easier to move in compared to the previous one.")
  ShowMessageFace("kazuya_fc2",0,0,2,88)
  ShowMessage("\\n<Kazuya>It's because the body you had in my world was unfinished.\nSince it's a mass-produced body, I think this one is complete...")
  ShowMessageFace("mukuro_fc1",3,0,2,89)
  ShowMessage("\\n<Mukuro>...")
  ShowMessageFace("mukuro_fc1",3,0,2,90)
  ShowMessage("\\n<Mukuro>...My world, huh...\nKazuya... I'm probably a little different from the Mukuro you know.")
  ShowMessageFace("mukuro_fc1",3,0,2,91)
  ShowMessage("\\n<Mukuro>If you go back to your world, I probably... won't be able to go back with you.")
  ShowMessageFace("mukuro_fc1",3,0,2,92)
  ShowMessage("\\n<Mukuro>Your world's Mukuro is already there.\nAre you still fine with that, Kazuya...?")
  ShowMessageFace("kazuya_fc2",1,0,2,93)
  ShowMessage("\\n<Kazuya>It's okay, I understand...\nBut no matter the world, Mukuro is Mukuro.")
  ShowMessageFace("kazuya_fc2",1,0,2,94)
  ShowMessage("\\n<Kazuya>Besides, I feel it in my heart too.\nThere is no doubt about it, our hearts are connected to each other.")
  ShowMessageFace("kazuya_fc2",1,0,2,95)
  ShowMessage("\\n<Kazuya>You are the Mukuro I know, the one who's in my heart... Is this single reason not satisfying enough?")
  ShowMessageFace("mukuro_fc1",3,0,2,96)
  ShowMessage("\\n<Mukuro>...")
  ShowMessageFace("mukuro_fc1",3,0,2,97)
  ShowMessage("\\n<Mukuro>Thank you, Kazuya...")
  PictureClear(5)
  205(102,bytes(0x04,0x08,0x6f,0x3a,0x13,0x52,0x50,0x47,0x3a,0x3a,0x4d,0x6f,0x76,0x65,0x52,0x6f,0x75,0x74,0x65,0x09,0x3a,0x0c,0x40,0x72,0x65,0x70,0x65,0x61,0x74,0x46,0x3a,0x0f,0x40,0x73,0x6b,0x69,0x70,0x70,0x61,0x62,0x6c,0x65,0x46,0x3a,0x0a,0x40,0x77,0x61,0x69,0x74,0x54,0x3a,0x0a,0x40,0x6c,0x69,0x73,0x74,0x5b,0x09,0x6f,0x3a,0x15,0x52,0x50,0x47,0x3a,0x3a,0x4d,0x6f,0x76,0x65,0x43,0x6f,0x6d,0x6d,0x61,0x6e,0x64,0x07,0x3a,0x0a,0x40,0x63,0x6f,0x64,0x65,0x69,0x2a,0x3a,0x10,0x40,0x70,0x61,0x72,0x61,0x6d,0x65,0x74,0x65,0x72,0x73,0x5b,0x00,0x6f,0x3b,0x0a,0x07,0x3b,0x0b,0x69,0x0f,0x3b,0x0c,0x5b,0x00,0x6f,0x3b,0x0a,0x07,0x3b,0x0b,0x69,0x2c,0x3b,0x0c,0x5b,0x00,0x6f,0x3b,0x0a,0x07,0x3b,0x0b,0x69,0x00,0x3b,0x0c,0x5b,0x00))
  355("add_temp_actors(817)")
  249(bytes(0x04,0x08,0x6f,0x3a,0x0c,0x52,0x50,0x47,0x3a,0x3a,0x4d,0x45,0x08,0x3a,0x0a,0x40,0x6e,0x61,0x6d,0x65,0x49,0x22,0x0c,0x66,0x61,0x6e,0x66,0x61,0x6c,0x65,0x06,0x3a,0x06,0x45,0x54,0x3a,0x0b,0x40,0x70,0x69,0x74,0x63,0x68,0x69,0x69,0x3a,0x0c,0x40,0x76,0x6f,0x6c,0x75,0x6d,0x65,0x69,0x69))
  ShowMessageFace("",0,0,2,98)
  ShowMessage("Mukuro has joined the party!")
  Wait(60)
  ChangeSwitch(31,31,1)
  ShowMessageFace("byakunen_fc1",1,0,2,99)
  ShowMessage("\\n<Hakunen>Best regards, Mukuro. Let's work together!")
  ShowMessageFace("lanpass_fc2",0,0,2,100)
  ShowMessage("\\n<Lampas>Pleased to meet you, Mukuro~ ♪")
  ShowMessageFace("youkosan_fc1",0,0,2,101)
  ShowMessage("\\n<Dream Fox>Best regards~ ♪\nLampas and I are close friends now♪")
  ShowMessageFace("mukuro_fc1",3,0,2,102)
  ShowMessage("\\n<Mukuro>This Lampas is... a different individual.\nThere is something different about her...")
  ShowMessageFace("mukuro_fc1",3,0,2,103)
  ShowMessage("\\n<Mukuro>Still, I didn't expect you to be on such good terms, Kazuya... Does she know about this?")
  ShowMessageFace("kazuya_fc2",2,0,2,104)
  ShowMessage("\\n<Kazuya>W-Well... It's a long story...\nI'll take my time to explain everything to you later when things settle down...")
  ShowMessageFace("lanpass_fc2",0,0,2,105)
  ShowMessage("\\n<Lampas>Huh... wait a minute.\nThere can only be four members of the party in a fight...")
  ShowMessageFace("lanpass_fc2",0,0,2,106)
  ShowMessage("\\n<Lampas>Since Mukuro has joined us, we are five now...")
  ShowMessageFace("youkosan_fc1",0,0,2,107)
  ShowMessage("\\n<Dream Fox>Which means... someone will be left out.\nOne of us...")
  ShowMessageFace("lanpass_fc2",5,0,2,108)
  ShowMessage("\\n<Lampas>...")
  ShowMessageFace("youkosan_fc1",3,0,2,109)
  ShowMessage("\\n<Dream Fox>...")
  ShowMessageFace("lanpass_fc2",0,0,2,110)
  ShowMessage("\\n<Lampas>Dream Fox's defense is weak, so even small attacks could do a lot of damage.")
  ShowMessageFace("youkosan_fc1",0,0,2,111)
  ShowMessage("\\n<Dream Fox>Lampas could burn entirely if she were to receive an attack of the Fire attribute.")
  ShowMessageFace("kazuya_fc2",2,0,2,112)
  ShowMessage("\\n<Kazuya>Weren't you supposed to be a \"super friendly duo♪\"...?")
  ShowMessageFace("byakunen_fc1",0,0,2,113)
  ShowMessage("\\n<Hakunen>How surprising of you... I thought you wanted to slack off.")
  ShowMessageFace("lanpass_fc2",3,0,2,114)
  ShowMessage("\\n<Lampas>I like slacking off, but I don't want you to keep me waiting! I want you to request my help and let me slack off moderately!")
  ShowMessageFace("lanpass_fc2",2,0,2,115)
  ShowMessage("\\n<Lampas>...By the way, you're rather foul-mouthed, Hakunen.")
  ShowMessageFace("youkosan_fc1",2,0,2,116)
  ShowMessage("\\n<Dream Fox>Don't leave us out~!\nAt the very least, let us fight in rotation~!")
  ShowMessageFace("kazuya_fc2",2,0,2,117)
  ShowMessage("\\n<Kazuya>...")
  ShowMessageFace("byakunen_fc1",0,0,2,118)
  ShowMessage("\\n<Hakunen>Kazuya, is something wrong?")
  ShowMessageFace("kazuya_fc2",0,0,2,119)
  ShowMessage("\\n<Kazuya>No... I was just thinking about the previous sequence of events...")
  ShowMessageFace("",0,0,2,120)
  ShowMessage("Kagetsumugi said Mukuro's blueprints had been handed over to her in this world.\nIf so, then the one who was involved in this case is-")
  ShowMessageFace("kazuya_fc2",2,0,2,121)
  ShowMessage("\\n<Kazuya>...That professor has been acting really strange lately.\nShe should have been lamenting the persistent lack of funds...")
  ShowMessageFace("kazuya_fc2",3,0,2,122)
  ShowMessage("\\n<Kazuya>I don't know how things got this way... but just you wait when I get home, you shitty tengu...!!")
  ShowMessageFace("byakunen_fc1",2,0,2,123)
  ShowMessage("\\n<Hakunen>...?")
  241(bytes(0x04,0x08,0x6f,0x3a,0x0d,0x52,0x50,0x47,0x3a,0x3a,0x42,0x47,0x4d,0x08,0x3a,0x0a,0x40,0x6e,0x61,0x6d,0x65,0x49,0x22,0x16,0x64,0x75,0x6e,0x67,0x65,0x6f,0x6e,0x5f,0x74,0x61,0x72,0x75,0x74,0x61,0x72,0x6f,0x31,0x06,0x3a,0x06,0x45,0x54,0x3a,0x0c,0x40,0x76,0x6f,0x6c,0x75,0x6d,0x65,0x69,0x69,0x3a,0x0b,0x40,0x70,0x69,0x74,0x63,0x68,0x69,0x69))
  EndEventProcessing()
  0()
 PAGE   2
  // condition: variable 1206 >= 8
  0()



EVENT   102
 PAGE   1
  // condition: switch 31 is ON
  0()



EVENT   103
 PAGE   1
  // condition: variable 1206 >= 8
  205(69,bytes(0x04,0x08,0x6f,0x3a,0x13,0x52,0x50,0x47,0x3a,0x3a,0x4d,0x6f,0x76,0x65,0x52,0x6f,0x75,0x74,0x65,0x09,0x3a,0x0c,0x40,0x72,0x65,0x70,0x65,0x61,0x74,0x46,0x3a,0x0f,0x40,0x73,0x6b,0x69,0x70,0x70,0x61,0x62,0x6c,0x65,0x46,0x3a,0x0a,0x40,0x77,0x61,0x69,0x74,0x54,0x3a,0x0a,0x40,0x6c,0x69,0x73,0x74,0x5b,0x07,0x6f,0x3a,0x15,0x52,0x50,0x47,0x3a,0x3a,0x4d,0x6f,0x76,0x65,0x43,0x6f,0x6d,0x6d,0x61,0x6e,0x64,0x07,0x3a,0x0a,0x40,0x63,0x6f,0x64,0x65,0x69,0x17,0x3a,0x10,0x40,0x70,0x61,0x72,0x61,0x6d,0x65,0x74,0x65,0x72,0x73,0x5b,0x00,0x6f,0x3b,0x0a,0x07,0x3b,0x0b,0x69,0x00,0x3b,0x0c,0x5b,0x00))
  241(bytes(0x04,0x08,0x6f,0x3a,0x0d,0x52,0x50,0x47,0x3a,0x3a,0x42,0x47,0x4d,0x08,0x3a,0x0a,0x40,0x6e,0x61,0x6d,0x65,0x49,0x22,0x0c,0x62,0x6f,0x73,0x73,0x30,0x2d,0x34,0x06,0x3a,0x06,0x45,0x54,0x3a,0x0c,0x40,0x76,0x6f,0x6c,0x75,0x6d,0x65,0x69,0x69,0x3a,0x0b,0x40,0x70,0x69,0x74,0x63,0x68,0x69,0x69))
  PictureDisplay(5,"80_vinum_st01",0,0,0,0,100,100,0,0)
  PictureMove(5,null,0,0,0,0,100,100,255,0,30,true)
  ShowMessageFace("vinum_fc1",0,0,2,1)
  ShowMessage("\\n<Vinum>Kufufu, kids... Finally, the main dish has arrived.")
  ShowMessageFace("kazuya_fc2",3,0,2,2)
  ShowMessage("\\n<Kazuya>Kh...! Running into her, of all people...!!")
  ShowMessageFace("byakunen_fc2",4,0,2,3)
  ShowMessage("\\n<Hakunen>L-Look at how many people she...\nThis is far too horrible...")
  PictureDisplay(5,"80_vinum_st05",0,0,0,0,100,100,255,0)
  ShowMessageFace("vinum_fc1",4,0,2,4)
  ShowMessage("\\n<Vinum>...Don't be this frightened.\nHore... You'll feel like you're ascending to heaven as you die.")
  PictureClear(5)
  Wait(30)
  205(69,bytes(0x04,0x08,0x6f,0x3a,0x13,0x52,0x50,0x47,0x3a,0x3a,0x4d,0x6f,0x76,0x65,0x52,0x6f,0x75,0x74,0x65,0x09,0x3a,0x0c,0x40,0x72,0x65,0x70,0x65,0x61,0x74,0x46,0x3a,0x0f,0x40,0x73,0x6b,0x69,0x70,0x70,0x61,0x62,0x6c,0x65,0x46,0x3a,0x0a,0x40,0x77,0x61,0x69,0x74,0x54,0x3a,0x0a,0x40,0x6c,0x69,0x73,0x74,0x5b,0x07,0x6f,0x3a,0x15,0x52,0x50,0x47,0x3a,0x3a,0x4d,0x6f,0x76,0x65,0x43,0x6f,0x6d,0x6d,0x61,0x6e,0x64,0x07,0x3a,0x0a,0x40,0x63,0x6f,0x64,0x65,0x69,0x08,0x3a,0x10,0x40,0x70,0x61,0x72,0x61,0x6d,0x65,0x74,0x65,0x72,0x73,0x5b,0x00,0x6f,0x3b,0x0a,0x07,0x3b,0x0b,0x69,0x00,0x3b,0x0c,0x5b,0x00))
  PictureDisplay(5,"80_vinum_st05",0,0,0,0,100,100,0,0)
  PictureMove(5,null,0,0,0,0,100,100,255,0,30,true)
  ShowMessageFace("vinum_fc1",4,0,2,5)
  ShowMessage("\\n<Vinum>Come on... Won't you give up and become my feast?")
  ShowMessageFace("vinum_fc1",4,0,2,6)
  ShowMessage("\\n<Vinum>Or... Kufufu... Would you rather struggle?")
  PictureClear(5)
  Wait(30)
  ShowMessageFace("kazuya_fc2",2,0,2,7)
  ShowMessage("\\n<Kazuya>Hakunen, you know what to do, don't you...!?")
  ShowMessageFace("byakunen_fc3",0,0,2,8)
  ShowMessage("\\n<Hakunen>Yes! Run with all our might!")
  ShowMessageFace("",0,0,2,9)
  ShowMessage("No number of lives would be enough to deal with such a monster. If she catches us, it's over.")
  241(bytes(0x04,0x08,0x6f,0x3a,0x0d,0x52,0x50,0x47,0x3a,0x3a,0x42,0x47,0x4d,0x08,0x3a,0x0a,0x40,0x6e,0x61,0x6d,0x65,0x49,0x22,0x0a,0x6b,0x69,0x6b,0x69,0x31,0x06,0x3a,0x06,0x45,0x54,0x3a,0x0c,0x40,0x76,0x6f,0x6c,0x75,0x6d,0x65,0x69,0x69,0x3a,0x0b,0x40,0x70,0x69,0x74,0x63,0x68,0x69,0x69))
  250(bytes(0x04,0x08,0x6f,0x3a,0x0c,0x52,0x50,0x47,0x3a,0x3a,0x53,0x45,0x08,0x3a,0x0a,0x40,0x6e,0x61,0x6d,0x65,0x49,0x22,0x0c,0x50,0x6f,0x77,0x65,0x72,0x75,0x70,0x06,0x3a,0x06,0x45,0x54,0x3a,0x0b,0x40,0x70,0x69,0x74,0x63,0x68,0x69,0x69,0x3a,0x0c,0x40,0x76,0x6f,0x6c,0x75,0x6d,0x65,0x69,0x55))
  216(1)
  ShowMessageFace("",0,1,1,10)
  ShowMessage("Vinum is chasing you, run away from her!\nIf you get caught, it's game over!")
  Wait(30)
  ChangeVariable(1206,1206,0,0,9)
  ChangeSaveEnabled(0)
  EndEventProcessing()
  0()
 PAGE   2
  // condition: variable 1206 >= 9
  0()



EVENT   104
 PAGE   1
  0()



EVENT   105
 PAGE   1
  0()



EVENT   106
 PAGE   1
  ShowMessageFace("",0,0,2,1)
  ShowMessage("\\n<Middle-Aged Man>E-Eeeeek...!\nWhy is this happening...!")
  ShowMessageFace("kazuya_fc2",2,0,2,2)
  ShowMessage("\\n<Kazuya>Hold on, we'll get help soon.")
  ShowMessageFace("",0,0,2,3)
  ShowMessage("We can't protect everyone here by ourselves.\nWe have no choice but to get out of here as soon as possible and call for help...")
  0()



EVENT   47
 PAGE   1
  0()



EVENT   48
 PAGE   1
  0()



EVENT   107
 PAGE   1
  0()



EVENT   108
 PAGE   1
  ShowMessageFace("",0,0,2,1)
  ShowMessage("\\n<Girl>My friend went to the room ahead.\nPlease, help him...")
  205(-1,bytes(0x04,0x08,0x6f,0x3a,0x13,0x52,0x50,0x47,0x3a,0x3a,0x4d,0x6f,0x76,0x65,0x52,0x6f,0x75,0x74,0x65,0x09,0x3a,0x0c,0x40,0x72,0x65,0x70,0x65,0x61,0x74,0x46,0x3a,0x0f,0x40,0x73,0x6b,0x69,0x70,0x70,0x61,0x62,0x6c,0x65,0x46,0x3a,0x0a,0x40,0x77,0x61,0x69,0x74,0x54,0x3a,0x0a,0x40,0x6c,0x69,0x73,0x74,0x5b,0x07,0x6f,0x3a,0x15,0x52,0x50,0x47,0x3a,0x3a,0x4d,0x6f,0x76,0x65,0x43,0x6f,0x6d,0x6d,0x61,0x6e,0x64,0x07,0x3a,0x0a,0x40,0x63,0x6f,0x64,0x65,0x69,0x15,0x3a,0x10,0x40,0x70,0x61,0x72,0x61,0x6d,0x65,0x74,0x65,0x72,0x73,0x5b,0x00,0x6f,0x3b,0x0a,0x07,0x3b,0x0b,0x69,0x00,0x3b,0x0c,0x5b,0x00))
  ShowMessageFace("kazuya_fc2",2,0,2,2)
  ShowMessage("\\n<Kazuya>The presence ahead isn't normal...")
  ShowMessageFace("",0,0,2,3)
  ShowMessage("It's very unlikely that her friend who stepped into there is safe. I can't tell her that though...")
  205(-1,bytes(0x04,0x08,0x6f,0x3a,0x13,0x52,0x50,0x47,0x3a,0x3a,0x4d,0x6f,0x76,0x65,0x52,0x6f,0x75,0x74,0x65,0x09,0x3a,0x0c,0x40,0x72,0x65,0x70,0x65,0x61,0x74,0x46,0x3a,0x0f,0x40,0x73,0x6b,0x69,0x70,0x70,0x61,0x62,0x6c,0x65,0x46,0x3a,0x0a,0x40,0x77,0x61,0x69,0x74,0x54,0x3a,0x0a,0x40,0x6c,0x69,0x73,0x74,0x5b,0x07,0x6f,0x3a,0x15,0x52,0x50,0x47,0x3a,0x3a,0x4d,0x6f,0x76,0x65,0x43,0x6f,0x6d,0x6d,0x61,0x6e,0x64,0x07,0x3a,0x0a,0x40,0x63,0x6f,0x64,0x65,0x69,0x17,0x3a,0x10,0x40,0x70,0x61,0x72,0x61,0x6d,0x65,0x74,0x65,0x72,0x73,0x5b,0x00,0x6f,0x3b,0x0a,0x07,0x3b,0x0b,0x69,0x00,0x3b,0x0c,0x5b,0x00))
  ShowMessageFace("kazuya_fc2",1,0,2,4)
  ShowMessage("\\n<Kazuya>You must absolutely not go in there.\nKeep hiding here... Okay?")
  ShowMessageFace("",0,0,2,5)
  ShowMessage("\\n<Girl>Yeah...")
  0()



EVENT   109
 PAGE   1
  0()



EVENT   110
 PAGE   1
  0()



EVENT   111
 PAGE   1
  0()



EVENT   112
 PAGE   1
  0()



EVENT   113
 PAGE   1
  0()



EVENT   114
 PAGE   1
  0()



EVENT   115
 PAGE   1
  0()



EVENT   116
 PAGE   1
  0()



EVENT   117
 PAGE   1
  0()



EVENT   118
 PAGE   1
  0()



EVENT   119
 PAGE   1
  ShowMessageFace("",0,0,2,1)
  ShowMessage("\\n<Sister>O' Ilias, please save us...\nO' Ilias, please save us...")
  ShowMessageFace("",0,0,2,2)
  ShowMessage("She keeps praying with all her heart...")
  0()



EVENT   120
 PAGE   1
  0()



EVENT   121
 PAGE   1
  0()



EVENT   122
 PAGE   1
  ShowMessageFace("kazuya_fc2",2,0,2,1)
  ShowMessage("\\n<Kazuya>Mukuro... She's not moving, what's going on?")
  ShowMessageFace("",0,0,2,2)
  ShowMessage("She doesn't react at all.\nShe seems to have stopped functioning...")
  0()



EVENT   123
 PAGE   1
  ShowMessageFace("mukuro_fc1",0,0,2,1)
  ShowMessage("\\n<Mukuro>Ka... a... t...")
  ShowMessageFace("kazuya_fc2",2,0,2,2)
  ShowMessage("\\n<Kazuya>What's going on, is she broken...?")
  ShowMessageFace("",0,0,2,3)
  ShowMessage("Her words are inaudible and she isn't moving.\nShe seems to have stopped functioning...")
  0()



EVENT   29
 PAGE   1
  ShowMessageFace("",0,0,2,1)
  ShowMessage("\\n<Warrior>Don't go ahead... Don't go ahead...")
  ShowMessageFace("",0,0,2,2)
  ShowMessage("He keeps repeating the same words...")
  0()



EVENT   49
 PAGE   1
  0()



EVENT   124
 PAGE   1
  0()



EVENT   125
 PAGE   1
  0()



EVENT   126
 PAGE   1
  0()



EVENT   127
 PAGE   1
  0()



EVENT   128
 PAGE   1
  0()



EVENT   129
 PAGE   1
  0()



EVENT   130
 PAGE   1
  0()



EVENT   57
 PAGE   1
  ShowMessageFace("",0,0,2,1)
  ShowMessage("Mukuro doesn't react at all.\nShe seems to have stopped functioning...")
  0()



EVENT   58
 PAGE   1
  ShowMessageFace("",0,0,2,1)
  ShowMessage("Mukuro doesn't react at all.\nShe seems to have stopped functioning...")
  0()



EVENT   59
 PAGE   1
  ShowMessageFace("",0,0,2,1)
  ShowMessage("Mukuro doesn't react at all.\nShe seems to have stopped functioning...")
  0()



EVENT   60
 PAGE   1
  ShowMessageFace("",0,0,2,1)
  ShowMessage("Mukuro doesn't react at all.\nShe seems to have stopped functioning...")
  0()



EVENT   61
 PAGE   1
  ShowMessageFace("",0,0,2,1)
  ShowMessage("Mukuro doesn't react at all.\nShe seems to have stopped functioning...")
  0()



EVENT   62
 PAGE   1
  ShowMessageFace("",0,0,2,1)
  ShowMessage("Mukuro doesn't react at all.\nShe seems to have stopped functioning...")
  0()



EVENT   64
 PAGE   1
  ShowMessageFace("",0,0,2,1)
  ShowMessage("Mukuro doesn't react at all.\nShe seems to have stopped functioning...")
  0()



EVENT   131
 PAGE   1
  ShowMessageFace("",0,0,2,1)
  ShowMessage("Mukuro doesn't react at all.\nShe seems to have stopped functioning...")
  0()



EVENT   63
 PAGE   1
  ShowMessageFace("",0,0,2,1)
  ShowMessage("Mukuro doesn't react at all.\nShe seems to have stopped functioning...")
  0()



EVENT   71
 PAGE   1
  ShowMessageFace("",0,0,2,1)
  ShowMessage("Mukuro doesn't react at all.\nShe seems to have stopped functioning...")
  0()



EVENT   66
 PAGE   1
  ShowMessageFace("",0,0,2,1)
  ShowMessage("Mukuro doesn't react at all.\nShe seems to have stopped functioning...")
  0()



EVENT   65
 PAGE   1
  ShowMessageFace("",0,0,2,1)
  ShowMessage("Mukuro doesn't react at all.\nShe seems to have stopped functioning...")
  0()



EVENT   132
 PAGE   1
  0()



EVENT   133
 PAGE   1
  0()



EVENT   134
 PAGE   1
  0()



EVENT   135
 PAGE   1
  0()



EVENT   136
 PAGE   1
  0()



EVENT   138
 PAGE   1
  0()



EVENT   139
 PAGE   1
  0()



EVENT   140
 PAGE   1
  0()



EVENT   141
 PAGE   1
  0()



EVENT   142
 PAGE   1
  0()



EVENT   143
 PAGE   1
  0()



EVENT   144
 PAGE   1
  0()



EVENT   145
 PAGE   1
  0()



EVENT   146
 PAGE   1
  0()



EVENT   147
 PAGE   1
  0()



EVENT   137
 PAGE   1
  ShowMessageFace("",0,0,2,1)
  ShowMessage("A job change book has been left here open...")
  355("SceneManager.call(Scene_JobChange)")
  314(0,0)
  EndEventProcessing()
  0()



EVENT   148
 PAGE   1
  ShowMessageFace("",0,0,2,1)
  ShowMessage("A job change book has been left here open...")
  355("SceneManager.call(Scene_JobChange)")
  Wait(1)
  314(0,0)
  EndEventProcessing()
  0()



EVENT   149
 PAGE   1
  250(bytes(0x04,0x08,0x6f,0x3a,0x0c,0x52,0x50,0x47,0x3a,0x3a,0x53,0x45,0x08,0x3a,0x0a,0x40,0x6e,0x61,0x6d,0x65,0x49,0x22,0x0a,0x43,0x68,0x65,0x73,0x74,0x06,0x3a,0x06,0x45,0x54,0x3a,0x0b,0x40,0x70,0x69,0x74,0x63,0x68,0x69,0x69,0x3a,0x0c,0x40,0x76,0x6f,0x6c,0x75,0x6d,0x65,0x69,0x55))
  205(0,bytes(0x04,0x08,0x6f,0x3a,0x13,0x52,0x50,0x47,0x3a,0x3a,0x4d,0x6f,0x76,0x65,0x52,0x6f,0x75,0x74,0x65,0x09,0x3a,0x0c,0x40,0x72,0x65,0x70,0x65,0x61,0x74,0x46,0x3a,0x0f,0x40,0x73,0x6b,0x69,0x70,0x70,0x61,0x62,0x6c,0x65,0x46,0x3a,0x0a,0x40,0x77,0x61,0x69,0x74,0x54,0x3a,0x0a,0x40,0x6c,0x69,0x73,0x74,0x5b,0x0b,0x6f,0x3a,0x15,0x52,0x50,0x47,0x3a,0x3a,0x4d,0x6f,0x76,0x65,0x43,0x6f,0x6d,0x6d,0x61,0x6e,0x64,0x07,0x3a,0x0a,0x40,0x63,0x6f,0x64,0x65,0x69,0x29,0x3a,0x10,0x40,0x70,0x61,0x72,0x61,0x6d,0x65,0x74,0x65,0x72,0x73,0x5b,0x00,0x6f,0x3b,0x0a,0x07,0x3b,0x0b,0x69,0x16,0x3b,0x0c,0x5b,0x00,0x6f,0x3b,0x0a,0x07,0x3b,0x0b,0x69,0x14,0x3b,0x0c,0x5b,0x06,0x69,0x08,0x6f,0x3b,0x0a,0x07,0x3b,0x0b,0x69,0x17,0x3b,0x0c,0x5b,0x00,0x6f,0x3b,0x0a,0x07,0x3b,0x0b,0x69,0x14,0x3b,0x0c,0x5b,0x06,0x69,0x08,0x6f,0x3b,0x0a,0x07,0x3b,0x0b,0x69,0x00,0x3b,0x0c,0x5b,0x00))
  ChangeSelfSwitch("A",0)
  ChangeInventoryArmor(290,0,0,1,false)
  0()
 PAGE   2
  // condition: self-switch A is ON
  0()



EVENT   150
 PAGE   1
  250(bytes(0x04,0x08,0x6f,0x3a,0x0c,0x52,0x50,0x47,0x3a,0x3a,0x53,0x45,0x08,0x3a,0x0a,0x40,0x6e,0x61,0x6d,0x65,0x49,0x22,0x0a,0x43,0x68,0x65,0x73,0x74,0x06,0x3a,0x06,0x45,0x54,0x3a,0x0b,0x40,0x70,0x69,0x74,0x63,0x68,0x69,0x69,0x3a,0x0c,0x40,0x76,0x6f,0x6c,0x75,0x6d,0x65,0x69,0x55))
  205(0,bytes(0x04,0x08,0x6f,0x3a,0x13,0x52,0x50,0x47,0x3a,0x3a,0x4d,0x6f,0x76,0x65,0x52,0x6f,0x75,0x74,0x65,0x09,0x3a,0x0c,0x40,0x72,0x65,0x70,0x65,0x61,0x74,0x46,0x3a,0x0f,0x40,0x73,0x6b,0x69,0x70,0x70,0x61,0x62,0x6c,0x65,0x46,0x3a,0x0a,0x40,0x77,0x61,0x69,0x74,0x54,0x3a,0x0a,0x40,0x6c,0x69,0x73,0x74,0x5b,0x0b,0x6f,0x3a,0x15,0x52,0x50,0x47,0x3a,0x3a,0x4d,0x6f,0x76,0x65,0x43,0x6f,0x6d,0x6d,0x61,0x6e,0x64,0x07,0x3a,0x0a,0x40,0x63,0x6f,0x64,0x65,0x69,0x29,0x3a,0x10,0x40,0x70,0x61,0x72,0x61,0x6d,0x65,0x74,0x65,0x72,0x73,0x5b,0x00,0x6f,0x3b,0x0a,0x07,0x3b,0x0b,0x69,0x16,0x3b,0x0c,0x5b,0x00,0x6f,0x3b,0x0a,0x07,0x3b,0x0b,0x69,0x14,0x3b,0x0c,0x5b,0x06,0x69,0x08,0x6f,0x3b,0x0a,0x07,0x3b,0x0b,0x69,0x17,0x3b,0x0c,0x5b,0x00,0x6f,0x3b,0x0a,0x07,0x3b,0x0b,0x69,0x14,0x3b,0x0c,0x5b,0x06,0x69,0x08,0x6f,0x3b,0x0a,0x07,0x3b,0x0b,0x69,0x00,0x3b,0x0c,0x5b,0x00))
  ChangeSelfSwitch("A",0)
  ChangeInventoryWeapon(315,0,0,1,false)
  0()
 PAGE   2
  // condition: self-switch A is ON
  0()



EVENT   151
 PAGE   1
  250(bytes(0x04,0x08,0x6f,0x3a,0x0c,0x52,0x50,0x47,0x3a,0x3a,0x53,0x45,0x08,0x3a,0x0a,0x40,0x6e,0x61,0x6d,0x65,0x49,0x22,0x0a,0x43,0x68,0x65,0x73,0x74,0x06,0x3a,0x06,0x45,0x54,0x3a,0x0b,0x40,0x70,0x69,0x74,0x63,0x68,0x69,0x69,0x3a,0x0c,0x40,0x76,0x6f,0x6c,0x75,0x6d,0x65,0x69,0x55))
  205(0,bytes(0x04,0x08,0x6f,0x3a,0x13,0x52,0x50,0x47,0x3a,0x3a,0x4d,0x6f,0x76,0x65,0x52,0x6f,0x75,0x74,0x65,0x09,0x3a,0x0c,0x40,0x72,0x65,0x70,0x65,0x61,0x74,0x46,0x3a,0x0f,0x40,0x73,0x6b,0x69,0x70,0x70,0x61,0x62,0x6c,0x65,0x46,0x3a,0x0a,0x40,0x77,0x61,0x69,0x74,0x54,0x3a,0x0a,0x40,0x6c,0x69,0x73,0x74,0x5b,0x0b,0x6f,0x3a,0x15,0x52,0x50,0x47,0x3a,0x3a,0x4d,0x6f,0x76,0x65,0x43,0x6f,0x6d,0x6d,0x61,0x6e,0x64,0x07,0x3a,0x0a,0x40,0x63,0x6f,0x64,0x65,0x69,0x29,0x3a,0x10,0x40,0x70,0x61,0x72,0x61,0x6d,0x65,0x74,0x65,0x72,0x73,0x5b,0x00,0x6f,0x3b,0x0a,0x07,0x3b,0x0b,0x69,0x16,0x3b,0x0c,0x5b,0x00,0x6f,0x3b,0x0a,0x07,0x3b,0x0b,0x69,0x14,0x3b,0x0c,0x5b,0x06,0x69,0x08,0x6f,0x3b,0x0a,0x07,0x3b,0x0b,0x69,0x17,0x3b,0x0c,0x5b,0x00,0x6f,0x3b,0x0a,0x07,0x3b,0x0b,0x69,0x14,0x3b,0x0c,0x5b,0x06,0x69,0x08,0x6f,0x3b,0x0a,0x07,0x3b,0x0b,0x69,0x00,0x3b,0x0c,0x5b,0x00))
  ChangeSelfSwitch("A",0)
  ChangeInventoryArmor(26,0,0,1,false)
  0()
 PAGE   2
  // condition: self-switch A is ON
  0()



EVENT   153
 PAGE   1
  250(bytes(0x04,0x08,0x6f,0x3a,0x0c,0x52,0x50,0x47,0x3a,0x3a,0x53,0x45,0x08,0x3a,0x0a,0x40,0x6e,0x61,0x6d,0x65,0x49,0x22,0x0a,0x43,0x68,0x65,0x73,0x74,0x06,0x3a,0x06,0x45,0x54,0x3a,0x0b,0x40,0x70,0x69,0x74,0x63,0x68,0x69,0x69,0x3a,0x0c,0x40,0x76,0x6f,0x6c,0x75,0x6d,0x65,0x69,0x55))
  205(0,bytes(0x04,0x08,0x6f,0x3a,0x13,0x52,0x50,0x47,0x3a,0x3a,0x4d,0x6f,0x76,0x65,0x52,0x6f,0x75,0x74,0x65,0x09,0x3a,0x0c,0x40,0x72,0x65,0x70,0x65,0x61,0x74,0x46,0x3a,0x0f,0x40,0x73,0x6b,0x69,0x70,0x70,0x61,0x62,0x6c,0x65,0x46,0x3a,0x0a,0x40,0x77,0x61,0x69,0x74,0x46,0x3a,0x0a,0x40,0x6c,0x69,0x73,0x74,0x5b,0x0b,0x6f,0x3a,0x15,0x52,0x50,0x47,0x3a,0x3a,0x4d,0x6f,0x76,0x65,0x43,0x6f,0x6d,0x6d,0x61,0x6e,0x64,0x07,0x3a,0x0a,0x40,0x63,0x6f,0x64,0x65,0x69,0x29,0x3a,0x10,0x40,0x70,0x61,0x72,0x61,0x6d,0x65,0x74,0x65,0x72,0x73,0x5b,0x00,0x6f,0x3b,0x0a,0x07,0x3b,0x0b,0x69,0x16,0x3b,0x0c,0x5b,0x00,0x6f,0x3b,0x0a,0x07,0x3b,0x0b,0x69,0x14,0x3b,0x0c,0x5b,0x06,0x69,0x08,0x6f,0x3b,0x0a,0x07,0x3b,0x0b,0x69,0x17,0x3b,0x0c,0x5b,0x00,0x6f,0x3b,0x0a,0x07,0x3b,0x0b,0x69,0x14,0x3b,0x0c,0x5b,0x06,0x69,0x08,0x6f,0x3b,0x0a,0x07,0x3b,0x0b,0x69,0x00,0x3b,0x0c,0x5b,0x00))
  Wait(15)
  250(bytes(0x04,0x08,0x6f,0x3a,0x0c,0x52,0x50,0x47,0x3a,0x3a,0x53,0x45,0x08,0x3a,0x0a,0x40,0x6e,0x61,0x6d,0x65,0x49,0x22,0x0c,0x43,0x68,0x69,0x63,0x6b,0x65,0x6e,0x06,0x3a,0x06,0x45,0x54,0x3a,0x0b,0x40,0x70,0x69,0x74,0x63,0x68,0x69,0x69,0x3a,0x0c,0x40,0x76,0x6f,0x6c,0x75,0x6d,0x65,0x69,0x55))
  ShowMessageFace("kazuya_fc2",3,0,2,1)
  ShowMessage("\\n<Kazuya>There is a chicken in the treasure chest!?")
  ChangeSelfSwitch("A",0)
  RunCommonEvent(514)
  0()
 PAGE   2
  // condition: self-switch A is ON
  0()



EVENT   154
 PAGE   1
  250(bytes(0x04,0x08,0x6f,0x3a,0x0c,0x52,0x50,0x47,0x3a,0x3a,0x53,0x45,0x08,0x3a,0x0a,0x40,0x6e,0x61,0x6d,0x65,0x49,0x22,0x0a,0x49,0x74,0x65,0x6d,0x31,0x06,0x3a,0x06,0x45,0x54,0x3a,0x0b,0x40,0x70,0x69,0x74,0x63,0x68,0x69,0x69,0x3a,0x0c,0x40,0x76,0x6f,0x6c,0x75,0x6d,0x65,0x69,0x55))
  ChangeSelfSwitch("A",0)
  ChangeInventory_Item(8,0,0,1)
  0()
 PAGE   2
  // condition: self-switch A is ON
  0()



EVENT   155
 PAGE   1
  250(bytes(0x04,0x08,0x6f,0x3a,0x0c,0x52,0x50,0x47,0x3a,0x3a,0x53,0x45,0x08,0x3a,0x0a,0x40,0x6e,0x61,0x6d,0x65,0x49,0x22,0x0a,0x49,0x74,0x65,0x6d,0x31,0x06,0x3a,0x06,0x45,0x54,0x3a,0x0b,0x40,0x70,0x69,0x74,0x63,0x68,0x69,0x69,0x3a,0x0c,0x40,0x76,0x6f,0x6c,0x75,0x6d,0x65,0x69,0x55))
  ChangeSelfSwitch("A",0)
  ChangeInventory_Item(11,0,0,1)
  0()
 PAGE   2
  // condition: self-switch A is ON
  0()



EVENT   156
 PAGE   1
  ShowMessageFace("",0,0,2,1)
  ShowMessage("This bed will allow you to rest safely.\nWould you like to rest?")
  ShowChoices(strings("Yes","No"),2)
  IfPlayerPicksChoice(0,null)
   221()
   249(bytes(0x04,0x08,0x6f,0x3a,0x0c,0x52,0x50,0x47,0x3a,0x3a,0x4d,0x45,0x08,0x3a,0x0a,0x40,0x6e,0x61,0x6d,0x65,0x49,0x22,0x08,0x49,0x6e,0x6e,0x06,0x3a,0x06,0x45,0x54,0x3a,0x0b,0x40,0x70,0x69,0x74,0x63,0x68,0x69,0x69,0x3a,0x0c,0x40,0x76,0x6f,0x6c,0x75,0x6d,0x65,0x69,0x69))
   Wait(150)
   314(0,0)
   222()
   0()
  IfPlayerPicksChoice(1,null)
   0()
  404()
  0()



EVENT   44
 PAGE   1
  250(bytes(0x04,0x08,0x6f,0x3a,0x0c,0x52,0x50,0x47,0x3a,0x3a,0x53,0x45,0x08,0x3a,0x0a,0x40,0x6e,0x61,0x6d,0x65,0x49,0x22,0x0a,0x43,0x68,0x65,0x73,0x74,0x06,0x3a,0x06,0x45,0x54,0x3a,0x0b,0x40,0x70,0x69,0x74,0x63,0x68,0x69,0x69,0x3a,0x0c,0x40,0x76,0x6f,0x6c,0x75,0x6d,0x65,0x69,0x55))
  205(0,bytes(0x04,0x08,0x6f,0x3a,0x13,0x52,0x50,0x47,0x3a,0x3a,0x4d,0x6f,0x76,0x65,0x52,0x6f,0x75,0x74,0x65,0x09,0x3a,0x0c,0x40,0x72,0x65,0x70,0x65,0x61,0x74,0x46,0x3a,0x0f,0x40,0x73,0x6b,0x69,0x70,0x70,0x61,0x62,0x6c,0x65,0x46,0x3a,0x0a,0x40,0x77,0x61,0x69,0x74,0x54,0x3a,0x0a,0x40,0x6c,0x69,0x73,0x74,0x5b,0x0b,0x6f,0x3a,0x15,0x52,0x50,0x47,0x3a,0x3a,0x4d,0x6f,0x76,0x65,0x43,0x6f,0x6d,0x6d,0x61,0x6e,0x64,0x07,0x3a,0x0a,0x40,0x63,0x6f,0x64,0x65,0x69,0x29,0x3a,0x10,0x40,0x70,0x61,0x72,0x61,0x6d,0x65,0x74,0x65,0x72,0x73,0x5b,0x00,0x6f,0x3b,0x0a,0x07,0x3b,0x0b,0x69,0x16,0x3b,0x0c,0x5b,0x00,0x6f,0x3b,0x0a,0x07,0x3b,0x0b,0x69,0x14,0x3b,0x0c,0x5b,0x06,0x69,0x08,0x6f,0x3b,0x0a,0x07,0x3b,0x0b,0x69,0x17,0x3b,0x0c,0x5b,0x00,0x6f,0x3b,0x0a,0x07,0x3b,0x0b,0x69,0x14,0x3b,0x0c,0x5b,0x06,0x69,0x08,0x6f,0x3b,0x0a,0x07,0x3b,0x0b,0x69,0x00,0x3b,0x0c,0x5b,0x00))
  ChangeSelfSwitch("A",0)
  ChangeInventoryArmor(137,0,0,1,false)
  0()
 PAGE   2
  // condition: self-switch A is ON
  0()



EVENT   157
 PAGE   1
  ShowMessageFace("",0,0,2,1)
  ShowMessage("This bed will allow you to rest safely.\nWould you like to rest?")
  ShowChoices(strings("Yes","No"),2)
  IfPlayerPicksChoice(0,null)
   221()
   249(bytes(0x04,0x08,0x6f,0x3a,0x0c,0x52,0x50,0x47,0x3a,0x3a,0x4d,0x45,0x08,0x3a,0x0a,0x40,0x6e,0x61,0x6d,0x65,0x49,0x22,0x08,0x49,0x6e,0x6e,0x06,0x3a,0x06,0x45,0x54,0x3a,0x0b,0x40,0x70,0x69,0x74,0x63,0x68,0x69,0x69,0x3a,0x0c,0x40,0x76,0x6f,0x6c,0x75,0x6d,0x65,0x69,0x69))
   Wait(150)
   314(0,0)
   222()
   0()
  IfPlayerPicksChoice(1,null)
   0()
  404()
  0()



EVENT   152
 PAGE   1
  // condition: variable 1206 >= 3
  ShowMessageFace("kazuya_fc2",2,0,2,1)
  ShowMessage("\\n<Kazuya>There is no escape if we go there!")
  205(-1,bytes(0x04,0x08,0x6f,0x3a,0x13,0x52,0x50,0x47,0x3a,0x3a,0x4d,0x6f,0x76,0x65,0x52,0x6f,0x75,0x74,0x65,0x09,0x3a,0x0c,0x40,0x72,0x65,0x70,0x65,0x61,0x74,0x46,0x3a,0x0f,0x40,0x73,0x6b,0x69,0x70,0x70,0x61,0x62,0x6c,0x65,0x46,0x3a,0x0a,0x40,0x77,0x61,0x69,0x74,0x54,0x3a,0x0a,0x40,0x6c,0x69,0x73,0x74,0x5b,0x07,0x6f,0x3a,0x15,0x52,0x50,0x47,0x3a,0x3a,0x4d,0x6f,0x76,0x65,0x43,0x6f,0x6d,0x6d,0x61,0x6e,0x64,0x07,0x3a,0x0a,0x40,0x63,0x6f,0x64,0x65,0x69,0x06,0x3a,0x10,0x40,0x70,0x61,0x72,0x61,0x6d,0x65,0x74,0x65,0x72,0x73,0x5b,0x00,0x6f,0x3b,0x0a,0x07,0x3b,0x0b,0x69,0x00,0x3b,0x0c,0x5b,0x00))
  0()



EVENT   158
 PAGE   1
  // condition: variable 1206 >= 9
  ShowMessageFace("kazuya_fc2",2,0,2,1)
  ShowMessage("\\n<Kazuya>There is no escape if we go there!")
  205(-1,bytes(0x04,0x08,0x6f,0x3a,0x13,0x52,0x50,0x47,0x3a,0x3a,0x4d,0x6f,0x76,0x65,0x52,0x6f,0x75,0x74,0x65,0x09,0x3a,0x0c,0x40,0x72,0x65,0x70,0x65,0x61,0x74,0x46,0x3a,0x0f,0x40,0x73,0x6b,0x69,0x70,0x70,0x61,0x62,0x6c,0x65,0x46,0x3a,0x0a,0x40,0x77,0x61,0x69,0x74,0x54,0x3a,0x0a,0x40,0x6c,0x69,0x73,0x74,0x5b,0x07,0x6f,0x3a,0x15,0x52,0x50,0x47,0x3a,0x3a,0x4d,0x6f,0x76,0x65,0x43,0x6f,0x6d,0x6d,0x61,0x6e,0x64,0x07,0x3a,0x0a,0x40,0x63,0x6f,0x64,0x65,0x69,0x07,0x3a,0x10,0x40,0x70,0x61,0x72,0x61,0x6d,0x65,0x74,0x65,0x72,0x73,0x5b,0x00,0x6f,0x3b,0x0a,0x07,0x3b,0x0b,0x69,0x00,0x3b,0x0c,0x5b,0x00))
  0()
