=begin

==更新履歴
  Date
	17/7/12		新規：修正1,2,3追加1,2,3,4
	17/7/18		修正:追加4
	17/8/2		修正:追加4
==
	修正1:陸地に降りた際にそのまま無音でBGMが切り替わらない。
	修正2:連戦でオートステートが機能しない。
	修正3:二刀流時にダメージが異常に増加する。
	追加1:職業を忘れる
	追加2:マスタリーと二刀流
	追加3:混沌の迷宮エネミーのスキル使用台詞
	追加4:拡張特徴の計算式変更
=end

#修正1:陸地に降りた際にそのまま無音でBGMが切り替わらない。

#修正2:連戦でオートステートが機能しない。

#追加1:職業を忘れる
#==============================================================================
# ■ Game_Interpreter
#==============================================================================
class Game_Interpreter
  #--------------------------------------------------------------------------
  # ● 職業（種族）を忘れる
  #--------------------------------------------------------------------------
	def erase_class_level(actor_id, class_id)
		return unless $game_actors.exist?(actor_id)
		$game_actors[actor_id].erase_class(class_id)
	end
end

#==============================================================================
# ■ Game_Actor
#==============================================================================
class Game_Actor < Game_Battler
	#--------------------------------------------------------------------------
  # ● 職業（種族）を忘れる
  #--------------------------------------------------------------------------
	def erase_class(class_id)
		return unless @level_list.key?(class_id)
		kind = NWConst::Class::JOB_RANGE.include?(class_id) ? :class : :tribe
		@exp[class_id] = 0
		@level_list.delete(class_id) 
		current_class_id = kind == :class ? @class_id : @tribe_id
		if current_class_id == class_id
		@level_list[class_id] = 1
		end 
	end
end

#追加2:マスタリーと二刀流

#追加3:混沌の迷宮エネミーのスキル使用台詞



#追加4:拡張特徴計算式変更


#修正3:二刀流時にダメージが異常に増加する。
