﻿// EVENT 0917
Name "LoC Post-battle"

If(1,151,0,0,0)
 ChangeVariable(150,150,1,0,1)
 RunCommonEvent(918)
 ShowMessageFace("",0,0,2,1)
 ShowMessage("Rare Points increased by 1!")
 ShowMessage("(Current Rare Points:\\V[150])")
 0()
EndIf()
If(1,151,0,1,0)
 ChangeVariable(150,150,1,0,5)
 RunCommonEvent(918)
 ShowMessageFace("",0,0,2,2)
 ShowMessage("Rare Points increased by 5!")
 ShowMessage("(Current Rare Points:\\V[150])")
 0()
EndIf()
If(1,151,0,2,0)
 ChangeVariable(150,150,1,0,5)
 RunCommonEvent(918)
 ShowMessageFace("",0,0,2,3)
 ShowMessage("Rare Points increased by 5!")
 ShowMessage("(Current Rare Points:\\V[150])")
 0()
EndIf()
If(1,151,0,3,0)
 ChangeVariable(150,150,1,0,10)
 RunCommonEvent(918)
 ShowMessageFace("",0,0,2,4)
 ShowMessage("Rare Points increasd by 10!")
 ShowMessage("(Current Rare Points:\\V[150])")
 0()
EndIf()
If(1,151,0,4,0)
 ChangeVariable(150,150,1,0,10)
 RunCommonEvent(918)
 ShowMessageFace("",0,0,2,5)
 ShowMessage("Rare Points increasd by 10!")
 ShowMessage("(Current Rare Points:\\V[150])")
 0()
EndIf()
If(1,151,0,5,0)
 ChangeVariable(150,150,1,0,10)
 RunCommonEvent(918)
 ShowMessageFace("",0,0,2,6)
 ShowMessage("Rare Points increasd by 10!")
 ShowMessage("(Current Rare Points:\\V[150])")
 0()
EndIf()
ChangeSwitch(73,73,1)
0()
