// EVENT 4307
Name "Two-tailed Geisha 2"

If(0,25,1)
 221()
 PictureClear(5)
 PictureClear(6)
 ShowMessageFace("",0,0,2,0)
 ShowMessage("......")
 242(2)
 Wait(120)
 241(bytes(0x04,0x08,0x6f,0x3a,0x0d,0x52,0x50,0x47,0x3a,0x3a,0x42,0x47,0x4d,0x08,0x3a,0x0a,0x40,0x6e,0x61,0x6d,0x65,0x49,0x22,0x0c,0x63,0x61,0x73,0x74,0x6c,0x65,0x36,0x06,0x3a,0x06,0x45,0x54,0x3a,0x0c,0x40,0x76,0x6f,0x6c,0x75,0x6d,0x65,0x69,0x69,0x3a,0x0b,0x40,0x70,0x69,0x74,0x63,0x68,0x69,0x69))
 EndEventProcessing()
 0()
EndIf()
PictureDisplay(5,"80_kamuro_st03",0,0,0,0,100,100,255,0)
ShowMessageFace("kamuro_fc1",2,0,2,1)
ShowMessage("\\n<Kamuro>Y-You want me to s-suck on your penis...!?")
ShowMessageFace("",0,0,2,2)
ShowMessage("\\n<Luka>P-please...")
PictureDisplay(5,"80_kamuro_st01",0,0,0,0,100,100,255,0)
ShowMessageFace("kamuro_fc1",0,0,2,3)
ShowMessage("\\n<Kamuro>W-Well then, come to my room...")
ShowMessageFace("",0,0,2,4)
ShowMessage("I follow Kamuro to her room...")
221()
PictureDisplay(1,"bg195",0,0,0,0,100,100,255,0)
PictureDisplay(5,"80_kamuro_st01",0,0,0,0,100,100,255,0)
222()
241(bytes(0x04,0x08,0x6f,0x3a,0x0d,0x52,0x50,0x47,0x3a,0x3a,0x42,0x47,0x4d,0x08,0x3a,0x0a,0x40,0x6e,0x61,0x6d,0x65,0x49,0x22,0x09,0x65,0x72,0x6f,0x31,0x06,0x3a,0x06,0x45,0x54,0x3a,0x0c,0x40,0x76,0x6f,0x6c,0x75,0x6d,0x65,0x69,0x69,0x3a,0x0b,0x40,0x70,0x69,0x74,0x63,0x68,0x69,0x69))
ShowMessageFace("kamuro_fc1",0,0,2,5)
ShowMessage("\\n<Kamuro>Uhm, Well then...\nI'll use my mouth...")
PictureDisplay(5,"ev_kamuro_hb1",0,0,0,0,100,100,0,0)
PictureMove(5,null,0,0,0,0,100,100,255,0,30,true)
ShowMessageFace("",0,0,2,6)
ShowMessage("Kamuro reaches toward me, and pulls out my penis.")
ShowMessage("She brings her face close, as if smelling it.")
ShowMessageFace("kamuro_fc1",0,0,2,7)
ShowMessage("\\n<Kamuro>......")
ShowMessageFace("",0,0,2,8)
ShowMessage("She stares at my penis with a tense look on her face.")
ShowMessage("I can even feel her palms start to sweat a little bit.")
ShowMessageFace("kamuro_fc1",0,0,2,9)
ShowMessage("\\n<Kamuro>...If all I do is stare at it, nothing will happen.\nO-Okay then... I'll be using my mouth...")
PictureDisplay(5,"ev_kamuro_hb2",0,0,0,0,100,100,255,0)
ShowMessageFace("kamuro_fc1",0,0,2,10)
ShowMessage("\\n<Kamuro>First, I'll kiss the tip... *Kiss* Nnn...")
ShowMessageFace("",0,0,2,11)
ShowMessage("Kamuro's soft lips press against my tip.")
ShowMessage("The timid touch barely presses her lips against me.")
ShowMessageFace("",0,0,2,12)
ShowMessage("\\n<Luka>Nnngh...")
ShowMessageFace("",0,0,2,13)
ShowMessage("It's almost ticklish, but it feels good.")
ShowMessage("Leaking a moan, my waist trembles at the touch.")
ShowMessageFace("kamuro_fc1",0,0,2,14)
ShowMessage("\\n<Kamuro>Nnn... You're reacting...\nYour penis seems really happy to be kissed...")
ShowMessageFace("",0,0,2,15)
ShowMessage("Though still a little nervous, she seems like she's slightly relieved.")
ShowMessage("She parts her lips away from my penis, and stares at my tip again.")
ShowMessageFace("kamuro_fc1",0,0,2,16)
ShowMessage("\\n<Kamuro>Uhm, so on the tip... There's the pee hole...\nI'll kiss there, too... *Kiss*")
ShowMessageFace("",0,0,2,17)
ShowMessage("Her lips press against my glans again.")
ShowMessage("It seems like she's using my urethral hole as the target of her kiss...")
245(bytes(0x04,0x08,0x6f,0x3a,0x0d,0x52,0x50,0x47,0x3a,0x3a,0x42,0x47,0x53,0x08,0x3a,0x0a,0x40,0x6e,0x61,0x6d,0x65,0x49,0x22,0x10,0x6d,0x6f,0x6e,0x5f,0x68,0x76,0x6f,0x69,0x63,0x65,0x31,0x06,0x3a,0x06,0x45,0x54,0x3a,0x0c,0x40,0x76,0x6f,0x6c,0x75,0x6d,0x65,0x69,0x55,0x3a,0x0b,0x40,0x70,0x69,0x74,0x63,0x68,0x69,0x69))
ShowMessageFace("kamuro_fc1",0,0,2,18)
ShowMessage("\\n<Kamuro>Nnnn... *Kiss* *Kiss*")
ShowMessageFace("",0,0,2,19)
ShowMessage("Each time she kisses me, she slightly sucks on my tip.")
ShowMessage("The tiny suction pulls on my glans as she releases her lips.")
ShowMessageFace("",0,0,2,20)
ShowMessage("Repeating it over and over, it's a unique sensation.")
ShowMessage("The repetition of her kisses slowly builds up the desire in me.")
ShowMessageFace("",0,0,2,21)
ShowMessage("\\n<Luka>Ah... Unnngh...")
ShowMessageFace("kamuro_fc1",0,0,2,22)
ShowMessage("\\n<Kamuro>*Kiss*\n...?")
ShowMessageFace("",0,0,2,23)
ShowMessage("Kamuro stops, puzzled.")
ShowMessage("It's probably because she tasted the precome leaking from me.")
ShowMessageFace("kamuro_fc1",0,0,2,24)
ShowMessage("\\n<Kamuro>Is this precome...?\nNnn... *Kiss*")
ShowMessageFace("",0,0,2,25)
ShowMessage("She's slightly confused, but decides to keep going.")
ShowMessage("Her soft lips press against my glans, and she continues her tiny kisses.")
ShowMessageFace("",0,0,2,26)
ShowMessage("Each time she releases her lips, a tiny amount of precome leaks out.")
ShowMessage("But with her next kiss, she sucks it up into her mouth.")
ShowMessageFace("",0,0,2,27)
ShowMessage("Still sucking lightly, she pulls her lips back...")
ShowMessage("Pulling on my glans until she's too far away, the repeated kisses continue on and on.")
ShowMessageFace("kamuro_fc1",0,0,2,28)
ShowMessage("\\n<Kamuro>*Kiss* *Kiss* *Kiss*")
ShowMessageFace("",0,0,2,29)
ShowMessage("\\n<Luka>Ngh... Aaah...")
ShowMessageFace("",0,0,2,30)
ShowMessage("A very slow, deliberate pleasure.")
ShowMessage("The excitement of a young girl continually kissing my penis also adds to the excitement.")
ShowMessageFace("",0,0,2,31)
ShowMessage("At last, the desire to ejaculate fills my waist.")
ShowMessage("I want to come while feeling her soft lips on my penis...")
ShowMessageFace("",0,0,2,32)
ShowMessage("\\n<Luka>Ah, unnngh...!")
ShowMessageFace("kamuro_fc1",0,0,2,33)
ShowMessage("\\n<Kamuro>...?\n*Kiss* *Kiss*")
ShowMessageFace("",0,0,2,34)
ShowMessage("She looks confused at my moaning.")
ShowMessage("But unfazed, she continues kissing my glans.")
ShowMessageFace("",0,0,2,35)
ShowMessage("Her soft lips keep kissing my penis, already twitching.")
ShowMessage("Feeling too good, I ascend to heaven at once.")
ShowMessageFace("",0,0,2,36)
ShowMessage("\\n<Luka>D-don't... Aaaah...!!")
RunCommonEvent(104)
PictureDisplay(5,"ev_kamuro_hb3",0,0,0,0,100,100,255,0)
RunCommonEvent(105)
ShowMessageFace("kamuro_fc1",0,0,2,37)
ShowMessage("\\n<Kamuro>...Nnn!?\nNnngg... Nnnn...")
ShowMessageFace("",0,0,2,38)
ShowMessage("Kamuro is surprised by my sudden ejaculation, but she doesn't release her current kiss.")
ShowMessage("Instead, she sucks on my tip, taking in my semen as I come.")
ShowMessageFace("",0,0,2,39)
ShowMessage("She must have trained for this...")
ShowMessage("A weak, gentle way to force sweet pleasure into a man.")
ShowMessageFace("kamuro_fc1",0,0,2,40)
ShowMessage("\\n<Kamuro>Nnng... *Gulp*")
ShowMessageFace("",0,0,2,41)
ShowMessage("Sucking up my semen, Kamuro swallows it down.")
ShowMessage("Her surprised face slowly goes wide in a smile.")
PictureDisplay(5,"ev_kamuro_hb4",0,0,0,0,100,100,255,0)
ShowMessageFace("kamuro_fc1",0,0,2,42)
ShowMessage("\\n<Kamuro>I was so surprised when you came, you didn't warn me.\nI was still in the middle of my mouth skill...")
ShowMessageFace("",0,0,2,43)
ShowMessage("Kamuro licks the semen around her mouth as she speaks.")
ShowMessage("My penis is still being held in her small hands.")
ShowMessageFace("kamuro_fc1",0,0,2,44)
ShowMessage("\\n<Kamuro>For a small mouth like mine, I need to go through three stages before the man will come.\nFirst, kiss with my lips. Next, taste it with my mouth. Lastly, suck on the glans.")
ShowMessageFace("kamuro_fc1",0,0,2,45)
ShowMessage("\\n<Kamuro>That's what I was taught. But you came in the first stage...\n...I want to continue.")
ShowMessageFace("",0,0,2,46)
ShowMessage("Saying that, Kamuro presses her lips against my glans again.")
ShowMessage("But instead of just kissing me, she takes my tip itself into her mouth.")
ShowMessageFace("",0,0,2,47)
ShowMessage("\\n<Luka>Ah...! Ooooh...!")
245(bytes(0x04,0x08,0x6f,0x3a,0x0d,0x52,0x50,0x47,0x3a,0x3a,0x42,0x47,0x53,0x08,0x3a,0x0a,0x40,0x6e,0x61,0x6d,0x65,0x49,0x22,0x10,0x6d,0x6f,0x6e,0x5f,0x68,0x76,0x6f,0x69,0x63,0x65,0x32,0x06,0x3a,0x06,0x45,0x54,0x3a,0x0c,0x40,0x76,0x6f,0x6c,0x75,0x6d,0x65,0x69,0x55,0x3a,0x0b,0x40,0x70,0x69,0x74,0x63,0x68,0x69,0x69))
PictureDisplay(5,"ev_kamuro_hb5",0,0,0,0,100,100,255,0)
ShowMessageFace("kamuro_fc1",0,0,2,48)
ShowMessage("\\n<Kamuro>For the second phase... I'll taste it inside my mouth.\n*Suck* *Lick*")
ShowMessageFace("",0,0,2,49)
ShowMessage("Kamuro's tongue starts to move inside her mouth.")
ShowMessage("Her rough feeling tongue starts to gently lick my glans.")
ShowMessageFace("",0,0,2,50)
ShowMessage("Just like she said, it's as if she's only tasting my tip.")
ShowMessage("Welcomed into her mouth, my glans is being tasted by her sweet tongue.")
ShowMessageFace("kamuro_fc1",0,0,2,51)
ShowMessage("\\n<Kamuro>*Lick* I can still taste the semen...\n*Suck* *Lick*")
ShowMessageFace("",0,0,2,52)
ShowMessage("Her small tongue runs all over my glans, still sensitive after my ejaculation.")
ShowMessage("Due to her small mouth, I can feel her cheeks pressing against me as her tongue moves.")
ShowMessageFace("",0,0,2,53)
ShowMessage("In addition, her warm saliva is building, covering my penis.")
ShowMessage("Despite the gentle tongue movements, the sweet pleasure is building ever higher.")
ShowMessageFace("",0,0,2,54)
ShowMessage("\\n<Luka>Hau... Aah...")
ShowMessageFace("kamuro_fc1",0,0,2,55)
ShowMessage("\\n<Kamuro>*Lick* *Suck*")
ShowMessageFace("",0,0,2,56)
ShowMessage("Her tongue starts to focus on the back muscle of my penis.")
ShowMessage("The rough saliva covered tongue is crawling all over my glans.")
ShowMessageFace("",0,0,2,57)
ShowMessage("The young girl's tongue skills make me moan as she works.")
ShowMessage("Even though I just came, I can already feel a second coming on.")
ShowMessageFace("",0,0,2,58)
ShowMessage("\\n<Luka>Unnngh...I'm going to come again...")
ShowMessageFace("kamuro_fc1",0,0,2,59)
ShowMessage("\\n<Kamuro>Eh... Already?\nBut I'm still in the second phase... *Lick* *Suck*")
ShowMessageFace("",0,0,2,60)
ShowMessage("With a puzzled expression, Kamuro continues licking my glans.")
ShowMessage("The gentle tongue movements make my head go white in pleasure as I let go.")
ShowMessageFace("",0,0,2,61)
ShowMessage("\\n<Luka>I'm coming... Ahh......")
RunCommonEvent(104)
PictureDisplay(5,"ev_kamuro_hb6",0,0,0,0,100,100,255,0)
RunCommonEvent(105)
ShowMessageFace("kamuro_fc1",0,0,2,62)
ShowMessage("\\n<Kamuro>...Nnn!?")
ShowMessageFace("",0,0,2,63)
ShowMessage("I explode into her mouth as she licks my glans.")
ShowMessage("My cloudy white semen pours into her small mouth.")
ShowMessageFace("kamuro_fc1",0,0,2,64)
ShowMessage("\\n<Kamuro>Nnngg... Uhm, well, the third phase is...\nWhen he's about to come... As hard as possible... Suck!")
ShowMessageFace("kamuro_fc1",0,0,2,65)
ShowMessage("\\n<Kamuro>*Suuuuuuuuuuuuuuuuuck*")
ShowMessageFace("",0,0,2,66)
ShowMessage("\\n<Luka>I-I'm still coming, wait...!\nAaaaaah!!")
ShowMessageFace("",0,0,2,67)
ShowMessage("Despite me already being in the middle of my orgasm, Kamuro starts sucking on me as hard as she can.")
ShowMessageFace("",0,0,2,68)
ShowMessage("A crazed pleasure rushes through me during my orgasm.")
ShowMessage("My pulsing penis is sucked with an incredible intensity.")
ShowMessageFace("kamuro_fc1",0,0,2,69)
ShowMessage("\\n<Kamuro>*Suck* *Suuuck*")
ShowMessageFace("",0,0,2,70)
ShowMessage("The semen from my climax is quickly sucked down.")
ShowMessage("Even once I'm dry, her small mouth continues sucking hard on my glans.")
ShowMessageFace("",0,0,2,71)
ShowMessage("\\n<Luka>How can this... Again, I'm coming again...\nHnnngh...!!")
ShowMessageFace("",0,0,2,72)
ShowMessage("The moment my second ejaculation finished, I can already feel another coming.")
ShowMessage("Kamuro's intense sucking is drawing out an immediate third climax.")
ShowMessageFace("kamuro_fc1",0,0,2,73)
ShowMessage("\\n<Kamuro>*Suck* *Suuuuck*")
ShowMessageFace("",0,0,2,74)
ShowMessage("\\n<Luka>Aiyeee...!!")
RunCommonEvent(104)
PictureDisplay(5,"ev_kamuro_hb6",0,0,0,0,100,100,255,0)
RunCommonEvent(105)
ShowMessageFace("",0,0,2,75)
ShowMessage("For the third time, I come into Kamuro's mouth.")
ShowMessage("Not surprised this time, she drinks down every drop.")
ShowMessageFace("kamuro_fc1",0,0,2,76)
ShowMessage("\\n<Kamuro>...Nnng... *Gulp* *Gulp*")
ShowMessageFace("",0,0,2,77)
ShowMessage("\\n<Luka>Unnngh...Unnngh...")
246(2)
PictureDisplay(5,"ev_kamuro_hb7",0,0,0,0,100,100,255,0)
ShowMessageFace("",0,0,2,78)
ShowMessage("After drinking it all, she parts her mouth from me.")
ShowMessage("With a big smile on her face, she looks very happy.")
ShowMessageFace("",0,0,2,79)
ShowMessage("Meanwhile, after having come three times in a row, I'm too weak to move.")
ShowMessageFace("kamuro_fc1",1,0,2,80)
ShowMessage("\\n<Kamuro>Fufufu, I made you come three times...♪")
ShowMessageFace("kamuro_fc1",0,0,2,81)
ShowMessage("\\n<Kamuro>Uhm... Would you consider being my partner again sometime?\nIf you're my partner, I feel I like can practice my sexual techniques with peace of mind...")
ShowMessageFace("",0,0,2,82)
ShowMessage("\\n<Luka>......")
ShowMessageFace("",0,0,2,83)
ShowMessage("I'm too weak to reply.")
ShowMessage("I just go limp in front of the young girl.")
221()
PictureClear(5)
ShowMessageFace("",0,0,2,84)
ShowMessage("......")
242(2)
Wait(120)
241(bytes(0x04,0x08,0x6f,0x3a,0x0d,0x52,0x50,0x47,0x3a,0x3a,0x42,0x47,0x4d,0x08,0x3a,0x0a,0x40,0x6e,0x61,0x6d,0x65,0x49,0x22,0x0c,0x63,0x61,0x73,0x74,0x6c,0x65,0x36,0x06,0x3a,0x06,0x45,0x54,0x3a,0x0c,0x40,0x76,0x6f,0x6c,0x75,0x6d,0x65,0x69,0x69,0x3a,0x0b,0x40,0x70,0x69,0x74,0x63,0x68,0x69,0x69))
0()
