﻿// EVENT 7303
Name "Alleria: Defeat"

RunCommonEvent(7000)
PictureDisplay(5,"80_mob_ozyou_st01",0,0,0,0,100,100,255,0)
PictureClear(6)
ShowMessageFace("mob_ozyou_fc1",0,0,2,1)
ShowMessage("\\n<Alleria>I was victorious...\nIn which case, I'll be taking your bet.")
125(1,0,1200)
ShowMessageFace("",0,0,2,2)
ShowMessage("Luka hands over 1200G!")
ShowMessageFace("mob_ozyou_fc1",0,0,2,3)
ShowMessage("\\n<Alleria>You're always welcome to challenge me again.\nI'll squeeze out your sperm as many times you want.")
If(0,2331,1)
 PictureClear(5)
 281(1)
 TeleportPlayer(0,45,39,11,2,0)
 216(0)
 0()
EndIf()
EndEventProcessing()
0()
