// EVENT 4512
Name "Eva 2"

If(0,25,1)
 221()
 PictureClear(5)
 PictureClear(6)
 ShowMessageFace("",0,0,2,0)
 ShowMessage("......")
 242(2)
 Wait(120)
 241(bytes(0x04,0x08,0x6f,0x3a,0x0d,0x52,0x50,0x47,0x3a,0x3a,0x42,0x47,0x4d,0x08,0x3a,0x0a,0x40,0x6e,0x61,0x6d,0x65,0x49,0x22,0x0c,0x63,0x61,0x73,0x74,0x6c,0x65,0x36,0x06,0x3a,0x06,0x45,0x54,0x3a,0x0c,0x40,0x76,0x6f,0x6c,0x75,0x6d,0x65,0x69,0x69,0x3a,0x0b,0x40,0x70,0x69,0x74,0x63,0x68,0x69,0x69))
 EndEventProcessing()
 0()
EndIf()
PictureDisplay(5,"80_eva_st01",0,0,0,0,100,100,255,0)
ShowMessageFace("eva_fc1",0,0,2,1)
ShowMessage("\\n<Eva>Whaat? You want to rub your dick on my breasts...?")
ShowMessageFace("",0,0,2,2)
ShowMessage("\\n<Luka>P-please...")
PictureDisplay(5,"80_eva_st02",0,0,0,0,100,100,255,0)
ShowMessageFace("eva_fc1",1,0,2,3)
ShowMessage("\\n<Eva>Fufu, look at you, asking your ally for something like that.\nAll right, I'll make you feel amazing...")
ShowMessageFace("",0,0,2,4)
ShowMessage("I follow Eva to her room...")
PictureDisplay(1,"bg195",0,0,0,0,100,100,255,0)
PictureDisplay(5,"80_eva_st02",0,0,0,0,100,100,255,0)
222()
241(bytes(0x04,0x08,0x6f,0x3a,0x0d,0x52,0x50,0x47,0x3a,0x3a,0x42,0x47,0x4d,0x08,0x3a,0x0a,0x40,0x6e,0x61,0x6d,0x65,0x49,0x22,0x09,0x65,0x72,0x6f,0x31,0x06,0x3a,0x06,0x45,0x54,0x3a,0x0c,0x40,0x76,0x6f,0x6c,0x75,0x6d,0x65,0x69,0x69,0x3a,0x0b,0x40,0x70,0x69,0x74,0x63,0x68,0x69,0x69))
ShowMessageFace("eva_fc1",1,0,2,5)
ShowMessage("\\n<Eva>All right, I'll give you pleasure...")
245(bytes(0x04,0x08,0x6f,0x3a,0x0d,0x52,0x50,0x47,0x3a,0x3a,0x42,0x47,0x53,0x08,0x3a,0x0a,0x40,0x6e,0x61,0x6d,0x65,0x49,0x22,0x17,0x6d,0x6f,0x6e,0x5f,0x68,0x73,0x65,0x61,0x6e,0x31,0x37,0x5f,0x73,0x69,0x67,0x6f,0x6b,0x69,0x06,0x3a,0x06,0x45,0x54,0x3a,0x0c,0x40,0x76,0x6f,0x6c,0x75,0x6d,0x65,0x69,0x55,0x3a,0x0b,0x40,0x70,0x69,0x74,0x63,0x68,0x69,0x69))
PictureDisplay(5,"ev_eva_ct01",0,0,0,0,100,100,0,0)
PictureMove(5,null,0,0,0,0,100,100,255,0,30,true)
ShowMessageFace("",0,0,2,6)
ShowMessage("Eva crouches in front of me, and squeezes my erect dick between her breasts.")
ShowMessage("The soft touch of her breasts presses against my penis.")
ShowMessageFace("",0,0,2,7)
ShowMessage("\\n<Luka>Haau...")
ShowMessageFace("eva_fc1",1,0,2,8)
ShowMessage("\\n<Eva>Fufu, it looks like you're enjoying my breasts.\nEndure it and enjoy for as long as you can... Though that's probably too much to ask for.")
ShowMessageFace("",0,0,2,9)
ShowMessage("While giggling, Eva starts to move her breasts up and down.")
ShowMessage("Every so often, she presses them together, squeezing my penis.")
ShowMessageFace("",0,0,2,10)
ShowMessage("\\n<Luka>Ah, aaah...!")
ShowMessageFace("",0,0,2,11)
ShowMessage("Eva's tits are large, and soft. The elastic feeling of them lets my penis sink into her skin.")
ShowMessageFace("",0,0,2,12)
ShowMessage("And the warmth makes me feel like I could melt between them.")
ShowMessageFace("",0,0,2,13)
ShowMessage("\\n<Luka>D-don't... Hnnngh...!")
ShowMessageFace("eva_fc1",1,0,2,14)
ShowMessage("\\n<Eva>Oho, already moaning are you?\nPerhaps I'll make you come quickly, then.")
ShowMessageFace("",0,0,2,15)
ShowMessage("Suddenly, Eva starts moving her breasts up and down quickly!")
ShowMessage("Pressing my penis between them, she moves her right and left breast up and down in alternate motions.")
ShowMessageFace("",0,0,2,16)
ShowMessage("\\n<Luka>Ah, aaaaaah!!")
ShowMessageFace("",0,0,2,17)
ShowMessage("I scream in pleasure at the sudden stimulus.")
ShowMessage("Eva is trying to make me ejaculate right away...")
ShowMessageFace("eva_fc1",1,0,2,18)
ShowMessage("\\n<Eva>Let me see you squirm as you come.\nCover my breasts with your semen...")
ShowMessageFace("",0,0,2,19)
ShowMessage("\\n<Luka>No... Coming...\nAh, aaaaaah!!")
RunCommonEvent(104)
PictureDisplay(5,"ev_eva_ct02",0,0,0,0,100,100,255,0)
RunCommonEvent(105)
ShowMessageFace("",0,0,2,20)
ShowMessage("Submitting to her intense movements, I climax.")
ShowMessage("My penis pulses between her large breasts, spurting semen onto her skin.")
ShowMessageFace("",0,0,2,21)
ShowMessage("\\n<Luka>Nnngh...")
ShowMessageFace("",0,0,2,22)
ShowMessage("Soaking in that sweet feeling, every last drop is pressed out between her breasts.")
ShowMessageFace("eva_fc1",1,0,2,23)
ShowMessage("\\n<Eva>Ahaha, an almost instant kill.\nI want to tease this weak penis a bit more...")
ShowMessageFace("",0,0,2,24)
ShowMessage("\\n<Luka>N...no way... Aaaaaah!!")
ShowMessageFace("",0,0,2,25)
ShowMessage("Eva presses her breasts together right after my ejaculation is over.")
ShowMessage("Extra sensitive after my orgasm, Eva's already aiming to make me come again.")
ShowMessageFace("",0,0,2,26)
ShowMessage("My penis is crushed between her two breasts.")
ShowMessage("Shortly after my first orgasm, I'm already nearing a second.")
ShowMessageFace("",0,0,2,27)
ShowMessage("\\n<Luka>Hyaaa...! Th...that...!!\nIt's too much! Aaaaaah!!")
ShowMessageFace("eva_fc1",1,0,2,28)
ShowMessage("\\n<Eva>Fufu, I'm not going to go easy on you.\nShoot out your semen!")
ShowMessageFace("",0,0,2,29)
ShowMessage("\\n<Luka>Ah, ah, aaaaaah!!")
ShowMessageFace("",0,0,2,30)
ShowMessage("A merciless assault of pleasure.")
ShowMessage("There's no way I can win against a Succubus who's serious...")
RunCommonEvent(104)
PictureDisplay(5,"ev_eva_ct03",0,0,0,0,100,100,255,0)
RunCommonEvent(105)
ShowMessageFace("",0,0,2,31)
ShowMessage("\\n<Luka>Aaaaah...")
ShowMessageFace("",0,0,2,32)
ShowMessage("I come all over Eva's breasts for the second time.")
ShowMessage("But there's no time to soak in climax.")
ShowMessageFace("eva_fc1",1,0,2,33)
ShowMessage("\\n<Eva>You can come more...\nNow let me hear that delicious moan as you come again!")
ShowMessageFace("",0,0,2,34)
ShowMessage("\\n<Luka>Ahiii! Aaaaaah!!")
ShowMessageFace("",0,0,2,35)
ShowMessage("Toyed with by Eva's breasts, I tremble in ecstasy.")
ShowMessage("Her semen-covered breasts bounce up and down, overpowering me again.")
RunCommonEvent(104)
PictureDisplay(5,"ev_eva_ct04",0,0,0,0,100,100,255,0)
RunCommonEvent(105)
ShowMessageFace("",0,0,2,36)
ShowMessage("Forced to ejaculate yet again, my semen shoots everywhere.")
ShowMessage("Eva's breasts are covered in my semen...")
246(2)
ShowMessageFace("",0,0,2,37)
ShowMessage("\\n<Luka>Ah, aaah...")
ShowMessageFace("",0,0,2,38)
ShowMessage("Feeling my consciousness fading, I have no energy left to move.")
ShowMessage("Three conesecutive ejaculations took a toll on my body.")
ShowMessageFace("eva_fc1",1,0,2,39)
ShowMessage("\\n<Eva>You got weak so fast...\nThat's because you're a premature ejaculator.")
ShowMessageFace("eva_fc1",1,0,2,40)
ShowMessage("\\n<Eva>Your life will be in danger if I went any further.\nI'll stop here for today.")
ShowMessageFace("",0,0,2,41)
ShowMessage("Eva looks down at me with a glint in her eyes.")
ShowMessage("I was completely dominated by a Succubus...")
221()
PictureClear(5)
PictureClear(6)
ShowMessageFace("",0,0,2,42)
ShowMessage("......")
242(2)
Wait(120)
241(bytes(0x04,0x08,0x6f,0x3a,0x0d,0x52,0x50,0x47,0x3a,0x3a,0x42,0x47,0x4d,0x08,0x3a,0x0a,0x40,0x6e,0x61,0x6d,0x65,0x49,0x22,0x0c,0x63,0x61,0x73,0x74,0x6c,0x65,0x36,0x06,0x3a,0x06,0x45,0x54,0x3a,0x0c,0x40,0x76,0x6f,0x6c,0x75,0x6d,0x65,0x69,0x69,0x3a,0x0b,0x40,0x70,0x69,0x74,0x63,0x68,0x69,0x69))
0()
