// EVENT 7151
Name "Sara: Talk-Match"

If(0,25,1)
 ShowMessageFace("",0,0,2,0)
 ShowMessage("You cannot challenge this BF without copying over the pictures from the first chapter.")
 PictureClear(5)
 281(1)
 If(1,1028,0,7,2)
  TeleportPlayer(0,378,24,10,2,0)
  0()
 Else()
  TeleportPlayer(0,633,24,10,2,0)
  0()
 EndIf()
 241(bytes(0x04,0x08,0x6f,0x3a,0x0d,0x52,0x50,0x47,0x3a,0x3a,0x42,0x47,0x4d,0x08,0x3a,0x0a,0x40,0x6e,0x61,0x6d,0x65,0x49,0x22,0x0c,0x63,0x61,0x73,0x74,0x6c,0x65,0x32,0x06,0x3a,0x06,0x45,0x54,0x3a,0x0c,0x40,0x76,0x6f,0x6c,0x75,0x6d,0x65,0x69,0x69,0x3a,0x0b,0x40,0x70,0x69,0x74,0x63,0x68,0x69,0x69))
 EndEventProcessing()
 0()
EndIf()
If(1,816,0,0,0)
 ChangeVariable(816,816,0,0,1)
 0()
EndIf()
241(bytes(0x04,0x08,0x6f,0x3a,0x0d,0x52,0x50,0x47,0x3a,0x3a,0x42,0x47,0x4d,0x08,0x3a,0x0a,0x40,0x6e,0x61,0x6d,0x65,0x49,0x22,0x09,0x65,0x72,0x6f,0x32,0x06,0x3a,0x06,0x45,0x54,0x3a,0x0c,0x40,0x76,0x6f,0x6c,0x75,0x6d,0x65,0x69,0x50,0x3a,0x0b,0x40,0x70,0x69,0x74,0x63,0x68,0x69,0x69))
PictureDisplay(5,"80_sara_st12",0,0,0,0,100,100,255,0)
ShowMessageFace("ruka_fc1",0,0,2,1)
ShowMessage("\\n<Luka>......")
ShowMessageFace("",0,0,2,2)
ShowMessage("Luka pulls down his pants!")
ShowMessage("Excited, his cock is already erect!")
ShowMessageFace("sara_fc2",1,0,2,3)
ShowMessage("\\n<Sara>Fufu, look how big it is.\nEveryone gets excited in front of me...")
ShowMessageFace("",0,0,2,4)
ShowMessage("Sara begins to strip as she stares at Luka's penis.")
ShowMessageFace("sara_fc2",1,0,2,5)
ShowMessage("\\n<Sara>According to the rumors... Have you heard that I sleep with anyone?\nThose are lies.")
ShowMessageFace("sara_fc2",1,0,2,6)
ShowMessage("\\n<Sara>I only allow men who can endure my blowjob.\nBut I'm still a virgin... Do you know why?")
ShowMessageFace("sara_fc2",1,0,2,7)
ShowMessage("\\n<Sara>There is no man who can endure my mouth.\nEveryone comes so fast, shooting their semen all over.")
ShowMessageFace("sara_fc2",1,0,2,8)
ShowMessage("\\n<Sara>I wonder how long you can endure?\nGive it your best try...")
ChangeSwitch(96,96,0)
ChangeSwitch(98,98,0)
ShowMessageFace("sara_fc2",1,0,2,9)
ShowMessage("\\n<Sara>Well then, I'll take your dick into my mouth...\nNnnn... Mmm...")
PictureDisplay(5,"ev_sara_ha1",0,0,0,0,100,100,255,0)
250(bytes(0x04,0x08,0x6f,0x3a,0x0c,0x52,0x50,0x47,0x3a,0x3a,0x53,0x45,0x08,0x3a,0x0a,0x40,0x6e,0x61,0x6d,0x65,0x49,0x22,0x11,0x6d,0x6f,0x6e,0x5f,0x65,0x72,0x6f,0x5f,0x70,0x79,0x75,0x32,0x06,0x3a,0x06,0x45,0x54,0x3a,0x0b,0x40,0x70,0x69,0x74,0x63,0x68,0x69,0x69,0x3a,0x0c,0x40,0x76,0x6f,0x6c,0x75,0x6d,0x65,0x69,0x69))
ChangeVariable(11,11,0,2,55,60)
311(0,1,1,1,11,true)
ShowMessageFace("",0,0,2,10)
ShowMessage("Sara slowly opens her mouth, and takes Luka inside!")
ShowMessage("Her warm mouth wraps around his penis!\\D")
ShowMessage("Luka takes \\V[11] damage!")
ChangeVariable(27,27,0,3,3,1,2)
If(1,27,0,0,0)
 RunCommonEvent(7154)
 EndEventProcessing()
 0()
EndIf()
ShowMessageFace("sara_fc2",1,0,2,11)
ShowMessage("\\n<Sara>*Suck*\nAha, I'm sucking your penis.")
250(bytes(0x04,0x08,0x6f,0x3a,0x0c,0x52,0x50,0x47,0x3a,0x3a,0x53,0x45,0x08,0x3a,0x0a,0x40,0x6e,0x61,0x6d,0x65,0x49,0x22,0x11,0x6d,0x6f,0x6e,0x5f,0x65,0x72,0x6f,0x5f,0x70,0x79,0x75,0x32,0x06,0x3a,0x06,0x45,0x54,0x3a,0x0b,0x40,0x70,0x69,0x74,0x63,0x68,0x69,0x69,0x3a,0x0c,0x40,0x76,0x6f,0x6c,0x75,0x6d,0x65,0x69,0x69))
ChangeVariable(11,11,0,2,55,60)
311(0,1,1,1,11,true)
ShowMessageFace("",0,0,2,12)
ShowMessage("Sara sucks Luka deeper into her mouth!")
ShowMessage("Her lusting tongue rubs him inside her mouth!\\D")
ShowMessage("Luka takes \\V[11] damage!")
ChangeVariable(27,27,0,3,3,1,2)
If(1,27,0,0,0)
 RunCommonEvent(7154)
 EndEventProcessing()
 0()
EndIf()
ShowMessageFace("sara_fc2",1,0,2,13)
ShowMessage("\\n<Sara>I don't suck hard at the start...\nFirst I get it all sloppy as I suck... *Suck*")
250(bytes(0x04,0x08,0x6f,0x3a,0x0c,0x52,0x50,0x47,0x3a,0x3a,0x53,0x45,0x08,0x3a,0x0a,0x40,0x6e,0x61,0x6d,0x65,0x49,0x22,0x13,0x6d,0x6f,0x6e,0x5f,0x65,0x72,0x6f,0x5f,0x62,0x75,0x63,0x68,0x75,0x32,0x06,0x3a,0x06,0x45,0x54,0x3a,0x0b,0x40,0x70,0x69,0x74,0x63,0x68,0x69,0x69,0x3a,0x0c,0x40,0x76,0x6f,0x6c,0x75,0x6d,0x65,0x69,0x69))
ChangeVariable(11,11,0,2,55,60)
311(0,1,1,1,11,true)
ShowMessageFace("",0,0,2,14)
ShowMessage("Saliva floods Sara's mouth as she gently sucks on him!")
ShowMessage("Her warm saliva covers every inch of Luka's penis!\\D")
ShowMessage("Luka takes \\V[11] damage!")
ChangeVariable(27,27,0,3,3,1,2)
If(1,27,0,0,0)
 RunCommonEvent(7155)
 EndEventProcessing()
 0()
EndIf()
ShowMessageFace("sara_fc2",1,0,2,15)
ShowMessage("\\n<Sara>Then I use my tongue to clean it...\nNnn... *Suck*")
250(bytes(0x04,0x08,0x6f,0x3a,0x0c,0x52,0x50,0x47,0x3a,0x3a,0x53,0x45,0x08,0x3a,0x0a,0x40,0x6e,0x61,0x6d,0x65,0x49,0x22,0x13,0x6d,0x6f,0x6e,0x5f,0x65,0x72,0x6f,0x5f,0x62,0x75,0x63,0x68,0x75,0x32,0x06,0x3a,0x06,0x45,0x54,0x3a,0x0b,0x40,0x70,0x69,0x74,0x63,0x68,0x69,0x69,0x3a,0x0c,0x40,0x76,0x6f,0x6c,0x75,0x6d,0x65,0x69,0x69))
ChangeVariable(11,11,0,2,55,60)
311(0,1,1,1,11,true)
ShowMessageFace("",0,0,2,16)
ShowMessage("Sara's tongue licks Luka's glans in her saliva-filled mouth!")
ShowMessage("The sexy touch stimulates Luka!\\D")
ShowMessage("Luka takes \\V[11] damage!")
ChangeVariable(27,27,0,3,3,1,2)
If(1,27,0,0,0)
 RunCommonEvent(7155)
 EndEventProcessing()
 0()
EndIf()
ShowMessageFace("sara_fc2",1,0,2,17)
ShowMessage("\\n<Sara>My tongue is quite lewd...\nIt loves to coil around dicks until they twitch and come...")
250(bytes(0x04,0x08,0x6f,0x3a,0x0c,0x52,0x50,0x47,0x3a,0x3a,0x53,0x45,0x08,0x3a,0x0a,0x40,0x6e,0x61,0x6d,0x65,0x49,0x22,0x13,0x6d,0x6f,0x6e,0x5f,0x65,0x72,0x6f,0x5f,0x62,0x75,0x63,0x68,0x75,0x32,0x06,0x3a,0x06,0x45,0x54,0x3a,0x0b,0x40,0x70,0x69,0x74,0x63,0x68,0x69,0x69,0x3a,0x0c,0x40,0x76,0x6f,0x6c,0x75,0x6d,0x65,0x69,0x69))
ChangeVariable(11,11,0,2,55,60)
311(0,1,1,1,11,true)
ShowMessageFace("",0,0,2,18)
ShowMessage("Sara's tongue licks Luka's penis inside her mouth!")
ShowMessage("Covered in saliva, the immoral touch of her tongue fills him!\\D")
ShowMessage("Luka takes \\V[11] damage!")
ChangeVariable(27,27,0,3,3,1,2)
If(1,27,0,0,0)
 RunCommonEvent(7155)
 EndEventProcessing()
 0()
EndIf()
If(1,27,0,290,4)
 ShowMessageFace("ruka_fc1",0,0,2,19)
 ShowMessage("\\n<Luka>Ah, unnngh...")
 ShowMessageFace("sara_fc2",1,0,2,20)
 ShowMessage("\\n<Sara>Ahaha, it feels so good you're moaning?\nThen it's time for the vacuum...")
 0()
Else()
 ShowMessageFace("sara_fc2",1,0,2,21)
 ShowMessage("\\n<Sara>Hey, look at you holding on.\nBut can you withstand my vacuum?")
 0()
EndIf()
250(bytes(0x04,0x08,0x6f,0x3a,0x0c,0x52,0x50,0x47,0x3a,0x3a,0x53,0x45,0x08,0x3a,0x0a,0x40,0x6e,0x61,0x6d,0x65,0x49,0x22,0x13,0x6d,0x6f,0x6e,0x5f,0x65,0x72,0x6f,0x5f,0x62,0x75,0x63,0x68,0x75,0x33,0x06,0x3a,0x06,0x45,0x54,0x3a,0x0b,0x40,0x70,0x69,0x74,0x63,0x68,0x69,0x69,0x3a,0x0c,0x40,0x76,0x6f,0x6c,0x75,0x6d,0x65,0x69,0x69))
ChangeVariable(11,11,0,2,55,60)
311(0,1,1,1,11,true)
ShowMessageFace("",0,0,2,22)
ShowMessage("Sara narrows her mouth, and starts to suck hard!")
ShowMessage("The supreme suction pulls on Luka's penis!\\D")
ShowMessage("Luka takes \\V[11] damage!")
ChangeVariable(27,27,0,3,3,1,2)
If(1,27,0,0,0)
 RunCommonEvent(7155)
 EndEventProcessing()
 0()
EndIf()
250(bytes(0x04,0x08,0x6f,0x3a,0x0c,0x52,0x50,0x47,0x3a,0x3a,0x53,0x45,0x08,0x3a,0x0a,0x40,0x6e,0x61,0x6d,0x65,0x49,0x22,0x11,0x6d,0x6f,0x6e,0x5f,0x65,0x72,0x6f,0x5f,0x70,0x79,0x75,0x32,0x06,0x3a,0x06,0x45,0x54,0x3a,0x0b,0x40,0x70,0x69,0x74,0x63,0x68,0x69,0x69,0x3a,0x0c,0x40,0x76,0x6f,0x6c,0x75,0x6d,0x65,0x69,0x69))
ChangeVariable(11,11,0,2,55,60)
311(0,1,1,1,11,true)
ShowMessageFace("",0,0,2,23)
ShowMessage("As her vacuum-like suction continues, Sara's tongue coils around Luka's penis!")
ShowMessage("Her saliva-covered tongue crawls all over him!\\D")
ShowMessage("Luka takes \\V[11] damage!")
ChangeVariable(27,27,0,3,3,1,2)
If(1,27,0,0,0)
 RunCommonEvent(7155)
 EndEventProcessing()
 0()
EndIf()
ShowMessageFace("sara_fc2",1,0,2,24)
ShowMessage("\\n<Sara>This is how I suck out semen...\nEvery man comes here...")
250(bytes(0x04,0x08,0x6f,0x3a,0x0c,0x52,0x50,0x47,0x3a,0x3a,0x53,0x45,0x08,0x3a,0x0a,0x40,0x6e,0x61,0x6d,0x65,0x49,0x22,0x13,0x6d,0x6f,0x6e,0x5f,0x65,0x72,0x6f,0x5f,0x62,0x75,0x63,0x68,0x75,0x33,0x06,0x3a,0x06,0x45,0x54,0x3a,0x0b,0x40,0x70,0x69,0x74,0x63,0x68,0x69,0x69,0x3a,0x0c,0x40,0x76,0x6f,0x6c,0x75,0x6d,0x65,0x69,0x69))
ChangeVariable(11,11,0,2,55,60)
311(0,1,1,1,11,true)
ShowMessageFace("",0,0,2,25)
ShowMessage("Sara gets more passionate, sucking Luka even harder!")
ShowMessage("Her cheeks press against his penis as she sucks!\\D")
ShowMessage("Luka takes \\V[11] damage!")
ChangeVariable(27,27,0,3,3,1,2)
If(1,27,0,0,0)
 RunCommonEvent(7155)
 EndEventProcessing()
 0()
EndIf()
ShowMessageFace("sara_fc2",1,0,2,26)
ShowMessage("\\n<Sara>That's incredible, you withstood it...\nI'll suck out your semen, like all the others... *Suck*")
250(bytes(0x04,0x08,0x6f,0x3a,0x0c,0x52,0x50,0x47,0x3a,0x3a,0x53,0x45,0x08,0x3a,0x0a,0x40,0x6e,0x61,0x6d,0x65,0x49,0x22,0x13,0x6d,0x6f,0x6e,0x5f,0x65,0x72,0x6f,0x5f,0x62,0x75,0x63,0x68,0x75,0x33,0x06,0x3a,0x06,0x45,0x54,0x3a,0x0b,0x40,0x70,0x69,0x74,0x63,0x68,0x69,0x69,0x3a,0x0c,0x40,0x76,0x6f,0x6c,0x75,0x6d,0x65,0x69,0x69))
ChangeVariable(11,11,0,2,55,60)
311(0,1,1,1,11,true)
ShowMessageFace("",0,0,2,27)
ShowMessage("Her tongue rubs against the neck of Luka's penis!")
ShowMessage("Sara's crazy suction gets even more powerful!\\D")
ShowMessage("Luka takes \\V[11] damage!")
ChangeVariable(27,27,0,3,3,1,2)
If(1,27,0,0,0)
 RunCommonEvent(7155)
 EndEventProcessing()
 0()
EndIf()
ShowMessageFace("sara_fc2",1,0,2,28)
ShowMessage("\\n<Sara>Ufufu, this is the end.\nNow go to heaven... *Suck*")
250(bytes(0x04,0x08,0x6f,0x3a,0x0c,0x52,0x50,0x47,0x3a,0x3a,0x53,0x45,0x08,0x3a,0x0a,0x40,0x6e,0x61,0x6d,0x65,0x49,0x22,0x13,0x6d,0x6f,0x6e,0x5f,0x65,0x72,0x6f,0x5f,0x62,0x75,0x63,0x68,0x75,0x33,0x06,0x3a,0x06,0x45,0x54,0x3a,0x0b,0x40,0x70,0x69,0x74,0x63,0x68,0x69,0x69,0x3a,0x0c,0x40,0x76,0x6f,0x6c,0x75,0x6d,0x65,0x69,0x69))
ChangeVariable(11,11,0,2,55,60)
311(0,1,1,1,11,true)
ShowMessageFace("",0,0,2,29)
ShowMessage("The vacuum-like stimulus intensifies!")
ShowMessage("Luka is assaulted by a suction able to suck out even souls!\\D")
ShowMessage("Luka takes \\V[11] damage!")
ChangeVariable(27,27,0,3,3,1,2)
If(1,27,0,0,0)
 RunCommonEvent(7155)
 EndEventProcessing()
 0()
EndIf()
RunCommonEvent(7153)
EndEventProcessing()
0()
