// EVENT 5003
Name "Alra Prison"

PictureDisplay(5,"80_a_prison_st02",0,0,0,0,100,100,0,0)
PictureMove(5,null,0,0,0,0,100,100,255,0,30,true)
ShowMessageFace("a_prison_fc1",0,0,2,1)
ShowMessage("\\n<Alra Prison>")
ShowMessage("Eh, you want me to make you feel good...?")
ShowMessageFace("",0,0,2,2)
ShowMessage("\\n<Luka>")
ShowMessage("Y-Yes please...")
ShowMessageFace("a_prison_fc1",1,0,2,3)
ShowMessage("\\n<Alra Prison>")
ShowMessage("Well then, I'll give you lots of pleasure...")
ShowMessage("With my own special method...")
241(bytes(0x04,0x08,0x6f,0x3a,0x0d,0x52,0x50,0x47,0x3a,0x3a,0x42,0x47,0x4d,0x08,0x3a,0x0a,0x40,0x6e,0x61,0x6d,0x65,0x49,0x22,0x09,0x65,0x72,0x6f,0x31,0x06,0x3a,0x06,0x45,0x54,0x3a,0x0c,0x40,0x76,0x6f,0x6c,0x75,0x6d,0x65,0x69,0x69,0x3a,0x0b,0x40,0x70,0x69,0x74,0x63,0x68,0x69,0x69))
250(bytes(0x04,0x08,0x6f,0x3a,0x0c,0x52,0x50,0x47,0x3a,0x3a,0x53,0x45,0x08,0x3a,0x0a,0x40,0x6e,0x61,0x6d,0x65,0x49,0x22,0x16,0x6d,0x6f,0x6e,0x5f,0x65,0x72,0x6f,0x5f,0x6d,0x61,0x6b,0x69,0x74,0x75,0x6b,0x69,0x33,0x06,0x3a,0x06,0x45,0x54,0x3a,0x0b,0x40,0x70,0x69,0x74,0x63,0x68,0x69,0x69,0x3a,0x0c,0x40,0x76,0x6f,0x6c,0x75,0x6d,0x65,0x69,0x69))
PictureDisplay(5,"ev_a_prison_h1",0,0,0,0,100,100,255,0)
ShowMessageFace("",0,0,2,4)
ShowMessage("Alra Prison slowly comes closer to me.")
ShowMessage("And wraps me in a giant flower!")
ShowMessageFace("",0,0,2,5)
ShowMessage("Four giant flower petals surround me, cutting me off from the outside world.")
ShowMessage("It's dark, as if I was just placed into a prison.")
ShowMessageFace("",0,0,2,6)
ShowMessage("\\n<Luka>")
ShowMessage("Wh...what are you doing!?")
ShowMessageFace("a_prison_fc1",1,0,2,7)
ShowMessage("\\n<Alra Prison>")
ShowMessage("What am I going to do with you in here?")
ShowMessage("I'm going to suck out your semen, of course.")
PictureDisplay(6,"ev_a_prison_ct01",0,0,0,0,100,100,255,0)
ShowMessageFace("",0,0,2,8)
ShowMessage("Inside the prison, countless ivy vines suddenly swarm around me.")
ShowMessage("They quickly entangle my body, sealing off my movement.")
ShowMessageFace("",0,0,2,9)
ShowMessage("After that, a bizarre flower approaches my body.")
ShowMessageFace("a_prison_fc1",1,0,2,10)
ShowMessage("\\n<Alra Prison>")
ShowMessage("That's a sucking flower...")
ShowMessage("It's a magical flower that sucks out your semen.")
ShowMessageFace("a_prison_fc1",1,0,2,11)
ShowMessage("\\n<Alra Prison>")
ShowMessage("From now on, this flower is going to be sucking out your semen.")
ShowMessageFace("",0,0,2,12)
ShowMessage("\\n<Luka>")
ShowMessage("No...No! Stop!")
ShowMessageFace("",0,0,2,13)
ShowMessage("I tremble in fear as the flower slowly approaches my groin.")
ShowMessage("Then...")
245(bytes(0x04,0x08,0x6f,0x3a,0x0d,0x52,0x50,0x47,0x3a,0x3a,0x42,0x47,0x53,0x08,0x3a,0x0a,0x40,0x6e,0x61,0x6d,0x65,0x49,0x22,0x1a,0x6d,0x6f,0x6e,0x5f,0x68,0x73,0x65,0x61,0x6e,0x32,0x31,0x5f,0x74,0x65,0x6e,0x74,0x61,0x63,0x6c,0x65,0x32,0x06,0x3a,0x06,0x45,0x54,0x3a,0x0c,0x40,0x76,0x6f,0x6c,0x75,0x6d,0x65,0x69,0x55,0x3a,0x0b,0x40,0x70,0x69,0x74,0x63,0x68,0x69,0x69))
PictureDisplay(6,"ev_a_prison_ct02",0,0,0,0,100,100,255,0)
ShowMessageFace("",0,0,2,14)
ShowMessage("With a sticky noise, it sucks my penis inside!")
ShowMessageFace("",0,0,2,15)
ShowMessage("\\n<Luka>")
ShowMessage("Ah, aaaah...")
ShowMessageFace("",0,0,2,16)
ShowMessage("Surprised by the sudden pleasurable stimulation the flower sucking on my penis gives, I relax my body.")
ShowMessageFace("",0,0,2,17)
ShowMessage("Sticky mucus drips out of the flower, causing a lewd sound to echo off the tight walls of her prison with every powerful suck.")
ShowMessageFace("",0,0,2,18)
ShowMessage("\\n<Luka>")
ShowMessage("Haaa... That feels good...")
ShowMessageFace("",0,0,2,19)
ShowMessage("The flower keeps on sucking on me, as the ivy wrapped around my body prevents me from moving.")
ShowMessageFace("",0,0,2,20)
ShowMessage("I feel the base of my penis starting to throb as an impending climax starts to well up.")
ShowMessageFace("a_prison_fc1",1,0,2,21)
ShowMessage("\\n<Alra Prison>")
ShowMessage("Now, come...")
ShowMessage("Ejaculate into my flower like the pathetic boy you are...")
ShowMessageFace("",0,0,2,22)
ShowMessage("\\n<Luka>")
ShowMessage("Ahh... No... More...")
ShowMessage("Ahhhh!")
RunCommonEvent(104)
PictureDisplay(6,"ev_a_prison_ct03",0,0,0,0,100,100,255,0)
RunCommonEvent(105)
ShowMessageFace("",0,0,2,23)
ShowMessage("As my penis pulses for the ejaculation, the flower suddenly violently sucks on me.")
ShowMessage("Each squirt of semen is met by a powerful suction from the flower.")
ShowMessageFace("",0,0,2,24)
ShowMessage("\\n<Luka>")
ShowMessage("Ahhhh!?")
ShowMessageFace("",0,0,2,25)
ShowMessage("Perfectly in synch with my spasms, the resulting double stimulus is too much for me to take.")
ShowMessageFace("",0,0,2,26)
ShowMessage("\\n<Luka>")
ShowMessage("Ahhh... It's sucking...!")
ShowMessageFace("",0,0,2,27)
ShowMessage("It feels as though the flower is the one sucking out the semen, not my body shooting it out.")
ShowMessageFace("",0,0,2,28)
ShowMessage("As my head thrashes side to side, my eyes land on the ivy binding me in place.")
ShowMessage("Reminded of my miserable position inside her prison, I come to my senses again.")
ShowMessageFace("",0,0,2,29)
ShowMessage("\\n<Luka>")
ShowMessage("Aahh... Help me...")
ShowMessageFace("a_prison_fc1",1,0,2,30)
ShowMessage("\\n<Alra Prison>")
ShowMessage("Hehe... Help won't ever come.")
ShowMessage("You're in my prison. Nobody will ever see you again.")
ShowMessageFace("",0,0,2,31)
ShowMessage("\\n<Luka>")
ShowMessage("Nnn.. Mmmg!?")
245(bytes(0x04,0x08,0x6f,0x3a,0x0d,0x52,0x50,0x47,0x3a,0x3a,0x42,0x47,0x53,0x08,0x3a,0x0a,0x40,0x6e,0x61,0x6d,0x65,0x49,0x22,0x1a,0x6d,0x6f,0x6e,0x5f,0x68,0x73,0x65,0x61,0x6e,0x32,0x32,0x5f,0x74,0x65,0x6e,0x74,0x61,0x63,0x6c,0x65,0x33,0x06,0x3a,0x06,0x45,0x54,0x3a,0x0c,0x40,0x76,0x6f,0x6c,0x75,0x6d,0x65,0x69,0x55,0x3a,0x0b,0x40,0x70,0x69,0x74,0x63,0x68,0x69,0x69))
PictureDisplay(6,"ev_a_prison_ct04",0,0,0,0,100,100,255,0)
ShowMessageFace("",0,0,2,32)
ShowMessage("More vines entangle my body, tightly wrapping around my body.")
ShowMessage("As I open my mouth in surprise, another vine forces itself into my mouth and starts pumping a liquid in.")
ShowMessageFace("",0,0,2,33)
ShowMessage("\\n<Luka>")
ShowMessage("Nnnnn!!")
ShowMessageFace("a_prison_fc1",1,0,2,34)
ShowMessage("\\n<Alra Prison>")
ShowMessage("I won't let you die, so I need to feed you...")
ShowMessage("...Oh, and it has an aphrodisiac.")
ShowMessageFace("a_prison_fc1",1,0,2,35)
ShowMessage("\\n<Alra Prison>")
ShowMessage("You're my prisoner, and I won't allow you to die.")
ShowMessage("You will stay inside me, and be sucked forever.")
ShowMessageFace("",0,0,2,36)
ShowMessage("\\n<Luka>")
ShowMessage("Nnnn!!")
ShowMessageFace("",0,0,2,37)
ShowMessage("The flower around my penis starts to suck again, even more powerfully than before.")
ShowMessage("Several soft vines gently massage my penis as the flower sucks on it.")
ShowMessageFace("",0,0,2,38)
ShowMessage("Quickly brought to another climax, I sigh as I explode inside the flower again.")
ShowMessageFace("",0,0,2,39)
ShowMessage("\\n<Luka>")
ShowMessage("N-nnngh...")
RunCommonEvent(104)
PictureDisplay(6,"ev_a_prison_ct05",0,0,0,0,100,100,255,0)
RunCommonEvent(105)
ShowMessageFace("",0,0,2,40)
ShowMessage("Just like before, the flower violently sucks on me in time with every spurt of semen.")
ShowMessageFace("a_prison_fc1",1,0,2,41)
ShowMessage("\\n<Alra Prison>")
ShowMessage("Hehe, it feels good so there's no reason to hold back anymore, right?")
ShowMessageFace("a_prison_fc1",1,0,2,42)
ShowMessage("\\n<Alra Prison>")
ShowMessage("You're now just part of my body.")
ShowMessage("You're nothing more than an organ for creating semen.")
ShowMessageFace("",0,0,2,43)
ShowMessage("\\n<Luka>")
ShowMessage("Nnngh...")
ShowMessageFace("",0,0,2,44)
ShowMessage("After waiting a few moments, the flower starts to suck again.")
ShowMessage("As if it was a machine, it continues its behavior from before without slowing down.")
ShowMessageFace("",0,0,2,45)
ShowMessage("It stimulates me with pleasure, forcing me to orgasm.")
ShowMessage("It sucks up the semen I shoot into it. After waiting a few moments, it starts all over again.")
ShowMessageFace("",0,0,2,46)
ShowMessage("The cycle almost seems mechanical.")
ShowMessageFace("",0,0,2,47)
ShowMessage("\\n<Luka>")
ShowMessage("Nnnn....")
ShowMessageFace("",0,0,2,48)
ShowMessage("With my mouth closed up, I can't call for help.")
ShowMessage("With the flowers hiding me inside her, nobody would ever know I was in here...")
ShowMessageFace("",0,0,2,49)
ShowMessage("\\n<Luka>")
ShowMessage("Nnngh...")
RunCommonEvent(104)
RunCommonEvent(105)
ShowMessageFace("",0,0,2,50)
ShowMessage("Even while grieving over my fate, I continue to come.")
ShowMessageFace("a_prison_fc1",1,0,2,51)
ShowMessage("\\n<Alra Prison>")
ShowMessage("Hehe... Do you understand your role?")
ShowMessage("Until you die a natural death, you'll remain in my prison.")
ShowMessageFace("",0,0,2,52)
ShowMessage("\\n<Luka>")
ShowMessage("N-nnngh...")
ShowMessageFace("",0,0,2,53)
ShowMessage("Bound inside her prison, I really am just part of her body now...")
RunCommonEvent(104)
RunCommonEvent(105)
ShowMessageFace("",0,0,2,54)
ShowMessage("Helpless, her mechanical like flower sucks out another orgasm.")
ShowMessageFace("a_prison_fc1",1,0,2,55)
ShowMessage("\\n<Alra Prison>")
ShowMessage("Hehehe, a constant source of semen...")
ShowMessage("As a man, are you horrified? Or happy?")
ShowMessageFace("a_prison_fc1",1,0,2,56)
ShowMessage("\\n<Alra Prison>")
ShowMessage("Of course, it has to be happiness, right?")
ShowMessage("Because I know it feels so good...")
ShowMessageFace("",0,0,2,57)
ShowMessage("\\n<Luka>")
ShowMessage("Nnngh...")
RunCommonEvent(104)
RunCommonEvent(105)
ShowMessageFace("",0,0,2,58)
ShowMessage("Unable to answer with my words, the only response I can give is another ejaculation.")
ShowMessage("I was thoroughly sucked until the next morning when she released me...")
221()
PictureClear(5)
PictureClear(6)
246(2)
ShowMessageFace("",0,0,2,59)
ShowMessage("......")
RunCommonEvent(3998)
0()
